cascade.vcd
$date
	Fri Feb 20 16:07:38 2026
$end
$version
	Icarus Verilog
$end
$timescale
	1ps
$end
$scope module tb_cascade $end
$var wire 1 ! cascade_alert $end
$var wire 1 " cascade_cb_load $end
$var wire 8 # cascade_cb_param [7:0] $end
$var wire 2 $ cascade_type [1:0] $end
$var wire 9 % cb_countdown [8:0] $end
$var wire 8 & uio_oe [7:0] $end
$var wire 8 ' uo_out [7:0] $end
$var wire 8 ( uio_out [7:0] $end
$var wire 4 ) hist2 [3:0] $end
$var wire 4 * hist1 [3:0] $end
$var wire 4 + hist0 [3:0] $end
$var reg 1 , cascade_seen $end
$var reg 2 - cascade_type_seen [1:0] $end
$var reg 1 . clk $end
$var reg 1 / ena $end
$var reg 1 0 rst_n $end
$var reg 8 1 ui_in [7:0] $end
$var reg 8 2 uio_in [7:0] $end
$var integer 32 3 cb_countdown_captured [31:0] $end
$var integer 32 4 cyc [31:0] $end
$var integer 32 5 fail_count [31:0] $end
$var integer 32 6 pass_count [31:0] $end
$scope function casc_name $end
$var reg 2 7 t [1:0] $end
$upscope $end
$scope module dut $end
$var wire 1 8 cb_load_final $end
$var wire 1 . clk $end
$var wire 1 9 comb_alert $end
$var wire 1 : config_strobe $end
$var wire 1 / ena $end
$var wire 1 0 rst_n $end
$var wire 1 ; uart_trigger $end
$var wire 8 < ui_in [7:0] $end
$var wire 8 = uio_in [7:0] $end
$var wire 8 > uio_oe [7:0] $end
$var wire 12 ? vol_data [11:0] $end
$var wire 8 @ uio_out [7:0] $end
$var wire 8 A uart_payload [7:0] $end
$var wire 3 B rule_alert_type [2:0] $end
$var wire 3 C rule_alert_priority [2:0] $end
$var wire 8 D rule_alert_bitmap [7:0] $end
$var wire 1 E rule_alert_any $end
$var wire 12 F price_data [11:0] $end
$var wire 1 G ml_valid $end
$var wire 8 H ml_confidence [7:0] $end
$var wire 3 I ml_class [2:0] $end
$var wire 1 J match_valid $end
$var wire 8 K match_price [7:0] $end
$var wire 2 L input_type [1:0] $end
$var wire 128 M features [127:0] $end
$var wire 1 N feature_valid $end
$var wire 3 O comb_type [2:0] $end
$var wire 3 P comb_priority [2:0] $end
$var wire 2 Q cb_state [1:0] $end
$var wire 8 R cb_param_final [7:0] $end
$var wire 2 S cb_mode_final [1:0] $end
$var wire 1 T cb_active $end
$var wire 2 U cascade_type [1:0] $end
$var wire 8 V cascade_cb_param [7:0] $end
$var wire 1 W cascade_cb_load $end
$var wire 1 X cascade_alert $end
$var wire 1 Y _unused $end
$var wire 1 Z _cascade_type_unused $end
$var wire 12 [ SPIKE_THRESH [11:0] $end
$var wire 12 \ FLASH_THRESH [11:0] $end
$var parameter 32 ] BAUD_DIV $end
$var parameter 32 ^ CLK_HZ $end
$var parameter 32 _ HB_DIV $end
$var reg 1 ` cb_load_r $end
$var reg 2 a cb_mode_cmd [1:0] $end
$var reg 2 b cb_mode_next [1:0] $end
$var reg 8 c cb_param_cmd [7:0] $end
$var reg 8 d cb_param_next [7:0] $end
$var reg 25 e hb_cnt [24:0] $end
$var reg 1 f hb_led $end
$var reg 1 g ml_anomaly_held $end
$var reg 3 h ml_class_held [2:0] $end
$var reg 3 i ml_prio_held [2:0] $end
$var reg 1 j prev_alert_r $end
$var reg 2 k thresh_sel [1:0] $end
$var reg 10 l uart_bit_cnt [9:0] $end
$var reg 4 m uart_bits [3:0] $end
$var reg 1 n uart_busy $end
$var reg 10 o uart_shift [9:0] $end
$var reg 1 p uart_tx $end
$var reg 8 q uo_out [7:0] $end
$scope module u_cascade $end
$var wire 1 r cascade_fire $end
$var wire 1 . clk $end
$var wire 1 s event_any $end
$var wire 1 t is_spike_crash $end
$var wire 1 u is_stuff_crash $end
$var wire 1 v is_triple $end
$var wire 1 w is_vol_crash $end
$var wire 1 x ml_evt $end
$var wire 1 y new_is_flash $end
$var wire 1 0 rst_n $end
$var wire 1 z rule_evt $end
$var wire 1 { test_flush $end
$var wire 3 | rule_alert_type [2:0] $end
$var wire 1 E rule_alert_any $end
$var wire 1 G ml_valid $end
$var wire 8 } ml_confidence [7:0] $end
$var wire 3 ~ ml_class [2:0] $end
$var wire 3 !" h2_next [2:0] $end
$var wire 3 "" h1_next [2:0] $end
$var wire 3 #" event_code [2:0] $end
$var wire 9 $" conf_x2_wide [8:0] $end
$var wire 8 %" conf_x2_sat [7:0] $end
$var wire 2 &" cascade_type_next [1:0] $end
$var parameter 32 '" CASCADE_HOLD $end
$var parameter 32 (" CASCADE_WINDOW $end
$var parameter 2 )" CT_SPIKE_CRASH $end
$var parameter 2 *" CT_STUFF_CRASH $end
$var parameter 2 +" CT_TRIPLE $end
$var parameter 2 ," CT_VOL_CRASH $end
$var reg 7 -" age_cnt [6:0] $end
$var reg 1 X cascade_alert $end
$var reg 1 W cascade_cb_load $end
$var reg 8 ." cascade_cb_param [7:0] $end
$var reg 2 /" cascade_type [1:0] $end
$var reg 6 0" hold_cnt [5:0] $end
$upscope $end
$scope module u_feat_extractor $end
$var wire 1 . clk $end
$var wire 2 1" input_type [1:0] $end
$var wire 12 2" price_data [11:0] $end
$var wire 1 0 rst_n $end
$var wire 12 3" volume_data [11:0] $end
$var wire 1 J match_valid $end
$var wire 8 4" match_price [7:0] $end
$var wire 1 5" is_volume $end
$var wire 1 6" is_sell $end
$var wire 1 7" is_price $end
$var wire 1 8" is_buy $end
$var reg 8 9" buy_count [7:0] $end
$var reg 12 :" cur_vol [11:0] $end
$var reg 8 ;" feat1_acc [7:0] $end
$var reg 1 N feature_valid $end
$var reg 128 <" features [127:0] $end
$var reg 12 =" price_mad [11:0] $end
$var reg 14 >" price_sum4 [13:0] $end
$var reg 2 ?" ptr_s [1:0] $end
$var reg 8 @" sell_count [7:0] $end
$var reg 2 A" vol_ptr [1:0] $end
$var reg 14 B" vol_sum4 [13:0] $end
$var reg 8 C" window_cnt [7:0] $end
$var integer 32 D" i [31:0] $end
$scope begin seq_main $end
$scope begin emit $end
$var reg 16 E" arr_tmp [15:0] $end
$var reg 12 F" delta_s [11:0] $end
$var reg 8 G" vol_avg8 [7:0] $end
$var reg 16 H" vr_tmp [15:0] $end
$upscope $end
$scope begin price_upd $end
$var reg 8 I" delta8 [7:0] $end
$var reg 12 J" pavg [11:0] $end
$var reg 12 K" pdelta [11:0] $end
$upscope $end
$upscope $end
$upscope $end
$scope module u_ml_engine $end
$var wire 1 . clk $end
$var wire 1 N feature_valid $end
$var wire 128 L" features [127:0] $end
$var wire 1 0 rst_n $end
$var wire 8 M" f_volrat [7:0] $end
$var wire 8 N" f_volat [7:0] $end
$var wire 8 O" f_price10 [7:0] $end
$var wire 8 P" f_price1 [7:0] $end
$var wire 8 Q" f_imbal [7:0] $end
$var wire 8 R" f_arriv [7:0] $end
$var reg 3 S" c_class [2:0] $end
$var reg 8 T" c_conf [7:0] $end
$var reg 3 U" ml_class [2:0] $end
$var reg 8 V" ml_confidence [7:0] $end
$var reg 1 G ml_valid $end
$scope begin classify $end
$upscope $end
$upscope $end
$scope module u_order_book $end
$var wire 1 8 cb_load $end
$var wire 2 W" cb_mode [1:0] $end
$var wire 8 X" cb_param [7:0] $end
$var wire 2 Y" cb_state [1:0] $end
$var wire 1 . clk $end
$var wire 1 Z" crossing $end
$var wire 6 [" data_in [5:0] $end
$var wire 6 \" ext_data [5:0] $end
$var wire 2 ]" input_type [1:0] $end
$var wire 1 0 rst_n $end
$var wire 4 ^" throttle_div [3:0] $end
$var wire 1 _" throttle_allow $end
$var wire 3 `" spread_guard [2:0] $end
$var wire 1 a" order_gate $end
$var wire 7 b" new_price [6:0] $end
$var wire 1 c" match_gate $end
$var wire 1 d" is_sell $end
$var wire 1 e" is_buy $end
$var wire 7 f" cross_threshold [6:0] $end
$var wire 1 T cb_active $end
$var wire 3 g" active_guard [2:0] $end
$var reg 7 h" best_ask [6:0] $end
$var reg 2 i" best_ask_idx [1:0] $end
$var reg 1 j" best_ask_valid $end
$var reg 7 k" best_bid [6:0] $end
$var reg 2 l" best_bid_idx [1:0] $end
$var reg 1 m" best_bid_valid $end
$var reg 9 n" cb_countdown [8:0] $end
$var reg 2 o" cb_mode_r [1:0] $end
$var reg 8 p" cb_param_r [7:0] $end
$var reg 2 q" empty_ask_slot [1:0] $end
$var reg 2 r" empty_bid_slot [1:0] $end
$var reg 1 s" has_empty_ask $end
$var reg 1 t" has_empty_bid $end
$var reg 8 u" match_price [7:0] $end
$var reg 1 J match_valid $end
$var reg 4 v" throttle_cnt [3:0] $end
$var integer 32 w" i3 [31:0] $end
$scope begin best_finder $end
$var reg 3 x" i [2:0] $end
$upscope $end
$scope begin slot_finder $end
$upscope $end
$upscope $end
$scope module u_rule_detector $end
$var wire 1 . clk $end
$var wire 1 y" det_flash $end
$var wire 1 z" det_imbalance $end
$var wire 1 {" det_spread $end
$var wire 1 |" det_vol_dry $end
$var wire 1 }" det_vol_surge $end
$var wire 1 ~" det_volatility $end
$var wire 12 !# flash_thresh [11:0] $end
$var wire 2 "# input_type [1:0] $end
$var wire 8 ## match_price [7:0] $end
$var wire 1 J match_valid $end
$var wire 12 $# price_data [11:0] $end
$var wire 1 0 rst_n $end
$var wire 12 %# spike_thresh [11:0] $end
$var wire 12 &# volume_data [11:0] $end
$var wire 13 '# vol_surge_thresh [12:0] $end
$var wire 12 (# vol_dry_thresh [11:0] $end
$var wire 12 )# vol_deviation [11:0] $end
$var wire 12 *# price_drop [11:0] $end
$var wire 12 +# price_delta [11:0] $end
$var wire 1 ,# is_volume $end
$var wire 1 -# is_sell $end
$var wire 1 .# is_price $end
$var wire 1 /# is_buy $end
$var wire 1 0# det_velocity $end
$var wire 1 1# det_spike $end
$var wire 3 2# alert_type [2:0] $end
$var wire 3 3# alert_priority [2:0] $end
$var wire 8 4# alert_bitmap [7:0] $end
$var wire 1 E alert_any $end
$var parameter 5 5# VELOCITY_THRESH $end
$var parameter 32 6# VOL_DRY_DIV $end
$var parameter 32 7# VOL_SURGE_MULT $end
$var reg 3 8# buy_order_count [2:0] $end
$var reg 12 9# current_price [11:0] $end
$var reg 12 :# current_volume [11:0] $end
$var reg 5 ;# match_counter [4:0] $end
$var reg 5 <# match_rate [4:0] $end
$var reg 12 =# prev_price [11:0] $end
$var reg 12 ># price_avg [11:0] $end
$var reg 12 ?# price_mad [11:0] $end
$var reg 2 @# price_ptr [1:0] $end
$var reg 14 A# price_sum [13:0] $end
$var reg 3 B# sell_order_count [2:0] $end
$var reg 12 C# vol_avg [11:0] $end
$var reg 2 D# vol_ptr [1:0] $end
$var reg 14 E# vol_sum [13:0] $end
$var reg 8 F# window_timer [7:0] $end
$var integer 32 G# i [31:0] $end
$upscope $end
$upscope $end
$scope task check $end
$var reg 1 H# cond $end
$var reg 256 I# lbl [255:0] $end
$upscope $end
$scope task do_reset $end
$upscope $end
$scope task end_test $end
$upscope $end
$scope task inject_ml $end
$var reg 3 J# cls [2:0] $end
$var reg 8 K# conf [7:0] $end
$upscope $end
$scope task tick $end
$var integer 32 L# i [31:0] $end
$var integer 32 M# n [31:0] $end
$upscope $end
$scope task wait_for_cascade $end
$var integer 32 N# i [31:0] $end
$var integer 32 O# n [31:0] $end
$upscope $end
$upscope $end
$enddefinitions $end
$comment Show the parameter values. $end
$dumpall
b10 7#
b100 6#
b11110 5#
b0 ,"
b11 +"
b10 *"
b1 )"
b1000000 ("
b100000 '"
b1011111010111100001000000 _
b10111110101111000010000000 ^
b110110010 ]
$end
#0
$dumpvars
bx O#
bx N#
bx M#
bx L#
bx K#
bx J#
bx I#
xH#
bx G#
bx F#
bx E#
bx D#
bx C#
bx B#
bx A#
bx @#
bx ?#
bx >#
bx =#
bx <#
bx ;#
bx :#
bx 9#
bx 8#
bx 4#
bx 3#
bx 2#
x1#
x0#
0/#
1.#
0-#
0,#
bx +#
bx *#
bx )#
b0xxxxxxxx (#
bx00 '#
b0 &#
b0xxxxxx %#
b0 $#
bx ##
b0 "#
b0xxxxx0 !#
x~"
x}"
x|"
x{"
xz"
xy"
bx x"
bx w"
bx v"
bx u"
xt"
xs"
bx r"
bx q"
bx p"
bx o"
bx n"
xm"
bx l"
bx k"
xj"
bx i"
bx h"
bx g"
bx f"
0e"
0d"
xc"
b0 b"
xa"
bx `"
x_"
bx ^"
b0 ]"
b0 \"
b0 ["
xZ"
bx Y"
bx X"
bx W"
bx V"
bx U"
bx T"
bx S"
bx R"
bx Q"
bx P"
bx O"
bx N"
bx M"
bx L"
bx K"
bx J"
bx I"
bx H"
bx G"
bx F"
bx E"
bx D"
bx C"
bx B"
bx A"
bx @"
bx ?"
bx >"
bx ="
bx <"
bx ;"
bx :"
bx 9"
08"
17"
06"
05"
bx 4"
b0 3"
b0 2"
b0 1"
bx 0"
bx /"
bx ."
bx -"
bx &"
bx %"
bx0 $"
bx #"
bx ""
bx !"
bx ~
bx }
bx |
0{
0z
xy
xx
xw
xv
xu
xt
xs
xr
bx q
xp
bx o
xn
bx m
bx l
bx k
xj
bx i
bx h
xg
xf
bx e
bx d
bx c
bx b
bx a
x`
b0xxxxx0 \
b0xxxxxx [
xZ
0Y
xX
xW
bx V
bx U
xT
bx S
bx R
bx Q
bx P
bx O
xN
bx M
b0 L
bx K
xJ
bx I
bx H
xG
b0 F
0E
bx D
bx C
bx B
bx A
bx @
b0 ?
b11111111 >
b0 =
b0 <
x;
0:
x9
x8
bx 7
b0 6
b0 5
b0 4
bx 3
b0 2
b0 1
00
1/
0.
bx -
x,
b0xxx +
b0xxx *
b0xxx )
bx (
bx '
b11111111 &
bx %
bx $
bx #
x"
x!
$end
#10000
b1 P
b1 O
b1 C
b1 3#
b1 B
b1 |
b1 2#
0r
b0 &"
0;
0v
0~"
b0 %"
0Z"
b0 )#
0y"
0{"
0z"
0}"
0E
1|"
0y
0s
0w
0t
0u
b0 ^"
b0 `"
1a"
1c"
b1111111 f"
b0 g"
1s"
b0 q"
1t"
b0 r"
b100 x"
b0 i"
0j"
b1111111 h"
b0 l"
0m"
b0 k"
01#
b0 +#
b0 *#
b110010000 '#
b110 (#
b0 $"
b0 #"
b0 d
b0 b
0x
08
0Z
09
b0 !"
b0 ""
b10100 [
b10100 %#
b101000 \
b101000 !#
b0 R
b0 X"
b0 S
b0 W"
b100100 A
b0 (
b0 @
b10001 '
b10001 q
0N
b0 ;"
b0 C"
b0 @"
b0 9"
b1100100 :"
b110010000 B"
b101 ="
b110010000 >"
b0 A"
b0 ?"
1_"
b0 v"
b0 p"
b0 %
b0 n"
0T
b0 Q
b0 Y"
b0 o"
b0 K
b0 4"
b0 u"
b0 ##
0J
b101 ?#
b0 :#
b1100100 =#
b1100100 9#
b0 B#
b0 8#
b10 D
b10 4#
00#
b0 <#
b0 F#
b0 ;#
b1100100 C#
b1100100 >#
b0 E#
b0 A#
b0 D#
b0 @#
b0 H
b0 }
b0 V"
b0 I
b0 ~
b0 U"
0G
b0 0"
b0 #
b0 V
b0 ."
0"
0W
b0 $
b0 U
b0 /"
0!
0X
b0 -"
b0 )
b0 *
b0 +
b1 k
0`
b0 c
b0 a
b0 i
0g
b0 h
0j
b0 m
b0 l
b1111111111 o
1p
0n
0f
b0 e
b100 D"
b100 w"
b100 G#
b1 4
1.
#20000
0.
#30000
b100 D"
b100 G#
b100 w"
b10 4
1.
#40000
0.
#50000
b100 D"
b100 w"
b100 G#
b11 4
1.
#60000
0.
#70000
b100 D"
b100 G#
b100 w"
b100 4
1.
#80000
0.
#90000
b100 D"
b100 w"
b100 G#
b101 4
1.
#91000
1{
10
#100000
0.
#110000
b1100110 '
b1100110 q
b110 P
b11011000 A
b110 O
b110 C
b110 3#
b110 B
b110 |
b110 2#
1~"
b1010100 )#
b1000011 D
b1000011 4#
11#
b1100100 +#
b1 C"
b1100 ;"
b1 ?"
b100101100 >"
b1 e
b1 F#
b10000 ?#
b0 >#
b1 @#
b11111110011100 A#
b0 9#
b1100100 I"
b1100100 K"
b1100100 J"
b110 4
1.
#120000
0.
#130000
b1110111 '
b1110111 q
b111 P
b11111100 A
b111 O
b111 C
b111 3#
b111 B
b111 |
b111 2#
0~"
1y"
b0 )#
b111111100111 *#
b10000010 D
b10000010 4#
01#
b0 +#
b10 C"
b10100 ;"
b100 ="
b10 ?"
b11001000 >"
b10 F#
b1110 ?#
b111111100111 >#
b10 @#
b11111100111000 A#
b0 =#
b10 e
b1001011 I"
b1001011 K"
b1001011 J"
b111 4
1.
#140000
0.
#150000
b111111001110 *#
b11 C"
b11000 ;"
b11 ="
b11 ?"
b1100100 >"
b11 e
b11 F#
b1000001001 ?#
b111111001110 >#
b11 @#
b11111011010100 A#
b110010 I"
b110010 K"
b110010 J"
b1000 4
1.
#160000
0.
#170000
b111110110101 *#
b100 C"
b10 ="
b0 ?"
b0 >"
b100 F#
b1111000001 ?#
b111110110101 >#
b0 @#
b11111001110000 A#
b100 e
b11001 I"
b11001 K"
b11001 J"
b1001 4
1.
#180000
0.
#190000
b111110011100 *#
b101 C"
b10101 ;"
b1 ="
b1 ?"
b101 e
b101 F#
b10100111111 ?#
b111110011100 >#
b1 @#
b0 I"
b0 K"
b0 J"
b1010 4
1.
#191000
0{
#200000
0.
#210000
b110 C"
b10011 ;"
b0 ="
b10 ?"
b110 F#
b11010001010 ?#
b10 @#
b1 -"
b110 e
b1011 4
1.
#220000
0.
#230000
b111 C"
b10001 ;"
b11 ?"
b111 e
b10 -"
b111 F#
b11110101100 ?#
b11 @#
b1100 4
1.
#240000
0.
#250000
b1000 C"
b1111 ;"
b0 ?"
b1000 F#
b100010101010 ?#
b0 @#
b11 -"
b1000 e
b1101 4
1.
#251000
b111100 K#
b10 J#
#260000
b1111000 %"
1s
b10 #"
1;
b1111000 $"
b111100 d
b1 b
1x
b10000000 (
b10000000 @
b111100 H
b111100 }
b111100 V"
b10 I
b10 ~
b10 U"
1G
0.
#270000
b11110111 '
b11110111 q
19
18
b11111110 A
b10100000 (
b10100000 @
b111100 R
b111100 X"
b1 S
b1 W"
b10 ""
b1001 C"
b1110 ;"
b1 ?"
b1001 e
0p
1n
b1111111000 o
b10 i
1g
b10 h
b111100 c
b1 a
1`
b10 +
b0 -"
b1001 F#
b100110001000 ?#
b1 @#
b1110 4
1.
#271000
b0 %"
b0 ""
0s
b0 $"
b0 #"
b0 d
b0 b
0x
b100000 (
b100000 @
b0 H
b0 }
b0 V"
b0 I
b0 ~
b0 U"
0G
#280000
0.
#290000
0;
08
b11 ^"
b1 `"
b100100 (
b100100 @
b1010 C"
b1101 ;"
b10 ?"
b111100 %
b111100 n"
b111100 p"
1T
b1 Q
b1 Y"
b1 o"
b1010 F#
b101001001010 ?#
b10 @#
b1 -"
0`
1j
b1 l
b1010 e
b1111 4
1.
#300000
0.
#310000
0a"
b1011 C"
b1100 ;"
b11 ?"
b1011 e
b10 l
b10 -"
b1011 F#
b101011110100 ?#
b11 @#
0_"
b1 v"
b111011 %
b111011 n"
b10000 4
1.
#311000
b0 L#
b100 M#
#320000
0.
#330000
b1100 C"
b1011 ;"
b0 ?"
b10 v"
b111010 %
b111010 n"
b1100 F#
b101110001001 ?#
b0 @#
b11 -"
b11 l
b1100 e
b10001 4
b1 L#
1.
#340000
0.
#350000
b1101 C"
b1010 ;"
b1 ?"
b1101 e
b100 l
b100 -"
b1101 F#
b110000001011 ?#
b1 @#
b11 v"
b111001 %
b111001 n"
b10 L#
b10010 4
1.
#360000
0.
#370000
1a"
b1110 C"
b1001 ;"
b10 ?"
1_"
b0 v"
b111000 %
b111000 n"
b1110 F#
b110001111101 ?#
b10 @#
b101 -"
b101 l
b1110 e
b10011 4
b11 L#
1.
#380000
0.
#390000
0a"
b1111 C"
b1000 ;"
b11 ?"
b1111 e
b110 l
b110 -"
b1111 F#
b110011100000 ?#
b11 @#
0_"
b1 v"
b110111 %
b110111 n"
b100 L#
b10100 4
1.
#391000
b1010000 K#
b11 J#
#400000
1r
1w
b10100000 %"
b10 ""
1y
1s
b11 #"
1;
b10100000 $"
b1010000 d
b11 b
1x
b10100100 (
b10100100 @
b1010000 H
b1010000 }
b1010000 V"
b11 I
b11 ~
b11 U"
1G
0.
#410000
0r
0w
18
b11 ""
b10 !"
b10100000 R
b10100000 X"
b11 S
b11 W"
b11111111 A
b10110110 (
b10110110 @
b10000 C"
b111 ;"
b0 ?"
b10 v"
b110110 %
b110110 n"
b10000 F#
b110100110111 ?#
b0 @#
b100000 0"
b10100000 #
b10100000 V
b10100000 ."
1"
1W
1!
1X
b11 +
b10 *
b0 -"
1`
b1010000 c
b11 a
b111 i
b11 h
b111 l
b10000 e
b10101 4
1.
#411000
0r
b0 &"
0v
b0 %"
b10 ""
b0 !"
0y
0s
b0 $"
b0 #"
b0 d
b0 b
0x
b110110 (
b110110 @
b0 H
b0 }
b0 V"
b0 I
b0 ~
b0 U"
0G
#420000
0.
#430000
b1010000 R
b1010000 X"
08
b1010 ^"
b101 `"
0c"
b111110 (
b111110 @
b10001 C"
b1 ?"
b10001 e
b1000 l
0`
b11111 0"
b1 -"
0"
0W
b10001 F#
b110110000011 ?#
b1 @#
1_"
b0 v"
b101000000 %
b101000000 n"
b10100000 p"
b11 Q
b11 Y"
b11 o"
b10110 4
1.
#440000
0.
#450000
b10010 C"
b10 ?"
b100111111 %
b100111111 n"
b10010 F#
b110111000110 ?#
b10 @#
b11110 0"
b10 -"
b1001 l
b10010 e
b10111 4
1.
#451000
b0 L#
b11 M#
#460000
0.
#470000
b10011 C"
b11 ?"
b10011 e
b1010 l
b11101 0"
b11 -"
b10011 F#
b111000000000 ?#
b11 @#
b100111110 %
b100111110 n"
b11000 4
b1 L#
1.
#480000
0.
#490000
b10100 C"
b0 ?"
b100111101 %
b100111101 n"
b10100 F#
b111000110011 ?#
b0 @#
b11100 0"
b100 -"
b1011 l
b10100 e
b10 L#
b11001 4
1.
#500000
0.
#510000
b10101 C"
b1 ?"
b10101 e
b1100 l
b11011 0"
b101 -"
b10101 F#
b111001100000 ?#
b1 @#
b100111100 %
b100111100 n"
b11010 4
b11 L#
1.
#511000
b11 ""
b10 !"
b111 #"
1s
1z
1E
b0 7
b10 6
1H#
b101001101010100001000000011000101100010001110100010000001100011011000010111001101100011011000010110010001100101010111110111010001111001011100000110010100100000001111010011110100100000010101100100111101001100010111110100001101010010010000010101001101001000 I#
#520000
0.
#530000
b111 ""
b11 !"
b10110 C"
b10 ?"
b100111011 %
b100111011 n"
b10110 F#
b111010000111 ?#
b10 @#
b11010 0"
b111 +
b11 *
b10 )
b0 -"
b1101 l
b10110 e
b11011 4
1.
#540000
0.
#550000
b111 !"
b10111 C"
b11 ?"
b10111 e
b1110 l
b11001 0"
b111 *
b11 )
b10111 F#
b111010101001 ?#
b11 @#
b100111010 %
b100111010 n"
b11100 4
1.
#551000
b0 L#
b100011 M#
#560000
0.
#570000
b11000 C"
b0 ?"
b100111001 %
b100111001 n"
b11000 F#
b111011000111 ?#
b0 @#
b11000 0"
b111 )
b1111 l
b11000 e
b11101 4
b1 L#
1.
#580000
0.
#590000
b11001 C"
b1 ?"
b11001 e
b10000 l
b10111 0"
b11001 F#
b111011100001 ?#
b1 @#
b100111000 %
b100111000 n"
b10 L#
b11110 4
1.
#600000
0.
#610000
b11010 C"
b10 ?"
b100110111 %
b100110111 n"
b11010 F#
b111011111000 ?#
b10 @#
b10110 0"
b10001 l
b11010 e
b11111 4
b11 L#
1.
#620000
0.
#630000
b11011 C"
b11 ?"
b11011 e
b10010 l
b10101 0"
b11011 F#
b111100001100 ?#
b11 @#
b100110110 %
b100110110 n"
b100 L#
b100000 4
1.
#640000
0.
#650000
b11100 C"
b0 ?"
b100110101 %
b100110101 n"
b11100 F#
b111100011110 ?#
b0 @#
b10100 0"
b10011 l
b11100 e
b100001 4
b101 L#
1.
#660000
0.
#670000
b11101 C"
b1 ?"
b11101 e
b10100 l
b10011 0"
b11101 F#
b111100101101 ?#
b1 @#
b100110100 %
b100110100 n"
b110 L#
b100010 4
1.
#680000
0.
#690000
b11110 C"
b10 ?"
b100110011 %
b100110011 n"
b11110 F#
b111100111010 ?#
b10 @#
b10010 0"
b10101 l
b11110 e
b100011 4
b111 L#
1.
#700000
0.
#710000
b11111 C"
b11 ?"
b11111 e
b10110 l
b10001 0"
b11111 F#
b111101000110 ?#
b11 @#
b100110010 %
b100110010 n"
b1000 L#
b100100 4
1.
#720000
0.
#730000
b100000 C"
b0 ?"
b100110001 %
b100110001 n"
b100000 F#
b111101010000 ?#
b0 @#
b10000 0"
b10111 l
b100000 e
b100101 4
b1001 L#
1.
#740000
0.
#750000
b100001 C"
b1 ?"
b100001 e
b11000 l
b1111 0"
b100001 F#
b111101011001 ?#
b1 @#
b100110000 %
b100110000 n"
b1010 L#
b100110 4
1.
#760000
0.
#770000
b100010 C"
b10 ?"
b100101111 %
b100101111 n"
b100010 F#
b111101100001 ?#
b10 @#
b1110 0"
b11001 l
b100010 e
b100111 4
b1011 L#
1.
#780000
0.
#790000
b100011 C"
b11 ?"
b100011 e
b11010 l
b1101 0"
b100011 F#
b111101101000 ?#
b11 @#
b100101110 %
b100101110 n"
b1100 L#
b101000 4
1.
#800000
0.
#810000
b100100 C"
b0 ?"
b100101101 %
b100101101 n"
b100100 F#
b111101101110 ?#
b0 @#
b1100 0"
b11011 l
b100100 e
b101001 4
b1101 L#
1.
#820000
0.
#830000
b100101 C"
b1 ?"
b100101 e
b11100 l
b1011 0"
b100101 F#
b111101110011 ?#
b1 @#
b100101100 %
b100101100 n"
b1110 L#
b101010 4
1.
#840000
0.
#850000
b100110 C"
b10 ?"
b100101011 %
b100101011 n"
b100110 F#
b111101111000 ?#
b10 @#
b1010 0"
b11101 l
b100110 e
b101011 4
b1111 L#
1.
#860000
0.
#870000
b100111 C"
b11 ?"
b100111 e
b11110 l
b1001 0"
b100111 F#
b111101111100 ?#
b11 @#
b100101010 %
b100101010 n"
b10000 L#
b101100 4
1.
#880000
0.
#890000
b101000 C"
b0 ?"
b100101001 %
b100101001 n"
b101000 F#
b111110000000 ?#
b0 @#
b1000 0"
b11111 l
b101000 e
b101101 4
b10001 L#
1.
#900000
0.
#910000
b101001 C"
b1 ?"
b101001 e
b100000 l
b111 0"
b101001 F#
b111110000011 ?#
b1 @#
b100101000 %
b100101000 n"
b10010 L#
b101110 4
1.
#920000
0.
#930000
b101010 C"
b10 ?"
b100100111 %
b100100111 n"
b101010 F#
b111110000110 ?#
b10 @#
b110 0"
b100001 l
b101010 e
b101111 4
b10011 L#
1.
#940000
0.
#950000
b101011 C"
b11 ?"
b101011 e
b100010 l
b101 0"
b101011 F#
b111110001000 ?#
b11 @#
b100100110 %
b100100110 n"
b10100 L#
b110000 4
1.
#960000
0.
#970000
b101100 C"
b0 ?"
b100100101 %
b100100101 n"
b101100 F#
b111110001010 ?#
b0 @#
b100 0"
b100011 l
b101100 e
b110001 4
b10101 L#
1.
#980000
0.
#990000
b101101 C"
b1 ?"
b101101 e
b100100 l
b11 0"
b101101 F#
b111110001100 ?#
b1 @#
b100100100 %
b100100100 n"
b10110 L#
b110010 4
1.
#1000000
0.
#1010000
b101110 C"
b10 ?"
b100100011 %
b100100011 n"
b101110 F#
b111110001110 ?#
b10 @#
b10 0"
b100101 l
b101110 e
b110011 4
b10111 L#
1.
#1020000
0.
#1030000
b101111 C"
b11 ?"
b101111 e
b100110 l
b1 0"
b101111 F#
b111110001111 ?#
b11 @#
b100100010 %
b100100010 n"
b11000 L#
b110100 4
1.
#1040000
0.
#1050000
b110000 C"
b0 ?"
b100100001 %
b100100001 n"
b110000 F#
b111110010000 ?#
b0 @#
b0 0"
b100111 l
b110000 e
b110101 4
b11001 L#
1.
#1060000
0.
#1070000
b111100 (
b111100 @
0;
b110001 C"
b1 ?"
b110001 e
b101000 l
0!
0X
b110001 F#
b111110010001 ?#
b1 @#
b100100000 %
b100100000 n"
b11010 L#
b110110 4
1.
#1080000
0.
#1090000
b110010 C"
b10 ?"
b100011111 %
b100011111 n"
b110010 F#
b111110010010 ?#
b10 @#
b101001 l
b110010 e
b110111 4
b11011 L#
1.
#1100000
0.
#1110000
b110011 C"
b11 ?"
b110011 e
b101010 l
b110011 F#
b111110010011 ?#
b11 @#
b100011110 %
b100011110 n"
b11100 L#
b111000 4
1.
#1120000
0.
#1130000
b110100 C"
b0 ?"
b100011101 %
b100011101 n"
b110100 F#
b111110010100 ?#
b0 @#
b101011 l
b110100 e
b111001 4
b11101 L#
1.
#1140000
0.
#1150000
b110101 C"
b1 ?"
b110101 e
b101100 l
b110101 F#
b111110010101 ?#
b1 @#
b100011100 %
b100011100 n"
b11110 L#
b111010 4
1.
#1160000
0.
#1170000
b110110 C"
b10 ?"
b100011011 %
b100011011 n"
b110110 F#
b10 @#
b101101 l
b110110 e
b111011 4
b11111 L#
1.
#1180000
0.
#1190000
b110111 C"
b11 ?"
b110111 e
b101110 l
b110111 F#
b11 @#
b100011010 %
b100011010 n"
b100000 L#
b111100 4
1.
#1200000
0.
#1210000
b111000 C"
b0 ?"
b100011001 %
b100011001 n"
b111000 F#
b0 @#
b101111 l
b111000 e
b111101 4
b100001 L#
1.
#1220000
0.
#1230000
b111001 C"
b1 ?"
b111001 e
b110000 l
b111001 F#
b1 @#
b100011000 %
b100011000 n"
b100010 L#
b111110 4
1.
#1240000
0.
#1250000
b111010 C"
b10 ?"
b100010111 %
b100010111 n"
b111010 F#
b10 @#
b110001 l
b111010 e
b111111 4
b100011 L#
1.
