cascade.vcd
$date
	Thu Feb 19 20:51:35 2026
$end
$version
	Icarus Verilog
$end
$timescale
	1ps
$end
$scope module tb_cascade $end
$var wire 1 ! cascade_alert $end
$var wire 1 " cascade_cb_load $end
$var wire 8 # cascade_cb_param [7:0] $end
$var wire 2 $ cascade_type [1:0] $end
$var wire 9 % cb_countdown [8:0] $end
$var wire 8 & uio_oe [7:0] $end
$var wire 8 ' uo_out [7:0] $end
$var wire 8 ( uio_out [7:0] $end
$var wire 4 ) hist2 [3:0] $end
$var wire 4 * hist1 [3:0] $end
$var wire 4 + hist0 [3:0] $end
$var reg 1 , cascade_seen $end
$var reg 2 - cascade_type_seen [1:0] $end
$var reg 1 . clk $end
$var reg 1 / ena $end
$var reg 1 0 rst_n $end
$var reg 8 1 ui_in [7:0] $end
$var reg 8 2 uio_in [7:0] $end
$var integer 32 3 cb_countdown_captured [31:0] $end
$var integer 32 4 cyc [31:0] $end
$var integer 32 5 fail_count [31:0] $end
$var integer 32 6 pass_count [31:0] $end
$scope function casc_name $end
$var reg 2 7 t [1:0] $end
$upscope $end
$scope module dut $end
$var wire 1 8 cb_load_final $end
$var wire 1 . clk $end
$var wire 1 9 comb_alert $end
$var wire 1 : config_strobe $end
$var wire 1 / ena $end
$var wire 1 0 rst_n $end
$var wire 1 ; uart_trigger $end
$var wire 8 < ui_in [7:0] $end
$var wire 8 = uio_in [7:0] $end
$var wire 8 > uio_oe [7:0] $end
$var wire 12 ? vol_data [11:0] $end
$var wire 8 @ uio_out [7:0] $end
$var wire 8 A uart_payload [7:0] $end
$var wire 3 B rule_alert_type [2:0] $end
$var wire 3 C rule_alert_priority [2:0] $end
$var wire 8 D rule_alert_bitmap [7:0] $end
$var wire 1 E rule_alert_any $end
$var wire 12 F price_data [11:0] $end
$var wire 1 G ml_valid $end
$var wire 8 H ml_confidence [7:0] $end
$var wire 3 I ml_class [2:0] $end
$var wire 1 J match_valid $end
$var wire 8 K match_price [7:0] $end
$var wire 2 L input_type [1:0] $end
$var wire 128 M features [127:0] $end
$var wire 1 N feature_valid $end
$var wire 3 O comb_type [2:0] $end
$var wire 3 P comb_priority [2:0] $end
$var wire 2 Q cb_state [1:0] $end
$var wire 8 R cb_param_final [7:0] $end
$var wire 2 S cb_mode_final [1:0] $end
$var wire 1 T cb_active $end
$var wire 2 U cascade_type [1:0] $end
$var wire 8 V cascade_cb_param [7:0] $end
$var wire 1 W cascade_cb_load $end
$var wire 1 X cascade_alert $end
$var wire 1 Y _unused $end
$var wire 12 Z SPIKE_THRESH [11:0] $end
$var wire 12 [ FLASH_THRESH [11:0] $end
$var parameter 32 \ BAUD_DIV $end
$var parameter 32 ] CLK_HZ $end
$var parameter 32 ^ HB_DIV $end
$var reg 1 _ cb_load_r $end
$var reg 2 ` cb_mode_cmd [1:0] $end
$var reg 2 a cb_mode_next [1:0] $end
$var reg 8 b cb_param_cmd [7:0] $end
$var reg 8 c cb_param_next [7:0] $end
$var reg 25 d hb_cnt [24:0] $end
$var reg 1 e hb_led $end
$var reg 1 f ml_anomaly_held $end
$var reg 3 g ml_class_held [2:0] $end
$var reg 8 h ml_conf_held [7:0] $end
$var reg 3 i ml_prio_held [2:0] $end
$var reg 1 j ml_valid_d $end
$var reg 1 k prev_alert_r $end
$var reg 2 l thresh_sel [1:0] $end
$var reg 10 m uart_bit_cnt [9:0] $end
$var reg 4 n uart_bits [3:0] $end
$var reg 1 o uart_busy $end
$var reg 10 p uart_shift [9:0] $end
$var reg 1 q uart_tx $end
$var reg 8 r uo_out [7:0] $end
$scope module u_cascade $end
$var wire 1 s cascade_fire $end
$var wire 1 . clk $end
$var wire 1 t event_any $end
$var wire 1 u is_spike_crash $end
$var wire 1 v is_stuff_crash $end
$var wire 1 w is_triple $end
$var wire 1 x is_vol_crash $end
$var wire 1 y ml_evt $end
$var wire 1 z new_is_flash $end
$var wire 1 0 rst_n $end
$var wire 1 { rule_evt $end
$var wire 1 | test_flush $end
$var wire 3 } rule_alert_type [2:0] $end
$var wire 1 E rule_alert_any $end
$var wire 1 G ml_valid $end
$var wire 8 ~ ml_confidence [7:0] $end
$var wire 3 !" ml_class [2:0] $end
$var wire 3 "" h2_next [2:0] $end
$var wire 3 #" h1_next [2:0] $end
$var wire 3 $" h0_next [2:0] $end
$var wire 3 %" event_code [2:0] $end
$var wire 9 &" conf_x2_wide [8:0] $end
$var wire 8 '" conf_x2_sat [7:0] $end
$var wire 2 (" cascade_type_next [1:0] $end
$var parameter 32 )" CASCADE_HOLD $end
$var parameter 32 *" CASCADE_WINDOW $end
$var parameter 2 +" CT_SPIKE_CRASH $end
$var parameter 2 ," CT_STUFF_CRASH $end
$var parameter 2 -" CT_TRIPLE $end
$var parameter 2 ." CT_VOL_CRASH $end
$var reg 7 /" age_cnt [6:0] $end
$var reg 1 X cascade_alert $end
$var reg 1 W cascade_cb_load $end
$var reg 8 0" cascade_cb_param [7:0] $end
$var reg 2 1" cascade_type [1:0] $end
$var reg 6 2" hold_cnt [5:0] $end
$upscope $end
$scope module u_feat_extractor $end
$var wire 1 . clk $end
$var wire 2 3" input_type [1:0] $end
$var wire 12 4" price_data [11:0] $end
$var wire 1 0 rst_n $end
$var wire 12 5" volume_data [11:0] $end
$var wire 1 J match_valid $end
$var wire 8 6" match_price [7:0] $end
$var wire 1 7" is_volume $end
$var wire 1 8" is_sell $end
$var wire 1 9" is_price $end
$var wire 1 :" is_buy $end
$var reg 8 ;" buy_count [7:0] $end
$var reg 12 <" cur_price [11:0] $end
$var reg 12 =" cur_vol [11:0] $end
$var reg 1 N feature_valid $end
$var reg 128 >" features [127:0] $end
$var reg 12 ?" local_avg [11:0] $end
$var reg 12 @" local_delta [11:0] $end
$var reg 8 A" match_count [7:0] $end
$var reg 8 B" match_rate [7:0] $end
$var reg 12 C" price_avg [11:0] $end
$var reg 12 D" price_mad [11:0] $end
$var reg 12 E" price_prev1 [11:0] $end
$var reg 12 F" price_prev2 [11:0] $end
$var reg 15 G" price_sum8 [14:0] $end
$var reg 6 H" ptr_l [5:0] $end
$var reg 5 I" ptr_m [4:0] $end
$var reg 3 J" ptr_s [2:0] $end
$var reg 8 K" sell_count [7:0] $end
$var reg 16 L" trade_timer [15:0] $end
$var reg 12 M" vol_avg [11:0] $end
$var reg 3 N" vol_ptr [2:0] $end
$var reg 15 O" vol_sum8 [14:0] $end
$var reg 8 P" window_cnt [7:0] $end
$var integer 32 Q" i [31:0] $end
$scope function clip8 $end
$var reg 12 R" x [11:0] $end
$upscope $end
$scope function clip8_16 $end
$var reg 16 S" x [15:0] $end
$upscope $end
$scope function imbalance_byte $end
$var reg 8 T" buys [7:0] $end
$var reg 16 U" num [15:0] $end
$var reg 8 V" sells [7:0] $end
$var reg 16 W" total [15:0] $end
$upscope $end
$scope function momentum_byte $end
$var reg 13 X" d1 [12:0] $end
$var reg 13 Y" d2 [12:0] $end
$var reg 13 Z" mom [12:0] $end
$var reg 12 [" p0 [11:0] $end
$var reg 12 \" p1 [11:0] $end
$var reg 12 ]" p2 [11:0] $end
$upscope $end
$scope function price_delta $end
$var reg 12 ^" a [11:0] $end
$var reg 12 _" b [11:0] $end
$var reg 12 `" d [11:0] $end
$upscope $end
$scope function spread_byte $end
$var reg 8 a" asks [7:0] $end
$var reg 8 b" bids [7:0] $end
$upscope $end
$scope function vol_ratio_byte $end
$var reg 12 c" avg [11:0] $end
$var reg 12 d" cur [11:0] $end
$var reg 20 e" num [19:0] $end
$upscope $end
$upscope $end
$scope module u_ml_engine $end
$var wire 1 . clk $end
$var wire 1 N feature_valid $end
$var wire 128 f" features [127:0] $end
$var wire 1 0 rst_n $end
$var reg 32 g" acc2_tmp [31:0] $end
$var reg 3 h" best_class [2:0] $end
$var reg 32 i" gap [31:0] $end
$var reg 32 j" max_logit [31:0] $end
$var reg 32 k" min_logit [31:0] $end
$var reg 3 l" ml_class [2:0] $end
$var reg 8 m" ml_confidence [7:0] $end
$var reg 8 n" ml_margin [7:0] $end
$var reg 1 G ml_valid $end
$var reg 1 o" s0_valid $end
$var reg 1 p" s1_valid $end
$var reg 1 q" s2_valid $end
$var reg 32 r" second_max_logit [31:0] $end
$var integer 32 s" h1 [31:0] $end
$var integer 32 t" h2 [31:0] $end
$var integer 32 u" i1 [31:0] $end
$var integer 32 v" j3 [31:0] $end
$var integer 32 w" k [31:0] $end
$var integer 32 x" o2 [31:0] $end
$scope function rom_b1 $end
$var reg 2 y" addr [1:0] $end
$upscope $end
$scope function rom_b2 $end
$var reg 3 z" addr [2:0] $end
$upscope $end
$scope function rom_w1 $end
$var reg 6 {" addr [5:0] $end
$upscope $end
$scope function rom_w2 $end
$var reg 5 |" addr [4:0] $end
$upscope $end
$scope begin unpack[0] $end
$var parameter 2 }" gi $end
$upscope $end
$scope begin unpack[1] $end
$var parameter 2 ~" gi $end
$upscope $end
$scope begin unpack[2] $end
$var parameter 3 !# gi $end
$upscope $end
$scope begin unpack[3] $end
$var parameter 3 "# gi $end
$upscope $end
$scope begin unpack[4] $end
$var parameter 4 ## gi $end
$upscope $end
$scope begin unpack[5] $end
$var parameter 4 $# gi $end
$upscope $end
$scope begin unpack[6] $end
$var parameter 4 %# gi $end
$upscope $end
$scope begin unpack[7] $end
$var parameter 4 &# gi $end
$upscope $end
$scope begin unpack[8] $end
$var parameter 5 '# gi $end
$upscope $end
$scope begin unpack[9] $end
$var parameter 5 (# gi $end
$upscope $end
$scope begin unpack[10] $end
$var parameter 5 )# gi $end
$upscope $end
$scope begin unpack[11] $end
$var parameter 5 *# gi $end
$upscope $end
$scope begin unpack[12] $end
$var parameter 5 +# gi $end
$upscope $end
$scope begin unpack[13] $end
$var parameter 5 ,# gi $end
$upscope $end
$scope begin unpack[14] $end
$var parameter 5 -# gi $end
$upscope $end
$scope begin unpack[15] $end
$var parameter 5 .# gi $end
$upscope $end
$upscope $end
$scope module u_order_book $end
$var wire 1 8 cb_load $end
$var wire 2 /# cb_mode [1:0] $end
$var wire 8 0# cb_param [7:0] $end
$var wire 2 1# cb_state [1:0] $end
$var wire 1 . clk $end
$var wire 1 2# crossing $end
$var wire 6 3# data_in [5:0] $end
$var wire 6 4# ext_data [5:0] $end
$var wire 2 5# input_type [1:0] $end
$var wire 1 0 rst_n $end
$var wire 4 6# throttle_div [3:0] $end
$var wire 1 7# throttle_allow $end
$var wire 3 8# spread_guard [2:0] $end
$var wire 1 9# order_gate $end
$var wire 7 :# new_price [6:0] $end
$var wire 1 ;# match_gate $end
$var wire 1 <# is_sell $end
$var wire 1 =# is_buy $end
$var wire 7 ># cross_threshold [6:0] $end
$var wire 1 T cb_active $end
$var wire 3 ?# active_guard [2:0] $end
$var reg 7 @# best_ask [6:0] $end
$var reg 2 A# best_ask_idx [1:0] $end
$var reg 1 B# best_ask_valid $end
$var reg 7 C# best_bid [6:0] $end
$var reg 2 D# best_bid_idx [1:0] $end
$var reg 1 E# best_bid_valid $end
$var reg 9 F# cb_countdown [8:0] $end
$var reg 2 G# cb_mode_r [1:0] $end
$var reg 8 H# cb_param_r [7:0] $end
$var reg 2 I# empty_ask_slot [1:0] $end
$var reg 2 J# empty_bid_slot [1:0] $end
$var reg 1 K# has_empty_ask $end
$var reg 1 L# has_empty_bid $end
$var reg 8 M# match_price [7:0] $end
$var reg 1 J match_valid $end
$var reg 4 N# throttle_cnt [3:0] $end
$var integer 32 O# i [31:0] $end
$upscope $end
$scope module u_rule_detector $end
$var wire 1 . clk $end
$var wire 1 P# det_flash $end
$var wire 1 Q# det_imbalance $end
$var wire 1 R# det_spread $end
$var wire 1 S# det_vol_dry $end
$var wire 1 T# det_vol_surge $end
$var wire 1 U# det_volatility $end
$var wire 12 V# flash_thresh [11:0] $end
$var wire 2 W# input_type [1:0] $end
$var wire 8 X# match_price [7:0] $end
$var wire 1 J match_valid $end
$var wire 12 Y# price_data [11:0] $end
$var wire 1 0 rst_n $end
$var wire 12 Z# spike_thresh [11:0] $end
$var wire 12 [# volume_data [11:0] $end
$var wire 13 \# vol_surge_thresh [12:0] $end
$var wire 12 ]# vol_dry_thresh [11:0] $end
$var wire 12 ^# vol_deviation [11:0] $end
$var wire 12 _# price_drop [11:0] $end
$var wire 12 `# price_delta [11:0] $end
$var wire 1 a# is_volume $end
$var wire 1 b# is_sell $end
$var wire 1 c# is_price $end
$var wire 1 d# is_buy $end
$var wire 1 e# det_velocity $end
$var wire 1 f# det_spike $end
$var wire 3 g# alert_type [2:0] $end
$var wire 3 h# alert_priority [2:0] $end
$var wire 8 i# alert_bitmap [7:0] $end
$var wire 1 E alert_any $end
$var parameter 6 j# VELOCITY_THRESH $end
$var parameter 32 k# VOL_DRY_DIV $end
$var parameter 32 l# VOL_SURGE_MULT $end
$var reg 4 m# buy_order_count [3:0] $end
$var reg 12 n# current_price [11:0] $end
$var reg 12 o# current_volume [11:0] $end
$var reg 6 p# match_counter [5:0] $end
$var reg 6 q# match_rate [5:0] $end
$var reg 12 r# prev_price [11:0] $end
$var reg 12 s# price_avg [11:0] $end
$var reg 12 t# price_mad [11:0] $end
$var reg 3 u# price_ptr [2:0] $end
$var reg 15 v# price_sum [14:0] $end
$var reg 4 w# sell_order_count [3:0] $end
$var reg 12 x# vol_avg [11:0] $end
$var reg 3 y# vol_ptr [2:0] $end
$var reg 15 z# vol_sum [14:0] $end
$var reg 8 {# window_timer [7:0] $end
$var integer 32 |# i [31:0] $end
$upscope $end
$upscope $end
$scope task check $end
$var reg 1 }# cond $end
$var reg 256 ~# lbl [255:0] $end
$upscope $end
$scope task do_reset $end
$upscope $end
$scope task end_test $end
$upscope $end
$scope task inject_ml $end
$var reg 3 !$ cls [2:0] $end
$var reg 8 "$ conf [7:0] $end
$upscope $end
$scope task tick $end
$var integer 32 #$ i [31:0] $end
$var integer 32 $$ n [31:0] $end
$upscope $end
$scope task wait_for_cascade $end
$var integer 32 %$ i [31:0] $end
$var integer 32 &$ n [31:0] $end
$upscope $end
$upscope $end
$enddefinitions $end
$comment Show the parameter values. $end
$dumpall
b10 l#
b100 k#
b11110 j#
b1111 .#
b1110 -#
b1101 ,#
b1100 +#
b1011 *#
b1010 )#
b1001 (#
b1000 '#
b111 &#
b110 %#
b101 $#
b100 ##
b11 "#
b10 !#
b1 ~"
b0 }"
b0 ."
b11 -"
b10 ,"
b1 +"
b1000000 *"
b100000 )"
b1011111010111100001000000 ^
b10111110101111000010000000 ]
b110110010 \
$end
#0
$dumpvars
bx &$
bx %$
bx $$
bx #$
bx "$
bx !$
bx ~#
x}#
bx |#
bx {#
bx z#
bx y#
bx x#
bx w#
bx v#
bx u#
bx t#
bx s#
bx r#
bx q#
bx p#
bx o#
bx n#
bx m#
bx i#
bx h#
bx g#
xf#
xe#
0d#
1c#
0b#
0a#
bx `#
bx _#
bx ^#
b0xxxxxxxx ]#
bx00 \#
b0 [#
b0xxxxxx Z#
b0 Y#
bx X#
b0 W#
b0xxxxx0 V#
xU#
xT#
xS#
xR#
xQ#
xP#
bx O#
bx N#
bx M#
xL#
xK#
bx J#
bx I#
bx H#
bx G#
bx F#
xE#
bx D#
bx C#
xB#
bx A#
bx @#
bx ?#
bx >#
0=#
0<#
x;#
b0 :#
x9#
bx 8#
x7#
bx 6#
b0 5#
b0 4#
b0 3#
x2#
bx 1#
bx 0#
bx /#
bx |"
bx {"
bx z"
bx y"
bx x"
bx w"
bx v"
bx u"
bx t"
bx s"
bx r"
xq"
xp"
xo"
bx n"
bx m"
bx l"
bx k"
bx j"
bx i"
bx h"
bx g"
bx f"
bx e"
bx d"
bx c"
bx b"
bx a"
bx `"
bx _"
bx ^"
bx ]"
bx \"
bx ["
bx Z"
bx Y"
bx X"
bx W"
bx V"
bx U"
bx T"
bx S"
bx R"
bx Q"
bx P"
bx O"
bx N"
bx M"
bx L"
bx K"
bx J"
bx I"
bx H"
bx G"
bx F"
bx E"
bx D"
bx C"
bx B"
bx A"
bx @"
bx ?"
bx >"
bx ="
bx <"
bx ;"
0:"
19"
08"
07"
bx 6"
b0 5"
b0 4"
b0 3"
bx 2"
bx 1"
bx 0"
bx /"
bx ("
bx '"
bx0 &"
bx %"
bx $"
bx #"
bx ""
bx !"
bx ~
bx }
0|
0{
xz
xy
xx
xw
xv
xu
xt
xs
bx r
xq
bx p
xo
bx n
bx m
bx l
xk
xj
bx i
bx h
bx g
xf
xe
bx d
bx c
bx b
bx a
bx `
x_
b0xxxxx0 [
b0xxxxxx Z
0Y
xX
xW
bx V
bx U
xT
bx S
bx R
bx Q
bx P
bx O
xN
bx M
b0 L
bx K
xJ
bx I
bx H
xG
b0 F
0E
bx D
bx C
bx B
bx A
bx @
b0 ?
b11111111 >
b0 =
b0 <
x;
0:
x9
x8
bx 7
b0 6
b0 5
b0 4
bx 3
b0 2
b0 1
00
1/
0.
bx -
x,
b0xxx +
b0xxx *
b0xxx )
bx (
bx '
b11111111 &
bx %
bx $
bx #
x"
x!
$end
#10000
b1 P
b1 O
b1 C
b1 h#
b1 B
b1 }
b1 g#
0s
b0 ("
0;
0w
0U#
b0 '"
02#
b0 ^#
0P#
0R#
0Q#
0T#
0E
1S#
b0 $"
0z
0t
0x
0u
0v
b0 6#
b0 8#
19#
1;#
b1111111 >#
b0 ?#
1K#
b0 I#
1L#
b0 J#
b0 A#
0B#
b1111111 @#
b0 D#
0E#
b0 C#
0f#
b0 `#
b0 _#
b110010000 \#
b110 ]#
b0 &"
b0 %"
b0 c
b0 a
0y
09
b0 ""
b0 #"
b10100 Z
b10100 Z#
b101000 [
b101000 V#
08
b0 R
b0 0#
b0 S
b0 /#
b100100 A
b0 (
b0 @
b10001 '
b10001 r
17#
b0 N#
b0 H#
b0 %
b0 F#
0T
b0 Q
b0 1#
b0 G#
b0 K
b0 6"
b0 M#
b0 X#
0J
b101 t#
b0 o#
b1100100 r#
b1100100 n#
b0 w#
b0 m#
b10 D
b10 i#
0e#
b0 q#
b0 {#
b0 p#
b1100100 x#
b1100100 s#
b0 z#
b0 v#
b0 y#
b0 u#
0N
b0 B"
b0 P"
b0 L"
b0 A"
b0 K"
b0 ;"
b1100100 F"
b1100100 E"
b1100100 <"
b1100100 ="
b1100100 M"
b1100100000 O"
b101 D"
b1100100 C"
b1100100000 G"
b0 N"
b0 H"
b0 I"
b0 J"
0o"
0p"
0q"
b0 n"
b0 H
b0 ~
b0 m"
b0 I
b0 !"
b0 l"
0G
b0 2"
b0 #
b0 V
b0 0"
0"
0W
b0 $
b0 U
b0 1"
0!
0X
b0 /"
b0 )
b0 *
b0 +
b1 l
0_
0j
b0 b
b0 `
b0 i
0f
b0 h
b0 g
0k
b0 n
b0 m
b1111111111 p
1q
0o
0e
b0 d
b11111111111111111111111111111111 O#
b1000 |#
b1000 Q"
b10000 w"
b1 4
1.
#20000
0.
#30000
b110 w"
b1000 Q"
b1000 |#
b100 O#
b10 4
1.
#40000
0.
#50000
b100 O#
b1000 |#
b1000 Q"
b10000 w"
b11 4
1.
#60000
0.
#70000
b110 w"
b1000 Q"
b1000 |#
b100 O#
b100 4
1.
#80000
0.
#90000
b100 O#
b1000 |#
b1000 Q"
b10000 w"
b101 4
1.
#91000
1|
10
#100000
0.
#110000
b1100110 '
b1100110 r
b110 P
b11011000 A
b110 O
b110 C
b110 h#
b110 B
b110 }
b110 g#
1U#
b1010100 ^#
b1000011 D
b1000011 i#
1f#
b1100100 `#
b1 d
b1 P"
b1 L"
b10000 D"
b1 H"
b1 I"
b1 J"
b1010111100 G"
b0 <"
b1 {#
b10000 t#
b0 s#
b1 u#
b111111110011100 v#
b0 n#
b1100100 @"
b1100100 ?"
b110 4
1.
#120000
0.
#130000
b1110111 '
b1110111 r
b111 P
b11111100 A
b111 O
b111 C
b111 h#
b111 B
b111 }
b111 g#
0U#
1P#
b0 ^#
b111111110011 _#
b10000010 D
b10000010 i#
0f#
b0 `#
b10 {#
b1110 t#
b111111110011 s#
b10 u#
b111111100111000 v#
b0 r#
b10 P"
b10 L"
b11000 D"
b10 H"
b10 I"
b1010111 C"
b10 J"
b1001011000 G"
b0 E"
b10 d
b1010111 @"
b1010111 ?"
b111 4
1.
#140000
0.
#150000
b111111100111 _#
b11 d
b11 P"
b11 L"
b11110 D"
b11 H"
b11 I"
b1001011 C"
b11 J"
b111110100 G"
b0 F"
b11 {#
b1000001010 t#
b111111100111 s#
b11 u#
b111111011010100 v#
b1001011 @"
b1001011 ?"
b1000 4
1.
#160000
0.
#170000
b111111011010 _#
b100 {#
b1111000101 t#
b111111011010 s#
b100 u#
b111111001110000 v#
b100 P"
b100 L"
b100010 D"
b100 H"
b100 I"
b111110 C"
b100 J"
b110010000 G"
b100 d
b111110 @"
b111110 ?"
b1001 4
1.
#180000
0.
#190000
b111111001110 _#
b101 d
b101 P"
b101 L"
b100100 D"
b101 H"
b101 I"
b110010 C"
b101 J"
b100101100 G"
b101 {#
b10101000111 t#
b111111001110 s#
b101 u#
b111111000001100 v#
b110010 @"
b110010 ?"
b1010 4
1.
#191000
0|
#200000
0.
#210000
b111111000001 _#
b110 {#
b11010010111 t#
b111111000001 s#
b110 u#
b111110110101000 v#
b110 P"
b110 L"
b110 H"
b110 I"
b100101 C"
b110 J"
b11001000 G"
b1 /"
b110 d
b100101 @"
b100101 ?"
b1011 4
1.
#220000
0.
#230000
b111110110101 _#
b111 d
b10 /"
b111 P"
b111 L"
b100010 D"
b111 H"
b111 I"
b11001 C"
b111 J"
b1100100 G"
b111 {#
b11110111100 t#
b111110110101 s#
b111 u#
b111110101000100 v#
b11001 @"
b11001 ?"
b1100 4
1.
#240000
0.
#250000
b111110101000 _#
b1000 {#
b100010111011 t#
b111110101000 s#
b0 u#
b111110011100000 v#
b1000 P"
b1000 L"
b11111 D"
b1000 H"
b1000 I"
b1100 C"
b0 J"
b0 G"
b11 /"
b1000 d
b1100 @"
b1100 ?"
b1101 4
1.
#251000
b111100 "$
b10 !$
#260000
b1111000 '"
b10 $"
1t
b10 %"
1;
b1111000 &"
b111100 c
b1 a
1y
b10000000 (
b10000000 @
b111100 H
b111100 ~
b111100 m"
b10 I
b10 !"
b10 l"
1G
0.
#270000
b11110111 '
b11110111 r
19
b11111110 A
b10100000 (
b10100000 @
b111100 R
b111100 0#
b1 S
b1 /#
18
b10 #"
b111110011100 _#
b1001 d
0q
1o
b1111111000 p
b10 i
1f
b111100 h
b10 g
b111100 b
b1 `
1j
1_
b10 +
b0 /"
b1001 P"
b1001 L"
b11011 D"
b1001 H"
b1001 I"
b0 C"
b1 J"
b1001 {#
b100110011000 t#
b111110011100 s#
b1 u#
b0 @"
b0 ?"
b1110 4
1.
#271000
b0 '"
b0 #"
0t
b0 &"
b0 %"
b0 c
b0 a
0y
b100000 (
b100000 @
b0 H
b0 ~
b0 m"
b0 I
b0 !"
b0 l"
0G
#280000
0.
#290000
0;
b11 6#
b1 8#
b100100 (
b100100 @
08
b111100 %
b111100 F#
b111100 H#
1T
b1 Q
b1 1#
b1 G#
b1010 {#
b101001011000 t#
b10 u#
b1010 P"
b1010 L"
b10111 D"
b1010 H"
b1010 I"
b10 J"
b1 /"
0j
0_
1k
b1 m
b1010 d
b1111 4
1.
#300000
0.
#310000
09#
b1011 d
b10 m
b10 /"
b1011 P"
b1011 L"
b10100 D"
b1011 H"
b1011 I"
b11 J"
b1011 {#
b101100000000 t#
b11 u#
07#
b1 N#
b111011 %
b111011 F#
b10000 4
1.
#311000
b0 #$
b100 $$
#320000
0.
#330000
b10 N#
b111010 %
b111010 F#
b1100 {#
b101110010011 t#
b100 u#
b1100 P"
b1100 L"
b10001 D"
b1100 H"
b1100 I"
b100 J"
b11 /"
b11 m
b1100 d
b10001 4
b1 #$
1.
#340000
0.
#350000
b1101 d
b100 m
b100 /"
b1101 P"
b1101 L"
b1110 D"
b1101 H"
b1101 I"
b101 J"
b1101 {#
b110000010100 t#
b101 u#
b11 N#
b111001 %
b111001 F#
b10 #$
b10010 4
1.
#360000
0.
#370000
19#
17#
b0 N#
b111000 %
b111000 F#
b1110 {#
b110010000101 t#
b110 u#
b1110 P"
b1110 L"
b1100 D"
b1110 H"
b1110 I"
b110 J"
b101 /"
b101 m
b1110 d
b10011 4
b11 #$
1.
#380000
0.
#390000
09#
b1111 d
b110 m
b110 /"
b1111 P"
b1111 L"
b1010 D"
b1111 H"
b1111 I"
b111 J"
b1111 {#
b110011100111 t#
b111 u#
07#
b1 N#
b110111 %
b110111 F#
b100 #$
b10100 4
1.
#391000
b1010000 "$
b11 !$
#400000
1s
1x
b10100000 '"
b11 $"
b10 #"
1z
1t
b11 %"
1;
b10100000 &"
b1010000 c
b11 a
1y
b10100100 (
b10100100 @
b1010000 H
b1010000 ~
b1010000 m"
b11 I
b11 !"
b11 l"
1G
0.
#410000
0s
0x
b11 #"
b10 ""
18
b10100000 R
b10100000 0#
b11 S
b11 /#
b11111111 A
b10110110 (
b10110110 @
b10 N#
b110110 %
b110110 F#
b10000 {#
b110100111101 t#
b0 u#
b10000 P"
b10000 L"
b1000 D"
b10000 H"
b10000 I"
b0 J"
b100000 2"
b10100000 #
b10100000 V
b10100000 0"
1"
1W
1!
1X
b11 +
b10 *
b0 /"
1j
1_
b1010000 b
b11 `
b111 i
b1010000 h
b11 g
b111 m
b10000 d
b10101 4
1.
#411000
0s
b0 ("
0w
b0 '"
b10 #"
b0 ""
0z
0t
b0 &"
b0 %"
b0 c
b0 a
0y
b110110 (
b110110 @
b0 H
b0 ~
b0 m"
b0 I
b0 !"
b0 l"
0G
#420000
0.
#430000
b1010000 R
b1010000 0#
08
b1010 6#
b101 8#
0;#
b111110 (
b111110 @
b10001 d
b1000 m
0j
0_
b11111 2"
b1 /"
0"
0W
b10001 P"
b10001 L"
b111 D"
b10001 H"
b10001 I"
b1 J"
b10001 {#
b110110001000 t#
b1 u#
17#
b0 N#
b101000000 %
b101000000 F#
b10100000 H#
b11 Q
b11 1#
b11 G#
b10110 4
1.
#440000
0.
#450000
b100111111 %
b100111111 F#
b10010 {#
b110111001010 t#
b10 u#
b10010 P"
b10010 L"
b110 D"
b10010 H"
b10010 I"
b10 J"
b11110 2"
b10 /"
b1001 m
b10010 d
b10111 4
1.
#451000
b0 #$
b11 $$
#460000
0.
#470000
b10011 d
b1010 m
b11101 2"
b11 /"
b10011 P"
b10011 L"
b101 D"
b10011 H"
b10011 I"
b11 J"
b10011 {#
b111000000100 t#
b11 u#
b100111110 %
b100111110 F#
b11000 4
b1 #$
1.
#480000
0.
#490000
b100111101 %
b100111101 F#
b10100 {#
b111000110111 t#
b100 u#
b10100 P"
b10100 L"
b100 D"
b10100 H"
b10100 I"
b100 J"
b11100 2"
b100 /"
b1011 m
b10100 d
b10 #$
b11001 4
1.
#500000
0.
#510000
b10101 d
b1100 m
b11011 2"
b101 /"
b10101 P"
b10101 L"
b11 D"
b10101 H"
b10101 I"
b101 J"
b10101 {#
b111001100011 t#
b101 u#
b100111100 %
b100111100 F#
b11010 4
b11 #$
1.
#511000
b111 $"
b11 #"
b10 ""
b111 %"
1t
1{
1E
b0 7
b10 6
1}#
b101001101010100001000000011000101100010001110100010000001100011011000010111001101100011011000010110010001100101010111110111010001111001011100000110010100100000001111010011110100100000010101100100111101001100010111110100001101010010010000010101001101001000 ~#
#520000
0.
#530000
b111 #"
b11 ""
b100111011 %
b100111011 F#
b10110 {#
b111010001010 t#
b110 u#
b10110 P"
b10110 L"
b10 D"
b10110 H"
b10110 I"
b110 J"
b11010 2"
b111 +
b11 *
b10 )
b0 /"
b1101 m
b10110 d
b11011 4
1.
#540000
0.
#550000
b111 ""
b10111 d
b1110 m
b11001 2"
b111 *
b11 )
b10111 P"
b10111 L"
b1 D"
b10111 H"
b10111 I"
b111 J"
b10111 {#
b111010101100 t#
b111 u#
b100111010 %
b100111010 F#
b11100 4
1.
#551000
b0 #$
b100011 $$
#560000
0.
#570000
b100111001 %
b100111001 F#
b11000 {#
b111011001010 t#
b0 u#
b11000 P"
b11000 L"
b0 D"
b11000 H"
b11000 I"
b0 J"
b11000 2"
b111 )
b1111 m
b11000 d
b11101 4
b1 #$
1.
#580000
0.
#590000
b11001 d
b10000 m
b10111 2"
b11001 P"
b11001 L"
b11001 H"
b11001 I"
b1 J"
b11001 {#
b111011100100 t#
b1 u#
b100111000 %
b100111000 F#
b10 #$
b11110 4
1.
#600000
0.
#610000
b100110111 %
b100110111 F#
b11010 {#
b111011111011 t#
b10 u#
b11010 P"
b11010 L"
b11010 H"
b11010 I"
b10 J"
b10110 2"
b10001 m
b11010 d
b11111 4
b11 #$
1.
#620000
0.
#630000
b11011 d
b10010 m
b10101 2"
b11011 P"
b11011 L"
b11011 H"
b11011 I"
b11 J"
b11011 {#
b111100001111 t#
b11 u#
b100110110 %
b100110110 F#
b100 #$
b100000 4
1.
#640000
0.
#650000
b100110101 %
b100110101 F#
b11100 {#
b111100100000 t#
b100 u#
b11100 P"
b11100 L"
b11100 H"
b11100 I"
b100 J"
b10100 2"
b10011 m
b11100 d
b100001 4
b101 #$
1.
#660000
0.
#670000
b11101 d
b10100 m
b10011 2"
b11101 P"
b11101 L"
b11101 H"
b11101 I"
b101 J"
b11101 {#
b111100101111 t#
b101 u#
b100110100 %
b100110100 F#
b110 #$
b100010 4
1.
#680000
0.
#690000
b100110011 %
b100110011 F#
b11110 {#
b111100111100 t#
b110 u#
b11110 P"
b11110 L"
b11110 H"
b11110 I"
b110 J"
b10010 2"
b10101 m
b11110 d
b100011 4
b111 #$
1.
#700000
0.
#710000
b11111 d
b10110 m
b10001 2"
b11111 P"
b11111 L"
b11111 H"
b11111 I"
b111 J"
b11111 {#
b111101001000 t#
b111 u#
b100110010 %
b100110010 F#
b1000 #$
b100100 4
1.
#720000
0.
