cb.vcd
$date
	Fri Feb 20 16:07:31 2026
$end
$version
	Icarus Verilog
$end
$timescale
	1ps
$end
$scope module tb_cb $end
$var wire 1 ! cb_active_int $end
$var wire 9 " cb_cdown_int [8:0] $end
$var wire 2 # cb_state_int [1:0] $end
$var wire 8 $ uio_oe [7:0] $end
$var wire 8 % uo_out [7:0] $end
$var wire 8 & uio_out [7:0] $end
$var wire 1 ' match_valid $end
$var reg 1 ( clk $end
$var reg 1 ) ena $end
$var reg 1 * rst_n $end
$var reg 8 + ui_in [7:0] $end
$var reg 8 , uio_in [7:0] $end
$var integer 32 - cyc [31:0] $end
$var integer 32 . fail_count [31:0] $end
$var integer 32 / match_cnt [31:0] $end
$var integer 32 0 matches_normal [31:0] $end
$var integer 32 1 matches_throttled [31:0] $end
$var integer 32 2 pass_count [31:0] $end
$scope module dut $end
$var wire 1 3 cb_load_final $end
$var wire 1 ( clk $end
$var wire 1 4 comb_alert $end
$var wire 1 5 config_strobe $end
$var wire 1 ) ena $end
$var wire 1 * rst_n $end
$var wire 1 6 uart_trigger $end
$var wire 8 7 ui_in [7:0] $end
$var wire 8 8 uio_in [7:0] $end
$var wire 8 9 uio_oe [7:0] $end
$var wire 12 : vol_data [11:0] $end
$var wire 8 ; uio_out [7:0] $end
$var wire 8 < uart_payload [7:0] $end
$var wire 3 = rule_alert_type [2:0] $end
$var wire 3 > rule_alert_priority [2:0] $end
$var wire 8 ? rule_alert_bitmap [7:0] $end
$var wire 1 @ rule_alert_any $end
$var wire 12 A price_data [11:0] $end
$var wire 1 B ml_valid $end
$var wire 8 C ml_confidence [7:0] $end
$var wire 3 D ml_class [2:0] $end
$var wire 1 E match_valid $end
$var wire 8 F match_price [7:0] $end
$var wire 2 G input_type [1:0] $end
$var wire 128 H features [127:0] $end
$var wire 1 I feature_valid $end
$var wire 3 J comb_type [2:0] $end
$var wire 3 K comb_priority [2:0] $end
$var wire 2 L cb_state [1:0] $end
$var wire 8 M cb_param_final [7:0] $end
$var wire 2 N cb_mode_final [1:0] $end
$var wire 1 O cb_active $end
$var wire 2 P cascade_type [1:0] $end
$var wire 8 Q cascade_cb_param [7:0] $end
$var wire 1 R cascade_cb_load $end
$var wire 1 S cascade_alert $end
$var wire 1 T _unused $end
$var wire 1 U _cascade_type_unused $end
$var wire 12 V SPIKE_THRESH [11:0] $end
$var wire 12 W FLASH_THRESH [11:0] $end
$var parameter 32 X BAUD_DIV $end
$var parameter 32 Y CLK_HZ $end
$var parameter 32 Z HB_DIV $end
$var reg 1 [ cb_load_r $end
$var reg 2 \ cb_mode_cmd [1:0] $end
$var reg 2 ] cb_mode_next [1:0] $end
$var reg 8 ^ cb_param_cmd [7:0] $end
$var reg 8 _ cb_param_next [7:0] $end
$var reg 25 ` hb_cnt [24:0] $end
$var reg 1 a hb_led $end
$var reg 1 b ml_anomaly_held $end
$var reg 3 c ml_class_held [2:0] $end
$var reg 3 d ml_prio_held [2:0] $end
$var reg 1 e prev_alert_r $end
$var reg 2 f thresh_sel [1:0] $end
$var reg 10 g uart_bit_cnt [9:0] $end
$var reg 4 h uart_bits [3:0] $end
$var reg 1 i uart_busy $end
$var reg 10 j uart_shift [9:0] $end
$var reg 1 k uart_tx $end
$var reg 8 l uo_out [7:0] $end
$scope module u_cascade $end
$var wire 1 m cascade_fire $end
$var wire 1 ( clk $end
$var wire 1 n event_any $end
$var wire 1 o is_spike_crash $end
$var wire 1 p is_stuff_crash $end
$var wire 1 q is_triple $end
$var wire 1 r is_vol_crash $end
$var wire 1 s ml_evt $end
$var wire 1 t new_is_flash $end
$var wire 1 * rst_n $end
$var wire 1 u rule_evt $end
$var wire 1 v test_flush $end
$var wire 3 w rule_alert_type [2:0] $end
$var wire 1 @ rule_alert_any $end
$var wire 1 B ml_valid $end
$var wire 8 x ml_confidence [7:0] $end
$var wire 3 y ml_class [2:0] $end
$var wire 3 z h2_next [2:0] $end
$var wire 3 { h1_next [2:0] $end
$var wire 3 | event_code [2:0] $end
$var wire 9 } conf_x2_wide [8:0] $end
$var wire 8 ~ conf_x2_sat [7:0] $end
$var wire 2 !" cascade_type_next [1:0] $end
$var parameter 32 "" CASCADE_HOLD $end
$var parameter 32 #" CASCADE_WINDOW $end
$var parameter 2 $" CT_SPIKE_CRASH $end
$var parameter 2 %" CT_STUFF_CRASH $end
$var parameter 2 &" CT_TRIPLE $end
$var parameter 2 '" CT_VOL_CRASH $end
$var reg 7 (" age_cnt [6:0] $end
$var reg 1 S cascade_alert $end
$var reg 1 R cascade_cb_load $end
$var reg 8 )" cascade_cb_param [7:0] $end
$var reg 2 *" cascade_type [1:0] $end
$var reg 6 +" hold_cnt [5:0] $end
$upscope $end
$scope module u_feat_extractor $end
$var wire 1 ( clk $end
$var wire 2 ," input_type [1:0] $end
$var wire 12 -" price_data [11:0] $end
$var wire 1 * rst_n $end
$var wire 12 ." volume_data [11:0] $end
$var wire 1 E match_valid $end
$var wire 8 /" match_price [7:0] $end
$var wire 1 0" is_volume $end
$var wire 1 1" is_sell $end
$var wire 1 2" is_price $end
$var wire 1 3" is_buy $end
$var reg 8 4" buy_count [7:0] $end
$var reg 12 5" cur_vol [11:0] $end
$var reg 8 6" feat1_acc [7:0] $end
$var reg 1 I feature_valid $end
$var reg 128 7" features [127:0] $end
$var reg 12 8" price_mad [11:0] $end
$var reg 14 9" price_sum4 [13:0] $end
$var reg 2 :" ptr_s [1:0] $end
$var reg 8 ;" sell_count [7:0] $end
$var reg 2 <" vol_ptr [1:0] $end
$var reg 14 =" vol_sum4 [13:0] $end
$var reg 8 >" window_cnt [7:0] $end
$var integer 32 ?" i [31:0] $end
$scope begin seq_main $end
$scope begin emit $end
$var reg 16 @" arr_tmp [15:0] $end
$var reg 12 A" delta_s [11:0] $end
$var reg 8 B" vol_avg8 [7:0] $end
$var reg 16 C" vr_tmp [15:0] $end
$upscope $end
$scope begin price_upd $end
$var reg 8 D" delta8 [7:0] $end
$var reg 12 E" pavg [11:0] $end
$var reg 12 F" pdelta [11:0] $end
$upscope $end
$upscope $end
$upscope $end
$scope module u_ml_engine $end
$var wire 1 ( clk $end
$var wire 1 I feature_valid $end
$var wire 128 G" features [127:0] $end
$var wire 1 * rst_n $end
$var wire 8 H" f_volrat [7:0] $end
$var wire 8 I" f_volat [7:0] $end
$var wire 8 J" f_price10 [7:0] $end
$var wire 8 K" f_price1 [7:0] $end
$var wire 8 L" f_imbal [7:0] $end
$var wire 8 M" f_arriv [7:0] $end
$var reg 3 N" c_class [2:0] $end
$var reg 8 O" c_conf [7:0] $end
$var reg 3 P" ml_class [2:0] $end
$var reg 8 Q" ml_confidence [7:0] $end
$var reg 1 B ml_valid $end
$scope begin classify $end
$upscope $end
$upscope $end
$scope module u_order_book $end
$var wire 1 3 cb_load $end
$var wire 2 R" cb_mode [1:0] $end
$var wire 8 S" cb_param [7:0] $end
$var wire 2 T" cb_state [1:0] $end
$var wire 1 ( clk $end
$var wire 1 U" crossing $end
$var wire 6 V" data_in [5:0] $end
$var wire 6 W" ext_data [5:0] $end
$var wire 2 X" input_type [1:0] $end
$var wire 1 * rst_n $end
$var wire 4 Y" throttle_div [3:0] $end
$var wire 1 Z" throttle_allow $end
$var wire 3 [" spread_guard [2:0] $end
$var wire 1 \" order_gate $end
$var wire 7 ]" new_price [6:0] $end
$var wire 1 ^" match_gate $end
$var wire 1 _" is_sell $end
$var wire 1 `" is_buy $end
$var wire 7 a" cross_threshold [6:0] $end
$var wire 1 O cb_active $end
$var wire 3 b" active_guard [2:0] $end
$var reg 7 c" best_ask [6:0] $end
$var reg 2 d" best_ask_idx [1:0] $end
$var reg 1 e" best_ask_valid $end
$var reg 7 f" best_bid [6:0] $end
$var reg 2 g" best_bid_idx [1:0] $end
$var reg 1 h" best_bid_valid $end
$var reg 9 i" cb_countdown [8:0] $end
$var reg 2 j" cb_mode_r [1:0] $end
$var reg 8 k" cb_param_r [7:0] $end
$var reg 2 l" empty_ask_slot [1:0] $end
$var reg 2 m" empty_bid_slot [1:0] $end
$var reg 1 n" has_empty_ask $end
$var reg 1 o" has_empty_bid $end
$var reg 8 p" match_price [7:0] $end
$var reg 1 E match_valid $end
$var reg 4 q" throttle_cnt [3:0] $end
$var integer 32 r" i3 [31:0] $end
$scope begin best_finder $end
$var reg 3 s" i [2:0] $end
$upscope $end
$scope begin slot_finder $end
$upscope $end
$upscope $end
$scope module u_rule_detector $end
$var wire 1 ( clk $end
$var wire 1 t" det_flash $end
$var wire 1 u" det_imbalance $end
$var wire 1 v" det_spread $end
$var wire 1 w" det_vol_dry $end
$var wire 1 x" det_vol_surge $end
$var wire 1 y" det_volatility $end
$var wire 12 z" flash_thresh [11:0] $end
$var wire 2 {" input_type [1:0] $end
$var wire 8 |" match_price [7:0] $end
$var wire 1 E match_valid $end
$var wire 12 }" price_data [11:0] $end
$var wire 1 * rst_n $end
$var wire 12 ~" spike_thresh [11:0] $end
$var wire 12 !# volume_data [11:0] $end
$var wire 13 "# vol_surge_thresh [12:0] $end
$var wire 12 ## vol_dry_thresh [11:0] $end
$var wire 12 $# vol_deviation [11:0] $end
$var wire 12 %# price_drop [11:0] $end
$var wire 12 &# price_delta [11:0] $end
$var wire 1 '# is_volume $end
$var wire 1 (# is_sell $end
$var wire 1 )# is_price $end
$var wire 1 *# is_buy $end
$var wire 1 +# det_velocity $end
$var wire 1 ,# det_spike $end
$var wire 3 -# alert_type [2:0] $end
$var wire 3 .# alert_priority [2:0] $end
$var wire 8 /# alert_bitmap [7:0] $end
$var wire 1 @ alert_any $end
$var parameter 5 0# VELOCITY_THRESH $end
$var parameter 32 1# VOL_DRY_DIV $end
$var parameter 32 2# VOL_SURGE_MULT $end
$var reg 3 3# buy_order_count [2:0] $end
$var reg 12 4# current_price [11:0] $end
$var reg 12 5# current_volume [11:0] $end
$var reg 5 6# match_counter [4:0] $end
$var reg 5 7# match_rate [4:0] $end
$var reg 12 8# prev_price [11:0] $end
$var reg 12 9# price_avg [11:0] $end
$var reg 12 :# price_mad [11:0] $end
$var reg 2 ;# price_ptr [1:0] $end
$var reg 14 <# price_sum [13:0] $end
$var reg 3 =# sell_order_count [2:0] $end
$var reg 12 ># vol_avg [11:0] $end
$var reg 2 ?# vol_ptr [1:0] $end
$var reg 14 @# vol_sum [13:0] $end
$var reg 8 A# window_timer [7:0] $end
$var integer 32 B# i [31:0] $end
$upscope $end
$upscope $end
$scope begin deep_cross $end
$var integer 32 C# dc [31:0] $end
$upscope $end
$scope task check $end
$var reg 1 D# cond $end
$var reg 256 E# lbl [255:0] $end
$upscope $end
$scope task count_matches_pairs $end
$var reg 6 F# p [5:0] $end
$var integer 32 G# i [31:0] $end
$var integer 32 H# n [31:0] $end
$upscope $end
$scope task inject_ml $end
$var reg 3 I# cls [2:0] $end
$var reg 8 J# conf [7:0] $end
$upscope $end
$upscope $end
$enddefinitions $end
$comment Show the parameter values. $end
$dumpall
b10 2#
b100 1#
b11110 0#
b0 '"
b11 &"
b10 %"
b1 $"
b1000000 #"
b100000 ""
b1011111010111100001000000 Z
b10111110101111000010000000 Y
b110110010 X
$end
#0
$dumpvars
bx J#
bx I#
bx H#
bx G#
bx F#
bx E#
xD#
bx C#
bx B#
bx A#
bx @#
bx ?#
bx >#
bx =#
bx <#
bx ;#
bx :#
bx 9#
bx 8#
bx 7#
bx 6#
bx 5#
bx 4#
bx 3#
bx /#
bx .#
bx -#
x,#
x+#
0*#
1)#
0(#
0'#
bx &#
bx %#
bx $#
b0xxxxxxxx ##
bx00 "#
b0 !#
b0xxxxxx ~"
b0 }"
bx |"
b0 {"
b0xxxxx0 z"
xy"
xx"
xw"
xv"
xu"
xt"
bx s"
bx r"
bx q"
bx p"
xo"
xn"
bx m"
bx l"
bx k"
bx j"
bx i"
xh"
bx g"
bx f"
xe"
bx d"
bx c"
bx b"
bx a"
0`"
0_"
x^"
b0 ]"
x\"
bx ["
xZ"
bx Y"
b0 X"
b0 W"
b0 V"
xU"
bx T"
bx S"
bx R"
bx Q"
bx P"
bx O"
bx N"
bx M"
bx L"
bx K"
bx J"
bx I"
bx H"
bx G"
bx F"
bx E"
bx D"
bx C"
bx B"
bx A"
bx @"
bx ?"
bx >"
bx ="
bx <"
bx ;"
bx :"
bx 9"
bx 8"
bx 7"
bx 6"
bx 5"
bx 4"
03"
12"
01"
00"
bx /"
b0 ."
b0 -"
b0 ,"
bx +"
bx *"
bx )"
bx ("
bx !"
bx ~
bx0 }
bx |
bx {
bx z
bx y
bx x
bx w
0v
xu
xt
xs
xr
xq
xp
xo
xn
xm
bx l
xk
bx j
xi
bx h
bx g
bx f
xe
bx d
bx c
xb
xa
bx `
bx _
bx ^
bx ]
bx \
x[
b0xxxxx0 W
b0xxxxxx V
xU
0T
xS
xR
bx Q
bx P
xO
bx N
bx M
bx L
bx K
bx J
xI
bx H
b0 G
bx F
xE
bx D
bx C
xB
b0 A
x@
bx ?
bx >
bx =
bx <
bx ;
b0 :
b11111111 9
b0 8
b0 7
x6
05
x4
x3
b0 2
bx 1
bx 0
bx /
b0 .
b0 -
b0 ,
b0 +
0*
1)
0(
x'
bx &
bx %
b11111111 $
bx #
bx "
x!
$end
#10000
0t
b1 K
b1 |
b1 J
16
b1 >
b1 .#
b1 =
b1 w
b1 -#
0m
b0 !"
14
0q
0y"
1n
b0 ~
0U"
b0 $#
0t"
0v"
0u"
0x"
1u
1@
1w"
0r
0o
0p
0'
b0 Y"
b0 ["
1\"
1^"
b1111111 a"
b0 b"
1n"
b0 l"
1o"
b0 m"
b100 s"
b0 d"
0e"
b1111111 c"
b0 g"
0h"
b0 f"
0,#
b0 &#
b0 %#
b110010000 "#
b110 ##
b0 }
b0 _
b0 ]
0s
03
0U
b0 z
b0 {
b10100 V
b10100 ~"
b101000 W
b101000 z"
b0 M
b0 S"
b0 N
b0 R"
b100100 <
b0 &
b0 ;
b10010001 %
b10010001 l
0I
b0 6"
b0 >"
b0 ;"
b0 4"
b1100100 5"
b110010000 ="
b101 8"
b110010000 9"
b0 <"
b0 :"
1Z"
b0 q"
b0 k"
b0 "
b0 i"
0!
0O
b0 L
b0 T"
b0 #
b0 j"
b0 F
b0 /"
b0 p"
b0 |"
0E
b101 :#
b0 5#
b1100100 8#
b1100100 4#
b0 =#
b0 3#
b10 ?
b10 /#
0+#
b0 7#
b0 A#
b0 6#
b1100100 >#
b1100100 9#
b0 @#
b0 <#
b0 ?#
b0 ;#
b0 C
b0 x
b0 Q"
b0 D
b0 y
b0 P"
0B
b0 +"
b0 Q
b0 )"
0R
b0 P
b0 *"
0S
b0 ("
b1 f
0[
b0 ^
b0 \
b0 d
0b
b0 c
0e
b0 h
b0 g
b1111111111 j
1k
0i
0a
b0 `
b100 ?"
b100 r"
b100 B#
b1 -
1(
#20000
0(
#30000
b100 ?"
b100 B#
b100 r"
b10 -
1(
#40000
0(
#50000
b100 ?"
b100 r"
b100 B#
b11 -
1(
#60000
0(
#70000
b100 ?"
b100 B#
b100 r"
b100 -
1(
#80000
0(
#90000
b11100110 %
b11100110 l
b110 K
b110 |
b11011000 <
b110 J
b110 >
b110 .#
b110 =
b110 w
b110 -#
1y"
06
b1010100 $#
b1000011 ?
b1000011 /#
1,#
b1100100 &#
b1 {
b1 >"
b1100 6"
b1 :"
b100101100 9"
b1 A#
b10000 :#
b0 9#
b1 ;#
b11111110011100 <#
b0 4#
1e
0k
1i
b1001001000 j
b1 `
b1100100 D"
b1100100 F"
b1100100 E"
b101 -
1*
1(
#100000
0(
#110000
b11110111 %
b11110111 l
b111 K
b111 |
b11111100 <
b111 J
b111 >
b111 .#
b111 =
b111 w
b111 -#
0y"
1t"
b110 {
b1 z
b0 $#
b111111100111 %#
b10000010 ?
b10000010 /#
0,#
b0 &#
b10 >"
b10100 6"
b100 8"
b10 :"
b11001000 9"
b10 `
b1 g
b10 A#
b1110 :#
b111111100111 9#
b10 ;#
b11111100111000 <#
b0 8#
b1001011 D"
b1001011 F"
b1001011 E"
b110 -
1(
#120000
0(
#130000
b111111001110 %#
b111 {
b110 z
b11 >"
b11000 6"
b11 8"
b11 :"
b1100100 9"
b11 A#
b1000001001 :#
b111111001110 9#
b11 ;#
b11111011010100 <#
b10 g
b11 `
b110010 D"
b110010 F"
b110010 E"
b111 -
1(
#140000
0(
#150000
b111 z
b111110110101 %#
b100 >"
b10 8"
b0 :"
b0 9"
b100 `
b11 g
b100 A#
b1111000001 :#
b111110110101 9#
b0 ;#
b11111001110000 <#
b11001 D"
b11001 F"
b11001 E"
b1000 -
1(
#151000
b0 G#
b0 /
b10100 F#
b1010 H#
#160000
b1010 ]"
02"
13"
1`"
0)#
1*#
b10 G
b10 ,"
b10 X"
b10 {"
b10100 A
b10100 -"
b10100 }"
b10100 :
b10100 ."
b10100 !#
b10100 V"
b10010100 +
b10010100 7
0(
#170000
b0 l"
b1 m"
1n"
1o"
1h"
b1010 f"
b100 s"
b101 >"
b1 4"
b101 A#
b1 3#
b100 g
b101 `
b1001 -
1(
#171000
b0 ]"
12"
03"
0`"
1)#
0*#
b0 G
b0 ,"
b0 X"
b0 {"
b0 A
b0 -"
b0 }"
b0 :
b0 ."
b0 !#
b0 V"
b0 +
b0 7
#180000
b1010 ]"
02"
11"
1_"
0)#
1(#
b11 G
b11 ,"
b11 X"
b11 {"
b10100 A
b10100 -"
b10100 }"
b10100 :
b10100 ."
b10100 !#
b10100 V"
b11010100 +
b11010100 7
0(
#190000
1U"
b1 l"
1n"
1o"
b1 m"
1e"
b1010 a"
b1010 c"
b100 s"
1h"
b1010 f"
b110 >"
b1 ;"
b110 `
b101 g
b110 A#
b1 =#
b1010 -
1(
#191000
b0 ]"
12"
01"
0_"
1)#
0(#
b0 G
b0 ,"
b0 X"
b0 {"
b0 A
b0 -"
b0 }"
b0 :
b0 ."
b0 !#
b0 V"
b0 +
b0 7
#200000
0(
#210000
0U"
1'
1n"
b0 l"
1o"
b0 m"
b100 s"
0e"
b1111111 a"
b1111111 c"
0h"
b0 f"
b1010 &
b1010 ;
b11111111 %
b11111111 l
b111110011100 %#
b111 >"
b10101 6"
b1 8"
b1 :"
b1010 F
b1010 /"
b1010 p"
b1010 |"
1E
b111 A#
b10100111111 :#
b111110011100 9#
b1 ;#
b110 g
b111 `
b0 D"
b0 F"
b0 E"
b1011 -
1(
#211000
b1 G#
b1 /
#220000
b1010 ]"
02"
13"
1`"
0)#
1*#
b10 G
b10 ,"
b10 X"
b10 {"
b10100 A
b10100 -"
b10100 }"
b10100 :
b10100 ."
b10100 !#
b10100 V"
b10010100 +
b10010100 7
0(
#230000
b10010010 ?
b10010010 /#
1u"
0'
b0 l"
b1 m"
1n"
1o"
1h"
b1010 f"
b100 s"
b0 &
b0 ;
b11110111 %
b11110111 l
b1000 >"
b10 4"
b1000 `
b111 g
b1000 A#
b1 6#
b10 3#
0E
b1100 -
1(
#231000
b0 ]"
12"
03"
0`"
1)#
0*#
b0 G
b0 ,"
b0 X"
b0 {"
b0 A
b0 -"
b0 }"
b0 :
b0 ."
b0 !#
b0 V"
b0 +
b0 7
#240000
b1010 ]"
02"
11"
1_"
0)#
1(#
b11 G
b11 ,"
b11 X"
b11 {"
b10100 A
b10100 -"
b10100 }"
b10100 :
b10100 ."
b10100 !#
b10100 V"
b11010100 +
b11010100 7
0(
#250000
1U"
b1 l"
1n"
1o"
b1 m"
1e"
b1010 a"
b1010 c"
b100 s"
1h"
b1010 f"
b1001 >"
b10 ;"
b1001 A#
b10 =#
b1000 g
b1001 `
b1101 -
1(
#251000
b0 ]"
12"
01"
0_"
1)#
0(#
b0 G
b0 ,"
b0 X"
b0 {"
b0 A
b0 -"
b0 }"
b0 :
b0 ."
b0 !#
b0 V"
b0 +
b0 7
#260000
0(
#270000
0U"
1'
1n"
b0 l"
1o"
b0 m"
b100 s"
0e"
b1111111 a"
b1111111 c"
0h"
b0 f"
b1010 &
b1010 ;
b11111111 %
b11111111 l
b1010 >"
b10011 6"
b0 8"
b10 :"
b1010 `
b1001 g
b1010 A#
b11010001010 :#
b10 ;#
1E
b1110 -
1(
#271000
b10 G#
b10 /
#280000
b1010 ]"
02"
13"
1`"
0)#
1*#
b10 G
b10 ,"
b10 X"
b10 {"
b10100 A
b10100 -"
b10100 }"
b10100 :
b10100 ."
b10100 !#
b10100 V"
b10010100 +
b10010100 7
0(
#290000
0'
b0 l"
b1 m"
1n"
1o"
1h"
b1010 f"
b100 s"
b0 &
b0 ;
b11110111 %
b11110111 l
b1011 >"
b11 4"
0E
b1011 A#
b10 6#
b11 3#
b1010 g
b1011 `
b1111 -
1(
#291000
b0 ]"
12"
03"
0`"
1)#
0*#
b0 G
b0 ,"
b0 X"
b0 {"
b0 A
b0 -"
b0 }"
b0 :
b0 ."
b0 !#
b0 V"
b0 +
b0 7
#300000
b1010 ]"
02"
11"
1_"
0)#
1(#
b11 G
b11 ,"
b11 X"
b11 {"
b10100 A
b10100 -"
b10100 }"
b10100 :
b10100 ."
b10100 !#
b10100 V"
b11010100 +
b11010100 7
0(
#310000
b10000010 ?
b10000010 /#
0u"
1U"
b1 l"
1n"
1o"
b1 m"
1e"
b1010 a"
b1010 c"
b100 s"
1h"
b1010 f"
b1100 >"
b11 ;"
b1100 `
b1011 g
b1100 A#
b11 =#
b10000 -
1(
#311000
b0 ]"
12"
01"
0_"
1)#
0(#
b0 G
b0 ,"
b0 X"
b0 {"
b0 A
b0 -"
b0 }"
b0 :
b0 ."
b0 !#
b0 V"
b0 +
b0 7
#320000
0(
#330000
0U"
1'
1n"
b0 l"
1o"
b0 m"
b100 s"
0e"
b1111111 a"
b1111111 c"
0h"
b0 f"
b1010 &
b1010 ;
b11111111 %
b11111111 l
b1101 >"
b10001 6"
b11 :"
1E
b1101 A#
b11110101100 :#
b11 ;#
b1100 g
b1101 `
b10001 -
1(
#331000
b11 G#
b11 /
#340000
b1010 ]"
02"
13"
1`"
0)#
1*#
b10 G
b10 ,"
b10 X"
b10 {"
b10100 A
b10100 -"
b10100 }"
b10100 :
b10100 ."
b10100 !#
b10100 V"
b10010100 +
b10010100 7
0(
#350000
b10010010 ?
b10010010 /#
1u"
0'
b0 l"
b1 m"
1n"
1o"
1h"
b1010 f"
b100 s"
b0 &
b0 ;
b11110111 %
b11110111 l
b1110 >"
b100 4"
b1110 `
b1101 g
b1110 A#
b11 6#
b100 3#
0E
b10010 -
1(
#351000
b0 ]"
12"
03"
0`"
1)#
0*#
b0 G
b0 ,"
b0 X"
b0 {"
b0 A
b0 -"
b0 }"
b0 :
b0 ."
b0 !#
b0 V"
b0 +
b0 7
#360000
b1010 ]"
02"
11"
1_"
0)#
1(#
b11 G
b11 ,"
b11 X"
b11 {"
b10100 A
b10100 -"
b10100 }"
b10100 :
b10100 ."
b10100 !#
b10100 V"
b11010100 +
b11010100 7
0(
#370000
1U"
b1 l"
1n"
1o"
b1 m"
1e"
b1010 a"
b1010 c"
b100 s"
1h"
b1010 f"
b1111 >"
b100 ;"
b1111 A#
b100 =#
b1110 g
b1111 `
b10011 -
1(
#371000
b0 ]"
12"
01"
0_"
1)#
0(#
b0 G
b0 ,"
b0 X"
b0 {"
b0 A
b0 -"
b0 }"
b0 :
b0 ."
b0 !#
b0 V"
b0 +
b0 7
#380000
0(
#390000
0U"
1'
1n"
b0 l"
1o"
b0 m"
b100 s"
0e"
b1111111 a"
b1111111 c"
0h"
b0 f"
b1010 &
b1010 ;
b11111111 %
b11111111 l
b10000 >"
b1111 6"
b0 :"
b10000 `
b1111 g
b10000 A#
b100010101010 :#
b0 ;#
1E
b10100 -
1(
#391000
b100 G#
b100 /
#400000
b1010 ]"
02"
13"
1`"
0)#
1*#
b10 G
b10 ,"
b10 X"
b10 {"
b10100 A
b10100 -"
b10100 }"
b10100 :
b10100 ."
b10100 !#
b10100 V"
b10010100 +
b10010100 7
0(
#410000
0'
b0 l"
b1 m"
1n"
1o"
1h"
b1010 f"
b100 s"
b0 &
b0 ;
b11110111 %
b11110111 l
b10001 >"
b101 4"
0E
b10001 A#
b100 6#
b101 3#
b10000 g
b10001 `
b10101 -
1(
#411000
b0 ]"
12"
03"
0`"
1)#
0*#
b0 G
b0 ,"
b0 X"
b0 {"
b0 A
b0 -"
b0 }"
b0 :
b0 ."
b0 !#
b0 V"
b0 +
b0 7
#420000
b1010 ]"
02"
11"
1_"
0)#
1(#
b11 G
b11 ,"
b11 X"
b11 {"
b10100 A
b10100 -"
b10100 }"
b10100 :
b10100 ."
b10100 !#
b10100 V"
b11010100 +
b11010100 7
0(
#430000
1U"
b1 l"
1n"
1o"
b1 m"
1e"
b1010 a"
b1010 c"
b100 s"
1h"
b1010 f"
b10010 >"
b101 ;"
b10010 `
b10001 g
b10010 A#
b101 =#
b10110 -
1(
#431000
b0 ]"
12"
01"
0_"
1)#
0(#
b0 G
b0 ,"
b0 X"
b0 {"
b0 A
b0 -"
b0 }"
b0 :
b0 ."
b0 !#
b0 V"
b0 +
b0 7
#440000
0(
#450000
0U"
1'
1n"
b0 l"
1o"
b0 m"
b100 s"
0e"
b1111111 a"
b1111111 c"
0h"
b0 f"
b1010 &
b1010 ;
b11111111 %
b11111111 l
b10011 >"
b1110 6"
b1 :"
1E
b10011 A#
b100110001000 :#
b1 ;#
b10010 g
b10011 `
b10111 -
1(
#451000
b101 G#
b101 /
#460000
b1010 ]"
02"
13"
1`"
0)#
1*#
b10 G
b10 ,"
b10 X"
b10 {"
b10100 A
b10100 -"
b10100 }"
b10100 :
b10100 ."
b10100 !#
b10100 V"
b10010100 +
b10010100 7
0(
#470000
0'
b0 l"
b1 m"
1n"
1o"
1h"
b1010 f"
b100 s"
b0 &
b0 ;
b11110111 %
b11110111 l
b10100 >"
b110 4"
b10100 `
b10011 g
b10100 A#
b101 6#
b110 3#
0E
b11000 -
1(
#471000
b0 ]"
12"
03"
0`"
1)#
0*#
b0 G
b0 ,"
b0 X"
b0 {"
b0 A
b0 -"
b0 }"
b0 :
b0 ."
b0 !#
b0 V"
b0 +
b0 7
#480000
b1010 ]"
02"
11"
1_"
0)#
1(#
b11 G
b11 ,"
b11 X"
b11 {"
b10100 A
b10100 -"
b10100 }"
b10100 :
b10100 ."
b10100 !#
b10100 V"
b11010100 +
b11010100 7
0(
#490000
1U"
b1 l"
1n"
1o"
b1 m"
1e"
b1010 a"
b1010 c"
b100 s"
1h"
b1010 f"
b10101 >"
b110 ;"
b10101 A#
b110 =#
b10100 g
b10101 `
b11001 -
1(
#491000
b0 ]"
12"
01"
0_"
1)#
0(#
b0 G
b0 ,"
b0 X"
b0 {"
b0 A
b0 -"
b0 }"
b0 :
b0 ."
b0 !#
b0 V"
b0 +
b0 7
#500000
0(
#510000
0U"
1'
1n"
b0 l"
1o"
b0 m"
b100 s"
0e"
b1111111 a"
b1111111 c"
0h"
b0 f"
b1010 &
b1010 ;
b11111111 %
b11111111 l
b10110 >"
b1101 6"
b10 :"
b10110 `
b10101 g
b10110 A#
b101001001010 :#
b10 ;#
1E
b11010 -
1(
#511000
b110 G#
b110 /
#520000
b1010 ]"
02"
13"
1`"
0)#
1*#
b10 G
b10 ,"
b10 X"
b10 {"
b10100 A
b10100 -"
b10100 }"
b10100 :
b10100 ."
b10100 !#
b10100 V"
b10010100 +
b10010100 7
0(
#530000
0'
b0 l"
b1 m"
1n"
1o"
1h"
b1010 f"
b100 s"
b0 &
b0 ;
b11110111 %
b11110111 l
b10111 >"
b111 4"
0E
b10111 A#
b110 6#
b111 3#
b10110 g
b10111 `
b11011 -
1(
#531000
b0 ]"
12"
03"
0`"
1)#
0*#
b0 G
b0 ,"
b0 X"
b0 {"
b0 A
b0 -"
b0 }"
b0 :
b0 ."
b0 !#
b0 V"
b0 +
b0 7
#540000
b1010 ]"
02"
11"
1_"
0)#
1(#
b11 G
b11 ,"
b11 X"
b11 {"
b10100 A
b10100 -"
b10100 }"
b10100 :
b10100 ."
b10100 !#
b10100 V"
b11010100 +
b11010100 7
0(
#550000
1U"
b1 l"
1n"
1o"
b1 m"
1e"
b1010 a"
b1010 c"
b100 s"
1h"
b1010 f"
b11000 >"
b111 ;"
b11000 `
b10111 g
b11000 A#
b111 =#
b11100 -
1(
#551000
b0 ]"
12"
01"
0_"
1)#
0(#
b0 G
b0 ,"
b0 X"
b0 {"
b0 A
b0 -"
b0 }"
b0 :
b0 ."
b0 !#
b0 V"
b0 +
b0 7
#560000
0(
#570000
0U"
1'
1n"
b0 l"
1o"
b0 m"
b100 s"
0e"
b1111111 a"
b1111111 c"
0h"
b0 f"
b1010 &
b1010 ;
b11111111 %
b11111111 l
b11001 >"
b1100 6"
b11 :"
1E
b11001 A#
b101011110100 :#
b11 ;#
b11000 g
b11001 `
b11101 -
1(
#571000
b111 G#
b111 /
#580000
b1010 ]"
02"
13"
1`"
0)#
1*#
b10 G
b10 ,"
b10 X"
b10 {"
b10100 A
b10100 -"
b10100 }"
b10100 :
b10100 ."
b10100 !#
b10100 V"
b10010100 +
b10010100 7
0(
#590000
0'
b0 l"
b1 m"
1n"
1o"
1h"
b1010 f"
b100 s"
b0 &
b0 ;
b11110111 %
b11110111 l
b11010 >"
b1000 4"
b11010 `
b11001 g
b11010 A#
b111 6#
0E
b11110 -
1(
#591000
b0 ]"
12"
03"
0`"
1)#
0*#
b0 G
b0 ,"
b0 X"
b0 {"
b0 A
b0 -"
b0 }"
b0 :
b0 ."
b0 !#
b0 V"
b0 +
b0 7
#600000
b1010 ]"
02"
11"
1_"
0)#
1(#
b11 G
b11 ,"
b11 X"
b11 {"
b10100 A
b10100 -"
b10100 }"
b10100 :
b10100 ."
b10100 !#
b10100 V"
b11010100 +
b11010100 7
0(
