cb.vcd
$date
	Thu Feb 19 17:13:46 2026
$end
$version
	Icarus Verilog
$end
$timescale
	1ps
$end
$scope module tb_cb $end
$var wire 1 ! cb_active_int $end
$var wire 9 " cb_cdown_int [8:0] $end
$var wire 2 # cb_state_int [1:0] $end
$var wire 8 $ uio_oe [7:0] $end
$var wire 8 % uo_out [7:0] $end
$var wire 8 & uio_out [7:0] $end
$var wire 1 ' match_valid $end
$var reg 1 ( clk $end
$var reg 1 ) ena $end
$var reg 1 * rst_n $end
$var reg 8 + ui_in [7:0] $end
$var reg 8 , uio_in [7:0] $end
$var integer 32 - cyc [31:0] $end
$var integer 32 . fail_count [31:0] $end
$var integer 32 / match_cnt [31:0] $end
$var integer 32 0 matches_normal [31:0] $end
$var integer 32 1 matches_throttled [31:0] $end
$var integer 32 2 pass_count [31:0] $end
$scope module dut $end
$var wire 1 ( clk $end
$var wire 1 3 comb_alert $end
$var wire 1 4 config_strobe $end
$var wire 1 ) ena $end
$var wire 1 * rst_n $end
$var wire 1 5 uart_trigger $end
$var wire 8 6 ui_in [7:0] $end
$var wire 8 7 uio_in [7:0] $end
$var wire 8 8 uio_oe [7:0] $end
$var wire 12 9 vol_data [11:0] $end
$var wire 8 : uio_out [7:0] $end
$var wire 8 ; uart_payload [7:0] $end
$var wire 3 < rule_alert_type [2:0] $end
$var wire 3 = rule_alert_priority [2:0] $end
$var wire 8 > rule_alert_bitmap [7:0] $end
$var wire 1 ? rule_alert_any $end
$var wire 12 @ price_data [11:0] $end
$var wire 1 A ml_valid $end
$var wire 8 B ml_confidence [7:0] $end
$var wire 3 C ml_class [2:0] $end
$var wire 1 D match_valid $end
$var wire 8 E match_price [7:0] $end
$var wire 2 F input_type [1:0] $end
$var wire 128 G features [127:0] $end
$var wire 1 H feature_valid $end
$var wire 3 I comb_type [2:0] $end
$var wire 3 J comb_priority [2:0] $end
$var wire 2 K cb_state [1:0] $end
$var wire 1 L cb_active $end
$var wire 1 M _unused $end
$var wire 12 N SPIKE_THRESH [11:0] $end
$var wire 12 O FLASH_THRESH [11:0] $end
$var parameter 32 P BAUD_DIV $end
$var parameter 32 Q CLK_HZ $end
$var parameter 32 R HB_DIV $end
$var reg 1 S cb_load_r $end
$var reg 2 T cb_mode_cmd [1:0] $end
$var reg 2 U cb_mode_next [1:0] $end
$var reg 8 V cb_param_cmd [7:0] $end
$var reg 8 W cb_param_next [7:0] $end
$var reg 25 X hb_cnt [24:0] $end
$var reg 1 Y hb_led $end
$var reg 1 Z ml_anomaly_held $end
$var reg 3 [ ml_class_held [2:0] $end
$var reg 8 \ ml_conf_held [7:0] $end
$var reg 3 ] ml_prio_held [2:0] $end
$var reg 1 ^ prev_alert_r $end
$var reg 2 _ thresh_sel [1:0] $end
$var reg 10 ` uart_bit_cnt [9:0] $end
$var reg 4 a uart_bits [3:0] $end
$var reg 1 b uart_busy $end
$var reg 10 c uart_shift [9:0] $end
$var reg 1 d uart_tx $end
$var reg 8 e uo_out [7:0] $end
$scope module u_feat_extractor $end
$var wire 1 ( clk $end
$var wire 2 f input_type [1:0] $end
$var wire 12 g price_data [11:0] $end
$var wire 1 * rst_n $end
$var wire 12 h volume_data [11:0] $end
$var wire 1 D match_valid $end
$var wire 8 i match_price [7:0] $end
$var wire 1 j is_volume $end
$var wire 1 k is_sell $end
$var wire 1 l is_price $end
$var wire 1 m is_buy $end
$var reg 8 n buy_count [7:0] $end
$var reg 12 o cur_price [11:0] $end
$var reg 12 p cur_vol [11:0] $end
$var reg 1 H feature_valid $end
$var reg 128 q features [127:0] $end
$var reg 12 r local_avg [11:0] $end
$var reg 12 s local_delta [11:0] $end
$var reg 8 t match_count [7:0] $end
$var reg 8 u match_rate [7:0] $end
$var reg 12 v price_avg [11:0] $end
$var reg 12 w price_mad [11:0] $end
$var reg 12 x price_prev1 [11:0] $end
$var reg 12 y price_prev2 [11:0] $end
$var reg 15 z price_sum8 [14:0] $end
$var reg 6 { ptr_l [5:0] $end
$var reg 5 | ptr_m [4:0] $end
$var reg 3 } ptr_s [2:0] $end
$var reg 8 ~ sell_count [7:0] $end
$var reg 16 !" trade_timer [15:0] $end
$var reg 12 "" vol_avg [11:0] $end
$var reg 3 #" vol_ptr [2:0] $end
$var reg 15 $" vol_sum8 [14:0] $end
$var reg 8 %" window_cnt [7:0] $end
$var integer 32 &" i [31:0] $end
$scope function clip8 $end
$var reg 12 '" x [11:0] $end
$upscope $end
$scope function clip8_16 $end
$var reg 16 (" x [15:0] $end
$upscope $end
$scope function imbalance_byte $end
$var reg 8 )" buys [7:0] $end
$var reg 16 *" num [15:0] $end
$var reg 8 +" sells [7:0] $end
$var reg 16 ," total [15:0] $end
$upscope $end
$scope function momentum_byte $end
$var reg 13 -" d1 [12:0] $end
$var reg 13 ." d2 [12:0] $end
$var reg 13 /" mom [12:0] $end
$var reg 12 0" p0 [11:0] $end
$var reg 12 1" p1 [11:0] $end
$var reg 12 2" p2 [11:0] $end
$upscope $end
$scope function price_delta $end
$var reg 12 3" a [11:0] $end
$var reg 12 4" b [11:0] $end
$var reg 12 5" d [11:0] $end
$upscope $end
$scope function spread_byte $end
$var reg 8 6" asks [7:0] $end
$var reg 8 7" bids [7:0] $end
$upscope $end
$scope function vol_ratio_byte $end
$var reg 12 8" avg [11:0] $end
$var reg 12 9" cur [11:0] $end
$var reg 20 :" num [19:0] $end
$upscope $end
$upscope $end
$scope module u_ml_engine $end
$var wire 1 ( clk $end
$var wire 1 H feature_valid $end
$var wire 128 ;" features [127:0] $end
$var wire 1 * rst_n $end
$var reg 32 <" acc2_tmp [31:0] $end
$var reg 3 =" best_class [2:0] $end
$var reg 32 >" gap [31:0] $end
$var reg 32 ?" max_logit [31:0] $end
$var reg 32 @" min_logit [31:0] $end
$var reg 3 A" ml_class [2:0] $end
$var reg 8 B" ml_confidence [7:0] $end
$var reg 1 A ml_valid $end
$var reg 1 C" s0_valid $end
$var reg 1 D" s1_valid $end
$var reg 1 E" s2_valid $end
$var integer 32 F" h1 [31:0] $end
$var integer 32 G" h2 [31:0] $end
$var integer 32 H" i1 [31:0] $end
$var integer 32 I" j3 [31:0] $end
$var integer 32 J" k [31:0] $end
$var integer 32 K" o2 [31:0] $end
$scope function rom_b1 $end
$var reg 2 L" addr [1:0] $end
$upscope $end
$scope function rom_b2 $end
$var reg 3 M" addr [2:0] $end
$upscope $end
$scope function rom_w1 $end
$var reg 6 N" addr [5:0] $end
$upscope $end
$scope function rom_w2 $end
$var reg 5 O" addr [4:0] $end
$upscope $end
$scope begin unpack[0] $end
$var parameter 2 P" gi $end
$upscope $end
$scope begin unpack[1] $end
$var parameter 2 Q" gi $end
$upscope $end
$scope begin unpack[2] $end
$var parameter 3 R" gi $end
$upscope $end
$scope begin unpack[3] $end
$var parameter 3 S" gi $end
$upscope $end
$scope begin unpack[4] $end
$var parameter 4 T" gi $end
$upscope $end
$scope begin unpack[5] $end
$var parameter 4 U" gi $end
$upscope $end
$scope begin unpack[6] $end
$var parameter 4 V" gi $end
$upscope $end
$scope begin unpack[7] $end
$var parameter 4 W" gi $end
$upscope $end
$scope begin unpack[8] $end
$var parameter 5 X" gi $end
$upscope $end
$scope begin unpack[9] $end
$var parameter 5 Y" gi $end
$upscope $end
$scope begin unpack[10] $end
$var parameter 5 Z" gi $end
$upscope $end
$scope begin unpack[11] $end
$var parameter 5 [" gi $end
$upscope $end
$scope begin unpack[12] $end
$var parameter 5 \" gi $end
$upscope $end
$scope begin unpack[13] $end
$var parameter 5 ]" gi $end
$upscope $end
$scope begin unpack[14] $end
$var parameter 5 ^" gi $end
$upscope $end
$scope begin unpack[15] $end
$var parameter 5 _" gi $end
$upscope $end
$upscope $end
$scope module u_order_book $end
$var wire 1 S cb_load $end
$var wire 2 `" cb_mode [1:0] $end
$var wire 8 a" cb_param [7:0] $end
$var wire 2 b" cb_state [1:0] $end
$var wire 1 ( clk $end
$var wire 1 c" crossing $end
$var wire 6 d" data_in [5:0] $end
$var wire 6 e" ext_data [5:0] $end
$var wire 2 f" input_type [1:0] $end
$var wire 1 * rst_n $end
$var wire 4 g" throttle_div [3:0] $end
$var wire 1 h" throttle_allow $end
$var wire 3 i" spread_guard [2:0] $end
$var wire 1 j" order_gate $end
$var wire 7 k" new_price [6:0] $end
$var wire 1 l" match_gate $end
$var wire 1 m" is_sell $end
$var wire 1 n" is_buy $end
$var wire 7 o" cross_threshold [6:0] $end
$var wire 1 L cb_active $end
$var wire 3 p" active_guard [2:0] $end
$var reg 7 q" best_ask [6:0] $end
$var reg 2 r" best_ask_idx [1:0] $end
$var reg 1 s" best_ask_valid $end
$var reg 7 t" best_bid [6:0] $end
$var reg 2 u" best_bid_idx [1:0] $end
$var reg 1 v" best_bid_valid $end
$var reg 9 w" cb_countdown [8:0] $end
$var reg 2 x" cb_mode_r [1:0] $end
$var reg 8 y" cb_param_r [7:0] $end
$var reg 2 z" empty_ask_slot [1:0] $end
$var reg 2 {" empty_bid_slot [1:0] $end
$var reg 1 |" has_empty_ask $end
$var reg 1 }" has_empty_bid $end
$var reg 8 ~" match_price [7:0] $end
$var reg 1 D match_valid $end
$var reg 4 !# throttle_cnt [3:0] $end
$var integer 32 "# i [31:0] $end
$upscope $end
$scope module u_rule_detector $end
$var wire 1 ( clk $end
$var wire 1 ## det_flash $end
$var wire 1 $# det_imbalance $end
$var wire 1 %# det_spread $end
$var wire 1 &# det_vol_dry $end
$var wire 1 '# det_vol_surge $end
$var wire 1 (# det_volatility $end
$var wire 12 )# flash_thresh [11:0] $end
$var wire 2 *# input_type [1:0] $end
$var wire 8 +# match_price [7:0] $end
$var wire 1 D match_valid $end
$var wire 12 ,# price_data [11:0] $end
$var wire 1 * rst_n $end
$var wire 12 -# spike_thresh [11:0] $end
$var wire 12 .# volume_data [11:0] $end
$var wire 13 /# vol_surge_thresh [12:0] $end
$var wire 12 0# vol_dry_thresh [11:0] $end
$var wire 12 1# vol_deviation [11:0] $end
$var wire 12 2# price_drop [11:0] $end
$var wire 12 3# price_delta [11:0] $end
$var wire 1 4# is_volume $end
$var wire 1 5# is_sell $end
$var wire 1 6# is_price $end
$var wire 1 7# is_buy $end
$var wire 1 8# det_velocity $end
$var wire 1 9# det_spike $end
$var wire 3 :# alert_type [2:0] $end
$var wire 3 ;# alert_priority [2:0] $end
$var wire 8 <# alert_bitmap [7:0] $end
$var wire 1 ? alert_any $end
$var parameter 6 =# VELOCITY_THRESH $end
$var parameter 32 ># VOL_DRY_DIV $end
$var parameter 32 ?# VOL_SURGE_MULT $end
$var reg 4 @# buy_order_count [3:0] $end
$var reg 12 A# current_price [11:0] $end
$var reg 12 B# current_volume [11:0] $end
$var reg 6 C# match_counter [5:0] $end
$var reg 6 D# match_rate [5:0] $end
$var reg 12 E# prev_price [11:0] $end
$var reg 12 F# price_avg [11:0] $end
$var reg 12 G# price_mad [11:0] $end
$var reg 3 H# price_ptr [2:0] $end
$var reg 15 I# price_sum [14:0] $end
$var reg 4 J# sell_order_count [3:0] $end
$var reg 12 K# vol_avg [11:0] $end
$var reg 3 L# vol_ptr [2:0] $end
$var reg 15 M# vol_sum [14:0] $end
$var reg 8 N# window_timer [7:0] $end
$var integer 32 O# i [31:0] $end
$upscope $end
$upscope $end
$scope begin deep_cross $end
$var integer 32 P# dc [31:0] $end
$upscope $end
$scope task check $end
$var reg 1 Q# cond $end
$var reg 256 R# lbl [255:0] $end
$upscope $end
$scope task count_matches_pairs $end
$var reg 6 S# p [5:0] $end
$var integer 32 T# i [31:0] $end
$var integer 32 U# n [31:0] $end
$upscope $end
$scope task inject_ml $end
$var reg 3 V# cls [2:0] $end
$var reg 8 W# conf [7:0] $end
$upscope $end
$upscope $end
$enddefinitions $end
$comment Show the parameter values. $end
$dumpall
b10 ?#
b100 >#
b11110 =#
b1111 _"
b1110 ^"
b1101 ]"
b1100 \"
b1011 ["
b1010 Z"
b1001 Y"
b1000 X"
b111 W"
b110 V"
b101 U"
b100 T"
b11 S"
b10 R"
b1 Q"
b0 P"
b1011111010111100001000000 R
b10111110101111000010000000 Q
b110110010 P
$end
#0
$dumpvars
bx W#
bx V#
bx U#
bx T#
bx S#
bx R#
xQ#
bx P#
bx O#
bx N#
bx M#
bx L#
bx K#
bx J#
bx I#
bx H#
bx G#
bx F#
bx E#
bx D#
bx C#
bx B#
bx A#
bx @#
bx <#
bx ;#
bx :#
x9#
x8#
07#
16#
05#
04#
bx 3#
bx 2#
bx 1#
b0xxxxxxxx 0#
bx00 /#
b0 .#
b0xxxxxx -#
b0 ,#
bx +#
b0 *#
b0xxxxx0 )#
x(#
x'#
x&#
x%#
x$#
x##
bx "#
bx !#
bx ~"
x}"
x|"
bx {"
bx z"
bx y"
bx x"
bx w"
xv"
bx u"
bx t"
xs"
bx r"
bx q"
bx p"
bx o"
0n"
0m"
xl"
b0 k"
xj"
bx i"
xh"
bx g"
b0 f"
b0 e"
b0 d"
xc"
bx b"
bx a"
bx `"
bx O"
bx N"
bx M"
bx L"
bx K"
bx J"
bx I"
bx H"
bx G"
bx F"
xE"
xD"
xC"
bx B"
bx A"
bx @"
bx ?"
bx >"
bx ="
bx <"
bx ;"
bx :"
bx 9"
bx 8"
bx 7"
bx 6"
bx 5"
bx 4"
bx 3"
bx 2"
bx 1"
bx 0"
bx /"
bx ."
bx -"
bx ,"
bx +"
bx *"
bx )"
bx ("
bx '"
bx &"
bx %"
bx $"
bx #"
bx ""
bx !"
bx ~
bx }
bx |
bx {
bx z
bx y
bx x
bx w
bx v
bx u
bx t
bx s
bx r
bx q
bx p
bx o
bx n
0m
1l
0k
0j
bx i
b0 h
b0 g
b0 f
bx e
xd
bx c
xb
bx a
bx `
bx _
x^
bx ]
bx \
bx [
xZ
xY
bx X
bx W
bx V
bx U
bx T
xS
b0xxxxx0 O
b0xxxxxx N
0M
xL
bx K
bx J
bx I
xH
bx G
b0 F
bx E
xD
bx C
bx B
xA
b0 @
x?
bx >
bx =
bx <
bx ;
bx :
b0 9
b11111111 8
b0 7
b0 6
x5
04
x3
b0 2
bx 1
bx 0
bx /
b0 .
b0 -
b0 ,
b0 +
0*
1)
0(
x'
bx &
bx %
b11111111 $
bx #
bx "
x!
$end
#10000
b1 J
b1 I
b1 =
b1 ;#
b1 <
b1 :#
15
0(#
13
0c"
b0 1#
0##
0%#
0$#
0'#
1?
1&#
0'
b0 g"
b0 i"
1j"
1l"
b1111111 o"
b0 p"
1|"
b0 z"
1}"
b0 {"
b0 r"
0s"
b1111111 q"
b0 u"
0v"
b0 t"
09#
b0 3#
b0 2#
b110010000 /#
b110 0#
b0 W
b0 U
b10100 N
b10100 -#
b101000 O
b101000 )#
b100100 ;
b0 &
b0 :
b10010001 %
b10010001 e
1h"
b0 !#
b0 y"
b0 "
b0 w"
0!
0L
b0 K
b0 b"
b0 #
b0 x"
b0 E
b0 i
b0 ~"
b0 +#
0D
b101 G#
b0 B#
b1100100 E#
b1100100 A#
b0 J#
b0 @#
b10 >
b10 <#
08#
b0 D#
b0 N#
b0 C#
b1100100 K#
b1100100 F#
b0 M#
b0 I#
b0 L#
b0 H#
0H
b0 u
b0 %"
b0 !"
b0 t
b0 ~
b0 n
b1100100 y
b1100100 x
b1100100 o
b1100100 p
b1100100 ""
b1100100000 $"
b101 w
b1100100 v
b1100100000 z
b0 #"
b0 {
b0 |
b0 }
0C"
0D"
0E"
b0 B
b0 B"
b0 C
b0 A"
0A
b1 _
0S
b0 V
b0 a"
b0 T
b0 `"
b0 ]
0Z
b0 \
b0 [
0^
b0 a
b0 `
b1111111111 c
1d
0b
0Y
b0 X
b11111111111111111111111111111111 "#
b1000 O#
b1000 &"
b10000 J"
b1 -
1(
#20000
0(
#30000
b110 J"
b1000 &"
b1000 O#
b100 "#
b10 -
1(
#40000
0(
#50000
b100 "#
b1000 O#
b1000 &"
b10000 J"
b11 -
1(
#60000
0(
#70000
b110 J"
b1000 &"
b1000 O#
b100 "#
b100 -
1(
#80000
0(
#90000
b11100110 %
b11100110 e
b110 J
b11011000 ;
b110 I
b110 =
b110 ;#
b110 <
b110 :#
1(#
b1010100 1#
05
b1000011 >
b1000011 <#
19#
b1100100 3#
b1 N#
b10000 G#
b0 F#
b1 H#
b111111110011100 I#
b0 A#
b1 %"
b1 !"
b10000 w
b1 {
b1 |
b1 }
b1010111100 z
b0 o
1^
0d
1b
b1001001000 c
b1 X
b1100100 s
b1100100 r
b101 -
1*
1(
#100000
0(
#110000
b11110111 %
b11110111 e
b111 J
b11111100 ;
b111 I
b111 =
b111 ;#
b111 <
b111 :#
0(#
1##
b0 1#
b111111110011 2#
b10000010 >
b10000010 <#
09#
b0 3#
b10 X
b1 `
b10 %"
b10 !"
b11000 w
b10 {
b10 |
b1010111 v
b10 }
b1001011000 z
b0 x
b10 N#
b1110 G#
b111111110011 F#
b10 H#
b111111100111000 I#
b0 E#
b1010111 s
b1010111 r
b110 -
1(
#120000
0(
#130000
b111111100111 2#
b11 N#
b1000001010 G#
b111111100111 F#
b11 H#
b111111011010100 I#
b11 %"
b11 !"
b11110 w
b11 {
b11 |
b1001011 v
b11 }
b111110100 z
b0 y
b10 `
b11 X
b1001011 s
b1001011 r
b111 -
1(
#140000
0(
#150000
b111111011010 2#
b100 X
b11 `
b100 %"
b100 !"
b100010 w
b100 {
b100 |
b111110 v
b100 }
b110010000 z
b100 N#
b1111000101 G#
b111111011010 F#
b100 H#
b111111001110000 I#
b111110 s
b111110 r
b1000 -
1(
#151000
b0 T#
b0 /
b10100 S#
b1010 U#
#160000
b1010 k"
0l
1m
1n"
06#
17#
b10 F
b10 f
b10 f"
b10 *#
b10100 @
b10100 g
b10100 ,#
b10100 9
b10100 h
b10100 .#
b10100 d"
b10010100 +
b10010100 6
0(
#170000
b0 z"
b1 {"
1|"
1}"
1v"
b1010 t"
b11111111111111111111111111111111 "#
b101 N#
b1 @#
b101 %"
b101 !"
b1 n
b100 `
b101 X
b1001 -
1(
#171000
b0 k"
1l
0m
0n"
16#
07#
b0 F
b0 f
b0 f"
b0 *#
b0 @
b0 g
b0 ,#
b0 9
b0 h
b0 .#
b0 d"
b0 +
b0 6
#180000
b1010 k"
0l
1k
1m"
06#
15#
b11 F
b11 f
b11 f"
b11 *#
b10100 @
b10100 g
b10100 ,#
b10100 9
b10100 h
b10100 .#
b10100 d"
b11010100 +
b11010100 6
0(
#190000
1c"
b1 z"
1|"
1}"
b1 {"
1s"
b1010 o"
b1010 q"
b11111111111111111111111111111111 "#
1v"
b1010 t"
b110 X
b101 `
b110 %"
b110 !"
b1 ~
b110 N#
b1 J#
b1010 -
1(
#191000
b0 k"
1l
0k
0m"
16#
05#
b0 F
b0 f
b0 f"
b0 *#
b0 @
b0 g
b0 ,#
b0 9
b0 h
b0 .#
b0 d"
b0 +
b0 6
#200000
0(
#210000
0c"
1'
1|"
b0 z"
1}"
b0 {"
b11111111111111111111111111111111 "#
0s"
b1111111 o"
b1111111 q"
0v"
b0 t"
b1010 &
b1010 :
b11111111 %
b11111111 e
b111111001110 2#
b1010 E
b1010 i
b1010 ~"
b1010 +#
1D
b111 N#
b10101000111 G#
b111111001110 F#
b101 H#
b111111000001100 I#
b111 %"
b111 !"
b100100 w
b101 {
b101 |
b110010 v
b101 }
b100101100 z
b110 `
b111 X
b110010 s
b110010 r
b1011 -
1(
#211000
b1 T#
b1 /
#220000
b1010 k"
0l
1m
1n"
06#
17#
b10 F
b10 f
b10 f"
b10 *#
b10100 @
b10100 g
b10100 ,#
b10100 9
b10100 h
b10100 .#
b10100 d"
b10010100 +
b10010100 6
0(
#230000
0'
b0 z"
b1 {"
1|"
1}"
1v"
b1010 t"
b11111111111111111111111111111111 "#
b0 &
b0 :
b11110111 %
b11110111 e
b1000 X
b111 `
b1000 %"
b0 !"
b1 t
b10 n
b1000 N#
b1 C#
b10 @#
0D
b1100 -
1(
#231000
b0 k"
1l
0m
0n"
16#
07#
b0 F
b0 f
b0 f"
b0 *#
b0 @
b0 g
b0 ,#
b0 9
b0 h
b0 .#
b0 d"
b0 +
b0 6
#240000
b1010 k"
0l
1k
1m"
06#
15#
b11 F
b11 f
b11 f"
b11 *#
b10100 @
b10100 g
b10100 ,#
b10100 9
b10100 h
b10100 .#
b10100 d"
b11010100 +
b11010100 6
0(
#250000
1c"
b1 z"
1|"
1}"
b1 {"
1s"
b1010 o"
b1010 q"
b11111111111111111111111111111111 "#
1v"
b1010 t"
b1001 N#
b10 J#
b1001 %"
b1 !"
b10 ~
b1000 `
b1001 X
b1101 -
1(
#251000
b0 k"
1l
0k
0m"
16#
05#
b0 F
b0 f
b0 f"
b0 *#
b0 @
b0 g
b0 ,#
b0 9
b0 h
b0 .#
b0 d"
b0 +
b0 6
#260000
0(
#270000
0c"
1'
b111111000001 2#
1|"
b0 z"
1}"
b0 {"
b11111111111111111111111111111111 "#
0s"
b1111111 o"
b1111111 q"
0v"
b0 t"
b1010 &
b1010 :
b11111111 %
b11111111 e
b1010 X
b1001 `
b1010 %"
b10 !"
b110 {
b110 |
b100101 v
b110 }
b11001000 z
b1010 N#
b11010010111 G#
b111111000001 F#
b110 H#
b111110110101000 I#
1D
b100101 s
b100101 r
b1110 -
1(
#271000
b10 T#
b10 /
#280000
b1010 k"
0l
1m
1n"
06#
17#
b10 F
b10 f
b10 f"
b10 *#
b10100 @
b10100 g
b10100 ,#
b10100 9
b10100 h
b10100 .#
b10100 d"
b10010100 +
b10010100 6
0(
#290000
0'
b0 z"
b1 {"
1|"
1}"
1v"
b1010 t"
b11111111111111111111111111111111 "#
b0 &
b0 :
b11110111 %
b11110111 e
0D
b1011 N#
b10 C#
b11 @#
b1011 %"
b0 !"
b10 t
b11 n
b1010 `
b1011 X
b1111 -
1(
#291000
b0 k"
1l
0m
0n"
16#
07#
b0 F
b0 f
b0 f"
b0 *#
b0 @
b0 g
b0 ,#
b0 9
b0 h
b0 .#
b0 d"
b0 +
b0 6
#300000
b1010 k"
0l
1k
1m"
06#
15#
b11 F
b11 f
b11 f"
b11 *#
b10100 @
b10100 g
b10100 ,#
b10100 9
b10100 h
b10100 .#
b10100 d"
b11010100 +
b11010100 6
0(
#310000
1c"
b1 z"
1|"
1}"
b1 {"
1s"
b1010 o"
b1010 q"
b11111111111111111111111111111111 "#
1v"
b1010 t"
b1100 X
b1011 `
b1100 %"
b1 !"
b11 ~
b1100 N#
b11 J#
b10000 -
1(
#311000
b0 k"
1l
0k
0m"
16#
05#
b0 F
b0 f
b0 f"
b0 *#
b0 @
b0 g
b0 ,#
b0 9
b0 h
b0 .#
b0 d"
b0 +
b0 6
#320000
0(
#330000
0c"
1'
1|"
b0 z"
1}"
b0 {"
b11111111111111111111111111111111 "#
0s"
b1111111 o"
b1111111 q"
0v"
b0 t"
b1010 &
b1010 :
b11111111 %
b11111111 e
b111110110101 2#
1D
b1101 N#
b11110111100 G#
b111110110101 F#
b111 H#
b111110101000100 I#
b1101 %"
b10 !"
b100010 w
b111 {
b111 |
b11001 v
b111 }
b1100100 z
b1100 `
b1101 X
b11001 s
b11001 r
b10001 -
1(
#331000
b11 T#
b11 /
#340000
b1010 k"
0l
1m
1n"
06#
17#
b10 F
b10 f
b10 f"
b10 *#
b10100 @
b10100 g
b10100 ,#
b10100 9
b10100 h
b10100 .#
b10100 d"
b10010100 +
b10010100 6
0(
#350000
b10010010 >
b10010010 <#
1$#
0'
b0 z"
b1 {"
1|"
1}"
1v"
b1010 t"
b11111111111111111111111111111111 "#
b0 &
b0 :
b11110111 %
b11110111 e
b1110 X
b1101 `
b1110 %"
b0 !"
b11 t
b100 n
b1110 N#
b11 C#
b100 @#
0D
b10010 -
1(
#351000
b0 k"
1l
0m
0n"
16#
07#
b0 F
b0 f
b0 f"
b0 *#
b0 @
b0 g
b0 ,#
b0 9
b0 h
b0 .#
b0 d"
b0 +
b0 6
#360000
b1010 k"
0l
1k
1m"
06#
15#
b11 F
b11 f
b11 f"
b11 *#
b10100 @
b10100 g
b10100 ,#
b10100 9
b10100 h
b10100 .#
b10100 d"
b11010100 +
b11010100 6
0(
#370000
1c"
b1 z"
1|"
1}"
b1 {"
1s"
b1010 o"
b1010 q"
b11111111111111111111111111111111 "#
1v"
b1010 t"
b1111 N#
b100 J#
b1111 %"
b1 !"
b100 ~
b1110 `
b1111 X
b10011 -
1(
#371000
b0 k"
1l
0k
0m"
16#
05#
b0 F
b0 f
b0 f"
b0 *#
b0 @
b0 g
b0 ,#
b0 9
b0 h
b0 .#
b0 d"
b0 +
b0 6
#380000
0(
#390000
0c"
1'
b111110101000 2#
1|"
b0 z"
1}"
b0 {"
b11111111111111111111111111111111 "#
0s"
b1111111 o"
b1111111 q"
0v"
b0 t"
b1010 &
b1010 :
b11111111 %
b11111111 e
b10000 X
b1111 `
b10000 %"
b10 !"
b11111 w
b1000 {
b1000 |
b1100 v
b0 }
b0 z
b10000 N#
b100010111011 G#
b111110101000 F#
b0 H#
b111110011100000 I#
1D
b1100 s
b1100 r
b10100 -
1(
#391000
b100 T#
b100 /
#400000
b1010 k"
0l
1m
1n"
06#
17#
b10 F
b10 f
b10 f"
b10 *#
b10100 @
b10100 g
b10100 ,#
b10100 9
b10100 h
b10100 .#
b10100 d"
b10010100 +
b10010100 6
0(
#410000
0'
b0 z"
b1 {"
1|"
1}"
1v"
b1010 t"
b11111111111111111111111111111111 "#
b0 &
b0 :
b11110111 %
b11110111 e
0D
b10001 N#
b100 C#
b101 @#
b10001 %"
b0 !"
b100 t
b101 n
b10000 `
b10001 X
b10101 -
1(
#411000
b0 k"
1l
0m
0n"
16#
07#
b0 F
b0 f
b0 f"
b0 *#
b0 @
b0 g
b0 ,#
b0 9
b0 h
b0 .#
b0 d"
b0 +
b0 6
#420000
b1010 k"
0l
1k
1m"
06#
15#
b11 F
b11 f
b11 f"
b11 *#
b10100 @
b10100 g
b10100 ,#
b10100 9
b10100 h
b10100 .#
b10100 d"
b11010100 +
b11010100 6
0(
#430000
1c"
b1 z"
1|"
1}"
b1 {"
1s"
b1010 o"
b1010 q"
b11111111111111111111111111111111 "#
1v"
b1010 t"
b10010 X
b10001 `
b10010 %"
b1 !"
b101 ~
b10010 N#
b101 J#
b10110 -
1(
#431000
b0 k"
1l
0k
0m"
16#
05#
b0 F
b0 f
b0 f"
b0 *#
b0 @
b0 g
b0 ,#
b0 9
b0 h
b0 .#
b0 d"
b0 +
b0 6
#440000
0(
#450000
0c"
1'
1|"
b0 z"
1}"
b0 {"
b11111111111111111111111111111111 "#
0s"
b1111111 o"
b1111111 q"
0v"
b0 t"
b1010 &
b1010 :
b11111111 %
b11111111 e
b111110011100 2#
1D
b10011 N#
b100110011000 G#
b111110011100 F#
b1 H#
b10011 %"
b10 !"
b11011 w
b1001 {
b1001 |
b0 v
b1 }
b10010 `
b10011 X
b0 s
b0 r
b10111 -
1(
#451000
b101 T#
b101 /
#460000
b1010 k"
0l
1m
1n"
06#
17#
b10 F
b10 f
b10 f"
b10 *#
b10100 @
b10100 g
b10100 ,#
b10100 9
b10100 h
b10100 .#
b10100 d"
b10010100 +
b10010100 6
0(
#470000
0'
b0 z"
b1 {"
1|"
1}"
1v"
b1010 t"
b11111111111111111111111111111111 "#
b0 &
b0 :
b11110111 %
b11110111 e
b10100 X
b10011 `
b10100 %"
b0 !"
b101 t
b110 n
b10100 N#
b101 C#
b110 @#
0D
b11000 -
1(
#471000
b0 k"
1l
0m
0n"
16#
07#
b0 F
b0 f
b0 f"
b0 *#
b0 @
b0 g
b0 ,#
b0 9
b0 h
b0 .#
b0 d"
b0 +
b0 6
#480000
b1010 k"
0l
1k
1m"
06#
15#
b11 F
b11 f
b11 f"
b11 *#
b10100 @
b10100 g
b10100 ,#
b10100 9
b10100 h
b10100 .#
b10100 d"
b11010100 +
b11010100 6
0(
#490000
b10000010 >
b10000010 <#
0$#
1c"
b1 z"
1|"
1}"
b1 {"
1s"
b1010 o"
b1010 q"
b11111111111111111111111111111111 "#
1v"
b1010 t"
b10101 N#
b110 J#
b10101 %"
b1 !"
b110 ~
b10100 `
b10101 X
b11001 -
1(
#491000
b0 k"
1l
0k
0m"
16#
05#
b0 F
b0 f
b0 f"
b0 *#
b0 @
b0 g
b0 ,#
b0 9
b0 h
b0 .#
b0 d"
b0 +
b0 6
#500000
0(
#510000
0c"
1'
1|"
b0 z"
1}"
b0 {"
b11111111111111111111111111111111 "#
0s"
b1111111 o"
b1111111 q"
0v"
b0 t"
b1010 &
b1010 :
b11111111 %
b11111111 e
b10110 X
b10101 `
b10110 %"
b10 !"
b10111 w
b1010 {
b1010 |
b10 }
b10110 N#
b101001011000 G#
b10 H#
1D
b11010 -
1(
#511000
b110 T#
b110 /
#520000
b1010 k"
0l
1m
1n"
06#
17#
b10 F
b10 f
b10 f"
b10 *#
b10100 @
b10100 g
b10100 ,#
b10100 9
b10100 h
b10100 .#
b10100 d"
b10010100 +
b10010100 6
0(
#530000
0'
b0 z"
b1 {"
1|"
1}"
1v"
b1010 t"
b11111111111111111111111111111111 "#
b0 &
b0 :
b11110111 %
b11110111 e
0D
b10111 N#
b110 C#
b111 @#
b10111 %"
b0 !"
b110 t
b111 n
b10110 `
b10111 X
b11011 -
1(
#531000
b0 k"
1l
0m
0n"
16#
07#
b0 F
b0 f
b0 f"
b0 *#
b0 @
b0 g
b0 ,#
b0 9
b0 h
b0 .#
b0 d"
b0 +
b0 6
#540000
b1010 k"
0l
1k
1m"
06#
15#
b11 F
b11 f
b11 f"
b11 *#
b10100 @
b10100 g
b10100 ,#
b10100 9
b10100 h
b10100 .#
b10100 d"
b11010100 +
b11010100 6
0(
