cb.vcd
$date
	Thu Feb 19 20:51:35 2026
$end
$version
	Icarus Verilog
$end
$timescale
	1ps
$end
$scope module tb_cb $end
$var wire 1 ! cb_active_int $end
$var wire 9 " cb_cdown_int [8:0] $end
$var wire 2 # cb_state_int [1:0] $end
$var wire 8 $ uio_oe [7:0] $end
$var wire 8 % uo_out [7:0] $end
$var wire 8 & uio_out [7:0] $end
$var wire 1 ' match_valid $end
$var reg 1 ( clk $end
$var reg 1 ) ena $end
$var reg 1 * rst_n $end
$var reg 8 + ui_in [7:0] $end
$var reg 8 , uio_in [7:0] $end
$var integer 32 - cyc [31:0] $end
$var integer 32 . fail_count [31:0] $end
$var integer 32 / match_cnt [31:0] $end
$var integer 32 0 matches_normal [31:0] $end
$var integer 32 1 matches_throttled [31:0] $end
$var integer 32 2 pass_count [31:0] $end
$scope module dut $end
$var wire 1 3 cb_load_final $end
$var wire 1 ( clk $end
$var wire 1 4 comb_alert $end
$var wire 1 5 config_strobe $end
$var wire 1 ) ena $end
$var wire 1 * rst_n $end
$var wire 1 6 uart_trigger $end
$var wire 8 7 ui_in [7:0] $end
$var wire 8 8 uio_in [7:0] $end
$var wire 8 9 uio_oe [7:0] $end
$var wire 12 : vol_data [11:0] $end
$var wire 8 ; uio_out [7:0] $end
$var wire 8 < uart_payload [7:0] $end
$var wire 3 = rule_alert_type [2:0] $end
$var wire 3 > rule_alert_priority [2:0] $end
$var wire 8 ? rule_alert_bitmap [7:0] $end
$var wire 1 @ rule_alert_any $end
$var wire 12 A price_data [11:0] $end
$var wire 1 B ml_valid $end
$var wire 8 C ml_confidence [7:0] $end
$var wire 3 D ml_class [2:0] $end
$var wire 1 E match_valid $end
$var wire 8 F match_price [7:0] $end
$var wire 2 G input_type [1:0] $end
$var wire 128 H features [127:0] $end
$var wire 1 I feature_valid $end
$var wire 3 J comb_type [2:0] $end
$var wire 3 K comb_priority [2:0] $end
$var wire 2 L cb_state [1:0] $end
$var wire 8 M cb_param_final [7:0] $end
$var wire 2 N cb_mode_final [1:0] $end
$var wire 1 O cb_active $end
$var wire 2 P cascade_type [1:0] $end
$var wire 8 Q cascade_cb_param [7:0] $end
$var wire 1 R cascade_cb_load $end
$var wire 1 S cascade_alert $end
$var wire 1 T _unused $end
$var wire 12 U SPIKE_THRESH [11:0] $end
$var wire 12 V FLASH_THRESH [11:0] $end
$var parameter 32 W BAUD_DIV $end
$var parameter 32 X CLK_HZ $end
$var parameter 32 Y HB_DIV $end
$var reg 1 Z cb_load_r $end
$var reg 2 [ cb_mode_cmd [1:0] $end
$var reg 2 \ cb_mode_next [1:0] $end
$var reg 8 ] cb_param_cmd [7:0] $end
$var reg 8 ^ cb_param_next [7:0] $end
$var reg 25 _ hb_cnt [24:0] $end
$var reg 1 ` hb_led $end
$var reg 1 a ml_anomaly_held $end
$var reg 3 b ml_class_held [2:0] $end
$var reg 8 c ml_conf_held [7:0] $end
$var reg 3 d ml_prio_held [2:0] $end
$var reg 1 e ml_valid_d $end
$var reg 1 f prev_alert_r $end
$var reg 2 g thresh_sel [1:0] $end
$var reg 10 h uart_bit_cnt [9:0] $end
$var reg 4 i uart_bits [3:0] $end
$var reg 1 j uart_busy $end
$var reg 10 k uart_shift [9:0] $end
$var reg 1 l uart_tx $end
$var reg 8 m uo_out [7:0] $end
$scope module u_cascade $end
$var wire 1 n cascade_fire $end
$var wire 1 ( clk $end
$var wire 1 o event_any $end
$var wire 1 p is_spike_crash $end
$var wire 1 q is_stuff_crash $end
$var wire 1 r is_triple $end
$var wire 1 s is_vol_crash $end
$var wire 1 t ml_evt $end
$var wire 1 u new_is_flash $end
$var wire 1 * rst_n $end
$var wire 1 v rule_evt $end
$var wire 1 w test_flush $end
$var wire 3 x rule_alert_type [2:0] $end
$var wire 1 @ rule_alert_any $end
$var wire 1 B ml_valid $end
$var wire 8 y ml_confidence [7:0] $end
$var wire 3 z ml_class [2:0] $end
$var wire 3 { h2_next [2:0] $end
$var wire 3 | h1_next [2:0] $end
$var wire 3 } h0_next [2:0] $end
$var wire 3 ~ event_code [2:0] $end
$var wire 9 !" conf_x2_wide [8:0] $end
$var wire 8 "" conf_x2_sat [7:0] $end
$var wire 2 #" cascade_type_next [1:0] $end
$var parameter 32 $" CASCADE_HOLD $end
$var parameter 32 %" CASCADE_WINDOW $end
$var parameter 2 &" CT_SPIKE_CRASH $end
$var parameter 2 '" CT_STUFF_CRASH $end
$var parameter 2 (" CT_TRIPLE $end
$var parameter 2 )" CT_VOL_CRASH $end
$var reg 7 *" age_cnt [6:0] $end
$var reg 1 S cascade_alert $end
$var reg 1 R cascade_cb_load $end
$var reg 8 +" cascade_cb_param [7:0] $end
$var reg 2 ," cascade_type [1:0] $end
$var reg 6 -" hold_cnt [5:0] $end
$upscope $end
$scope module u_feat_extractor $end
$var wire 1 ( clk $end
$var wire 2 ." input_type [1:0] $end
$var wire 12 /" price_data [11:0] $end
$var wire 1 * rst_n $end
$var wire 12 0" volume_data [11:0] $end
$var wire 1 E match_valid $end
$var wire 8 1" match_price [7:0] $end
$var wire 1 2" is_volume $end
$var wire 1 3" is_sell $end
$var wire 1 4" is_price $end
$var wire 1 5" is_buy $end
$var reg 8 6" buy_count [7:0] $end
$var reg 12 7" cur_price [11:0] $end
$var reg 12 8" cur_vol [11:0] $end
$var reg 1 I feature_valid $end
$var reg 128 9" features [127:0] $end
$var reg 12 :" local_avg [11:0] $end
$var reg 12 ;" local_delta [11:0] $end
$var reg 8 <" match_count [7:0] $end
$var reg 8 =" match_rate [7:0] $end
$var reg 12 >" price_avg [11:0] $end
$var reg 12 ?" price_mad [11:0] $end
$var reg 12 @" price_prev1 [11:0] $end
$var reg 12 A" price_prev2 [11:0] $end
$var reg 15 B" price_sum8 [14:0] $end
$var reg 6 C" ptr_l [5:0] $end
$var reg 5 D" ptr_m [4:0] $end
$var reg 3 E" ptr_s [2:0] $end
$var reg 8 F" sell_count [7:0] $end
$var reg 16 G" trade_timer [15:0] $end
$var reg 12 H" vol_avg [11:0] $end
$var reg 3 I" vol_ptr [2:0] $end
$var reg 15 J" vol_sum8 [14:0] $end
$var reg 8 K" window_cnt [7:0] $end
$var integer 32 L" i [31:0] $end
$scope function clip8 $end
$var reg 12 M" x [11:0] $end
$upscope $end
$scope function clip8_16 $end
$var reg 16 N" x [15:0] $end
$upscope $end
$scope function imbalance_byte $end
$var reg 8 O" buys [7:0] $end
$var reg 16 P" num [15:0] $end
$var reg 8 Q" sells [7:0] $end
$var reg 16 R" total [15:0] $end
$upscope $end
$scope function momentum_byte $end
$var reg 13 S" d1 [12:0] $end
$var reg 13 T" d2 [12:0] $end
$var reg 13 U" mom [12:0] $end
$var reg 12 V" p0 [11:0] $end
$var reg 12 W" p1 [11:0] $end
$var reg 12 X" p2 [11:0] $end
$upscope $end
$scope function price_delta $end
$var reg 12 Y" a [11:0] $end
$var reg 12 Z" b [11:0] $end
$var reg 12 [" d [11:0] $end
$upscope $end
$scope function spread_byte $end
$var reg 8 \" asks [7:0] $end
$var reg 8 ]" bids [7:0] $end
$upscope $end
$scope function vol_ratio_byte $end
$var reg 12 ^" avg [11:0] $end
$var reg 12 _" cur [11:0] $end
$var reg 20 `" num [19:0] $end
$upscope $end
$upscope $end
$scope module u_ml_engine $end
$var wire 1 ( clk $end
$var wire 1 I feature_valid $end
$var wire 128 a" features [127:0] $end
$var wire 1 * rst_n $end
$var reg 32 b" acc2_tmp [31:0] $end
$var reg 3 c" best_class [2:0] $end
$var reg 32 d" gap [31:0] $end
$var reg 32 e" max_logit [31:0] $end
$var reg 32 f" min_logit [31:0] $end
$var reg 3 g" ml_class [2:0] $end
$var reg 8 h" ml_confidence [7:0] $end
$var reg 8 i" ml_margin [7:0] $end
$var reg 1 B ml_valid $end
$var reg 1 j" s0_valid $end
$var reg 1 k" s1_valid $end
$var reg 1 l" s2_valid $end
$var reg 32 m" second_max_logit [31:0] $end
$var integer 32 n" h1 [31:0] $end
$var integer 32 o" h2 [31:0] $end
$var integer 32 p" i1 [31:0] $end
$var integer 32 q" j3 [31:0] $end
$var integer 32 r" k [31:0] $end
$var integer 32 s" o2 [31:0] $end
$scope function rom_b1 $end
$var reg 2 t" addr [1:0] $end
$upscope $end
$scope function rom_b2 $end
$var reg 3 u" addr [2:0] $end
$upscope $end
$scope function rom_w1 $end
$var reg 6 v" addr [5:0] $end
$upscope $end
$scope function rom_w2 $end
$var reg 5 w" addr [4:0] $end
$upscope $end
$scope begin unpack[0] $end
$var parameter 2 x" gi $end
$upscope $end
$scope begin unpack[1] $end
$var parameter 2 y" gi $end
$upscope $end
$scope begin unpack[2] $end
$var parameter 3 z" gi $end
$upscope $end
$scope begin unpack[3] $end
$var parameter 3 {" gi $end
$upscope $end
$scope begin unpack[4] $end
$var parameter 4 |" gi $end
$upscope $end
$scope begin unpack[5] $end
$var parameter 4 }" gi $end
$upscope $end
$scope begin unpack[6] $end
$var parameter 4 ~" gi $end
$upscope $end
$scope begin unpack[7] $end
$var parameter 4 !# gi $end
$upscope $end
$scope begin unpack[8] $end
$var parameter 5 "# gi $end
$upscope $end
$scope begin unpack[9] $end
$var parameter 5 ## gi $end
$upscope $end
$scope begin unpack[10] $end
$var parameter 5 $# gi $end
$upscope $end
$scope begin unpack[11] $end
$var parameter 5 %# gi $end
$upscope $end
$scope begin unpack[12] $end
$var parameter 5 &# gi $end
$upscope $end
$scope begin unpack[13] $end
$var parameter 5 '# gi $end
$upscope $end
$scope begin unpack[14] $end
$var parameter 5 (# gi $end
$upscope $end
$scope begin unpack[15] $end
$var parameter 5 )# gi $end
$upscope $end
$upscope $end
$scope module u_order_book $end
$var wire 1 3 cb_load $end
$var wire 2 *# cb_mode [1:0] $end
$var wire 8 +# cb_param [7:0] $end
$var wire 2 ,# cb_state [1:0] $end
$var wire 1 ( clk $end
$var wire 1 -# crossing $end
$var wire 6 .# data_in [5:0] $end
$var wire 6 /# ext_data [5:0] $end
$var wire 2 0# input_type [1:0] $end
$var wire 1 * rst_n $end
$var wire 4 1# throttle_div [3:0] $end
$var wire 1 2# throttle_allow $end
$var wire 3 3# spread_guard [2:0] $end
$var wire 1 4# order_gate $end
$var wire 7 5# new_price [6:0] $end
$var wire 1 6# match_gate $end
$var wire 1 7# is_sell $end
$var wire 1 8# is_buy $end
$var wire 7 9# cross_threshold [6:0] $end
$var wire 1 O cb_active $end
$var wire 3 :# active_guard [2:0] $end
$var reg 7 ;# best_ask [6:0] $end
$var reg 2 <# best_ask_idx [1:0] $end
$var reg 1 =# best_ask_valid $end
$var reg 7 ># best_bid [6:0] $end
$var reg 2 ?# best_bid_idx [1:0] $end
$var reg 1 @# best_bid_valid $end
$var reg 9 A# cb_countdown [8:0] $end
$var reg 2 B# cb_mode_r [1:0] $end
$var reg 8 C# cb_param_r [7:0] $end
$var reg 2 D# empty_ask_slot [1:0] $end
$var reg 2 E# empty_bid_slot [1:0] $end
$var reg 1 F# has_empty_ask $end
$var reg 1 G# has_empty_bid $end
$var reg 8 H# match_price [7:0] $end
$var reg 1 E match_valid $end
$var reg 4 I# throttle_cnt [3:0] $end
$var integer 32 J# i [31:0] $end
$upscope $end
$scope module u_rule_detector $end
$var wire 1 ( clk $end
$var wire 1 K# det_flash $end
$var wire 1 L# det_imbalance $end
$var wire 1 M# det_spread $end
$var wire 1 N# det_vol_dry $end
$var wire 1 O# det_vol_surge $end
$var wire 1 P# det_volatility $end
$var wire 12 Q# flash_thresh [11:0] $end
$var wire 2 R# input_type [1:0] $end
$var wire 8 S# match_price [7:0] $end
$var wire 1 E match_valid $end
$var wire 12 T# price_data [11:0] $end
$var wire 1 * rst_n $end
$var wire 12 U# spike_thresh [11:0] $end
$var wire 12 V# volume_data [11:0] $end
$var wire 13 W# vol_surge_thresh [12:0] $end
$var wire 12 X# vol_dry_thresh [11:0] $end
$var wire 12 Y# vol_deviation [11:0] $end
$var wire 12 Z# price_drop [11:0] $end
$var wire 12 [# price_delta [11:0] $end
$var wire 1 \# is_volume $end
$var wire 1 ]# is_sell $end
$var wire 1 ^# is_price $end
$var wire 1 _# is_buy $end
$var wire 1 `# det_velocity $end
$var wire 1 a# det_spike $end
$var wire 3 b# alert_type [2:0] $end
$var wire 3 c# alert_priority [2:0] $end
$var wire 8 d# alert_bitmap [7:0] $end
$var wire 1 @ alert_any $end
$var parameter 6 e# VELOCITY_THRESH $end
$var parameter 32 f# VOL_DRY_DIV $end
$var parameter 32 g# VOL_SURGE_MULT $end
$var reg 4 h# buy_order_count [3:0] $end
$var reg 12 i# current_price [11:0] $end
$var reg 12 j# current_volume [11:0] $end
$var reg 6 k# match_counter [5:0] $end
$var reg 6 l# match_rate [5:0] $end
$var reg 12 m# prev_price [11:0] $end
$var reg 12 n# price_avg [11:0] $end
$var reg 12 o# price_mad [11:0] $end
$var reg 3 p# price_ptr [2:0] $end
$var reg 15 q# price_sum [14:0] $end
$var reg 4 r# sell_order_count [3:0] $end
$var reg 12 s# vol_avg [11:0] $end
$var reg 3 t# vol_ptr [2:0] $end
$var reg 15 u# vol_sum [14:0] $end
$var reg 8 v# window_timer [7:0] $end
$var integer 32 w# i [31:0] $end
$upscope $end
$upscope $end
$scope begin deep_cross $end
$var integer 32 x# dc [31:0] $end
$upscope $end
$scope task check $end
$var reg 1 y# cond $end
$var reg 256 z# lbl [255:0] $end
$upscope $end
$scope task count_matches_pairs $end
$var reg 6 {# p [5:0] $end
$var integer 32 |# i [31:0] $end
$var integer 32 }# n [31:0] $end
$upscope $end
$scope task inject_ml $end
$var reg 3 ~# cls [2:0] $end
$var reg 8 !$ conf [7:0] $end
$upscope $end
$upscope $end
$enddefinitions $end
$comment Show the parameter values. $end
$dumpall
b10 g#
b100 f#
b11110 e#
b1111 )#
b1110 (#
b1101 '#
b1100 &#
b1011 %#
b1010 $#
b1001 ##
b1000 "#
b111 !#
b110 ~"
b101 }"
b100 |"
b11 {"
b10 z"
b1 y"
b0 x"
b0 )"
b11 ("
b10 '"
b1 &"
b1000000 %"
b100000 $"
b1011111010111100001000000 Y
b10111110101111000010000000 X
b110110010 W
$end
#0
$dumpvars
bx !$
bx ~#
bx }#
bx |#
bx {#
bx z#
xy#
bx x#
bx w#
bx v#
bx u#
bx t#
bx s#
bx r#
bx q#
bx p#
bx o#
bx n#
bx m#
bx l#
bx k#
bx j#
bx i#
bx h#
bx d#
bx c#
bx b#
xa#
x`#
0_#
1^#
0]#
0\#
bx [#
bx Z#
bx Y#
b0xxxxxxxx X#
bx00 W#
b0 V#
b0xxxxxx U#
b0 T#
bx S#
b0 R#
b0xxxxx0 Q#
xP#
xO#
xN#
xM#
xL#
xK#
bx J#
bx I#
bx H#
xG#
xF#
bx E#
bx D#
bx C#
bx B#
bx A#
x@#
bx ?#
bx >#
x=#
bx <#
bx ;#
bx :#
bx 9#
08#
07#
x6#
b0 5#
x4#
bx 3#
x2#
bx 1#
b0 0#
b0 /#
b0 .#
x-#
bx ,#
bx +#
bx *#
bx w"
bx v"
bx u"
bx t"
bx s"
bx r"
bx q"
bx p"
bx o"
bx n"
bx m"
xl"
xk"
xj"
bx i"
bx h"
bx g"
bx f"
bx e"
bx d"
bx c"
bx b"
bx a"
bx `"
bx _"
bx ^"
bx ]"
bx \"
bx ["
bx Z"
bx Y"
bx X"
bx W"
bx V"
bx U"
bx T"
bx S"
bx R"
bx Q"
bx P"
bx O"
bx N"
bx M"
bx L"
bx K"
bx J"
bx I"
bx H"
bx G"
bx F"
bx E"
bx D"
bx C"
bx B"
bx A"
bx @"
bx ?"
bx >"
bx ="
bx <"
bx ;"
bx :"
bx 9"
bx 8"
bx 7"
bx 6"
05"
14"
03"
02"
bx 1"
b0 0"
b0 /"
b0 ."
bx -"
bx ,"
bx +"
bx *"
bx #"
bx ""
bx0 !"
bx ~
bx }
bx |
bx {
bx z
bx y
bx x
0w
xv
xu
xt
xs
xr
xq
xp
xo
xn
bx m
xl
bx k
xj
bx i
bx h
bx g
xf
xe
bx d
bx c
bx b
xa
x`
bx _
bx ^
bx ]
bx \
bx [
xZ
b0xxxxx0 V
b0xxxxxx U
0T
xS
xR
bx Q
bx P
xO
bx N
bx M
bx L
bx K
bx J
xI
bx H
b0 G
bx F
xE
bx D
bx C
xB
b0 A
x@
bx ?
bx >
bx =
bx <
bx ;
b0 :
b11111111 9
b0 8
b0 7
x6
05
x4
x3
b0 2
bx 1
bx 0
bx /
b0 .
b0 -
b0 ,
b0 +
0*
1)
0(
x'
bx &
bx %
b11111111 $
bx #
bx "
x!
$end
#10000
0u
b1 }
b1 K
b1 ~
b1 J
16
b1 >
b1 c#
b1 =
b1 x
b1 b#
0n
b0 #"
14
0r
0P#
1o
b0 ""
0-#
b0 Y#
0K#
0M#
0L#
0O#
1v
1@
1N#
0s
0p
0q
0'
b0 1#
b0 3#
14#
16#
b1111111 9#
b0 :#
1F#
b0 D#
1G#
b0 E#
b0 <#
0=#
b1111111 ;#
b0 ?#
0@#
b0 >#
0a#
b0 [#
b0 Z#
b110010000 W#
b110 X#
b0 !"
b0 ^
b0 \
0t
b0 {
b0 |
b10100 U
b10100 U#
b101000 V
b101000 Q#
03
b0 M
b0 +#
b0 N
b0 *#
b100100 <
b0 &
b0 ;
b10010001 %
b10010001 m
12#
b0 I#
b0 C#
b0 "
b0 A#
0!
0O
b0 L
b0 ,#
b0 #
b0 B#
b0 F
b0 1"
b0 H#
b0 S#
0E
b101 o#
b0 j#
b1100100 m#
b1100100 i#
b0 r#
b0 h#
b10 ?
b10 d#
0`#
b0 l#
b0 v#
b0 k#
b1100100 s#
b1100100 n#
b0 u#
b0 q#
b0 t#
b0 p#
0I
b0 ="
b0 K"
b0 G"
b0 <"
b0 F"
b0 6"
b1100100 A"
b1100100 @"
b1100100 7"
b1100100 8"
b1100100 H"
b1100100000 J"
b101 ?"
b1100100 >"
b1100100000 B"
b0 I"
b0 C"
b0 D"
b0 E"
0j"
0k"
0l"
b0 i"
b0 C
b0 y
b0 h"
b0 D
b0 z
b0 g"
0B
b0 -"
b0 Q
b0 +"
0R
b0 P
b0 ,"
0S
b0 *"
b1 g
0Z
0e
b0 ]
b0 [
b0 d
0a
b0 c
b0 b
0f
b0 i
b0 h
b1111111111 k
1l
0j
0`
b0 _
b11111111111111111111111111111111 J#
b1000 w#
b1000 L"
b10000 r"
b1 -
1(
#20000
0(
#30000
b110 r"
b1000 L"
b1000 w#
b100 J#
b10 -
1(
#40000
0(
#50000
b100 J#
b1000 w#
b1000 L"
b10000 r"
b11 -
1(
#60000
0(
#70000
b110 r"
b1000 L"
b1000 w#
b100 J#
b100 -
1(
#80000
0(
#90000
b110 }
b11100110 %
b11100110 m
b110 K
b110 ~
b11011000 <
b110 J
b110 >
b110 c#
b110 =
b110 x
b110 b#
1P#
06
b1010100 Y#
b1000011 ?
b1000011 d#
1a#
b1100100 [#
b1 |
b1 v#
b10000 o#
b0 n#
b1 p#
b111111110011100 q#
b0 i#
b1 K"
b1 G"
b10000 ?"
b1 C"
b1 D"
b1 E"
b1010111100 B"
b0 7"
1f
0l
1j
b1001001000 k
b1 _
b1100100 ;"
b1100100 :"
b101 -
1*
1(
#100000
0(
#110000
b111 }
b11110111 %
b11110111 m
b111 K
b111 ~
b11111100 <
b111 J
b111 >
b111 c#
b111 =
b111 x
b111 b#
0P#
1K#
b110 |
b1 {
b0 Y#
b111111110011 Z#
b10000010 ?
b10000010 d#
0a#
b0 [#
b10 _
b1 h
b10 K"
b10 G"
b11000 ?"
b10 C"
b10 D"
b1010111 >"
b10 E"
b1001011000 B"
b0 @"
b10 v#
b1110 o#
b111111110011 n#
b10 p#
b111111100111000 q#
b0 m#
b1010111 ;"
b1010111 :"
b110 -
1(
#120000
0(
#130000
b111111100111 Z#
b111 |
b110 {
b11 v#
b1000001010 o#
b111111100111 n#
b11 p#
b111111011010100 q#
b11 K"
b11 G"
b11110 ?"
b11 C"
b11 D"
b1001011 >"
b11 E"
b111110100 B"
b0 A"
b10 h
b11 _
b1001011 ;"
b1001011 :"
b111 -
1(
#140000
0(
#150000
b111 {
b111111011010 Z#
b100 _
b11 h
b100 K"
b100 G"
b100010 ?"
b100 C"
b100 D"
b111110 >"
b100 E"
b110010000 B"
b100 v#
b1111000101 o#
b111111011010 n#
b100 p#
b111111001110000 q#
b111110 ;"
b111110 :"
b1000 -
1(
#151000
b0 |#
b0 /
b10100 {#
b1010 }#
#160000
b1010 5#
04"
15"
18#
0^#
1_#
b10 G
b10 ."
b10 0#
b10 R#
b10100 A
b10100 /"
b10100 T#
b10100 :
b10100 0"
b10100 V#
b10100 .#
b10010100 +
b10010100 7
0(
#170000
b0 D#
b1 E#
1F#
1G#
1@#
b1010 >#
b11111111111111111111111111111111 J#
b101 v#
b1 h#
b101 K"
b101 G"
b1 6"
b100 h
b101 _
b1001 -
1(
#171000
b0 5#
14"
05"
08#
1^#
0_#
b0 G
b0 ."
b0 0#
b0 R#
b0 A
b0 /"
b0 T#
b0 :
b0 0"
b0 V#
b0 .#
b0 +
b0 7
#180000
b1010 5#
04"
13"
17#
0^#
1]#
b11 G
b11 ."
b11 0#
b11 R#
b10100 A
b10100 /"
b10100 T#
b10100 :
b10100 0"
b10100 V#
b10100 .#
b11010100 +
b11010100 7
0(
#190000
1-#
b1 D#
1F#
1G#
b1 E#
1=#
b1010 9#
b1010 ;#
b11111111111111111111111111111111 J#
1@#
b1010 >#
b110 _
b101 h
b110 K"
b110 G"
b1 F"
b110 v#
b1 r#
b1010 -
1(
#191000
b0 5#
14"
03"
07#
1^#
0]#
b0 G
b0 ."
b0 0#
b0 R#
b0 A
b0 /"
b0 T#
b0 :
b0 0"
b0 V#
b0 .#
b0 +
b0 7
#200000
0(
#210000
0-#
1'
1F#
b0 D#
1G#
b0 E#
b11111111111111111111111111111111 J#
0=#
b1111111 9#
b1111111 ;#
0@#
b0 >#
b1010 &
b1010 ;
b11111111 %
b11111111 m
b111111001110 Z#
b1010 F
b1010 1"
b1010 H#
b1010 S#
1E
b111 v#
b10101000111 o#
b111111001110 n#
b101 p#
b111111000001100 q#
b111 K"
b111 G"
b100100 ?"
b101 C"
b101 D"
b110010 >"
b101 E"
b100101100 B"
b110 h
b111 _
b110010 ;"
b110010 :"
b1011 -
1(
#211000
b1 |#
b1 /
#220000
b1010 5#
04"
15"
18#
0^#
1_#
b10 G
b10 ."
b10 0#
b10 R#
b10100 A
b10100 /"
b10100 T#
b10100 :
b10100 0"
b10100 V#
b10100 .#
b10010100 +
b10010100 7
0(
#230000
0'
b0 D#
b1 E#
1F#
1G#
1@#
b1010 >#
b11111111111111111111111111111111 J#
b0 &
b0 ;
b11110111 %
b11110111 m
b1000 _
b111 h
b1000 K"
b0 G"
b1 <"
b10 6"
b1000 v#
b1 k#
b10 h#
0E
b1100 -
1(
#231000
b0 5#
14"
05"
08#
1^#
0_#
b0 G
b0 ."
b0 0#
b0 R#
b0 A
b0 /"
b0 T#
b0 :
b0 0"
b0 V#
b0 .#
b0 +
b0 7
#240000
b1010 5#
04"
13"
17#
0^#
1]#
b11 G
b11 ."
b11 0#
b11 R#
b10100 A
b10100 /"
b10100 T#
b10100 :
b10100 0"
b10100 V#
b10100 .#
b11010100 +
b11010100 7
0(
#250000
1-#
b1 D#
1F#
1G#
b1 E#
1=#
b1010 9#
b1010 ;#
b11111111111111111111111111111111 J#
1@#
b1010 >#
b1001 v#
b10 r#
b1001 K"
b1 G"
b10 F"
b1000 h
b1001 _
b1101 -
1(
#251000
b0 5#
14"
03"
07#
1^#
0]#
b0 G
b0 ."
b0 0#
b0 R#
b0 A
b0 /"
b0 T#
b0 :
b0 0"
b0 V#
b0 .#
b0 +
b0 7
#260000
0(
#270000
0-#
1'
b111111000001 Z#
1F#
b0 D#
1G#
b0 E#
b11111111111111111111111111111111 J#
0=#
b1111111 9#
b1111111 ;#
0@#
b0 >#
b1010 &
b1010 ;
b11111111 %
b11111111 m
b1010 _
b1001 h
b1010 K"
b10 G"
b110 C"
b110 D"
b100101 >"
b110 E"
b11001000 B"
b1010 v#
b11010010111 o#
b111111000001 n#
b110 p#
b111110110101000 q#
1E
b100101 ;"
b100101 :"
b1110 -
1(
#271000
b10 |#
b10 /
#280000
b1010 5#
04"
15"
18#
0^#
1_#
b10 G
b10 ."
b10 0#
b10 R#
b10100 A
b10100 /"
b10100 T#
b10100 :
b10100 0"
b10100 V#
b10100 .#
b10010100 +
b10010100 7
0(
#290000
0'
b0 D#
b1 E#
1F#
1G#
1@#
b1010 >#
b11111111111111111111111111111111 J#
b0 &
b0 ;
b11110111 %
b11110111 m
0E
b1011 v#
b10 k#
b11 h#
b1011 K"
b0 G"
b10 <"
b11 6"
b1010 h
b1011 _
b1111 -
1(
#291000
b0 5#
14"
05"
08#
1^#
0_#
b0 G
b0 ."
b0 0#
b0 R#
b0 A
b0 /"
b0 T#
b0 :
b0 0"
b0 V#
b0 .#
b0 +
b0 7
#300000
b1010 5#
04"
13"
17#
0^#
1]#
b11 G
b11 ."
b11 0#
b11 R#
b10100 A
b10100 /"
b10100 T#
b10100 :
b10100 0"
b10100 V#
b10100 .#
b11010100 +
b11010100 7
0(
#310000
1-#
b1 D#
1F#
1G#
b1 E#
1=#
b1010 9#
b1010 ;#
b11111111111111111111111111111111 J#
1@#
b1010 >#
b1100 _
b1011 h
b1100 K"
b1 G"
b11 F"
b1100 v#
b11 r#
b10000 -
1(
#311000
b0 5#
14"
03"
07#
1^#
0]#
b0 G
b0 ."
b0 0#
b0 R#
b0 A
b0 /"
b0 T#
b0 :
b0 0"
b0 V#
b0 .#
b0 +
b0 7
#320000
0(
#330000
0-#
1'
1F#
b0 D#
1G#
b0 E#
b11111111111111111111111111111111 J#
0=#
b1111111 9#
b1111111 ;#
0@#
b0 >#
b1010 &
b1010 ;
b11111111 %
b11111111 m
b111110110101 Z#
1E
b1101 v#
b11110111100 o#
b111110110101 n#
b111 p#
b111110101000100 q#
b1101 K"
b10 G"
b100010 ?"
b111 C"
b111 D"
b11001 >"
b111 E"
b1100100 B"
b1100 h
b1101 _
b11001 ;"
b11001 :"
b10001 -
1(
#331000
b11 |#
b11 /
#340000
b1010 5#
04"
15"
18#
0^#
1_#
b10 G
b10 ."
b10 0#
b10 R#
b10100 A
b10100 /"
b10100 T#
b10100 :
b10100 0"
b10100 V#
b10100 .#
b10010100 +
b10010100 7
0(
#350000
b10010010 ?
b10010010 d#
1L#
0'
b0 D#
b1 E#
1F#
1G#
1@#
b1010 >#
b11111111111111111111111111111111 J#
b0 &
b0 ;
b11110111 %
b11110111 m
b1110 _
b1101 h
b1110 K"
b0 G"
b11 <"
b100 6"
b1110 v#
b11 k#
b100 h#
0E
b10010 -
1(
#351000
b0 5#
14"
05"
08#
1^#
0_#
b0 G
b0 ."
b0 0#
b0 R#
b0 A
b0 /"
b0 T#
b0 :
b0 0"
b0 V#
b0 .#
b0 +
b0 7
#360000
b1010 5#
04"
13"
17#
0^#
1]#
b11 G
b11 ."
b11 0#
b11 R#
b10100 A
b10100 /"
b10100 T#
b10100 :
b10100 0"
b10100 V#
b10100 .#
b11010100 +
b11010100 7
0(
#370000
1-#
b1 D#
1F#
1G#
b1 E#
1=#
b1010 9#
b1010 ;#
b11111111111111111111111111111111 J#
1@#
b1010 >#
b1111 v#
b100 r#
b1111 K"
b1 G"
b100 F"
b1110 h
b1111 _
b10011 -
1(
#371000
b0 5#
14"
03"
07#
1^#
0]#
b0 G
b0 ."
b0 0#
b0 R#
b0 A
b0 /"
b0 T#
b0 :
b0 0"
b0 V#
b0 .#
b0 +
b0 7
#380000
0(
#390000
0-#
1'
b111110101000 Z#
1F#
b0 D#
1G#
b0 E#
b11111111111111111111111111111111 J#
0=#
b1111111 9#
b1111111 ;#
0@#
b0 >#
b1010 &
b1010 ;
b11111111 %
b11111111 m
b10000 _
b1111 h
b10000 K"
b10 G"
b11111 ?"
b1000 C"
b1000 D"
b1100 >"
b0 E"
b0 B"
b10000 v#
b100010111011 o#
b111110101000 n#
b0 p#
b111110011100000 q#
1E
b1100 ;"
b1100 :"
b10100 -
1(
#391000
b100 |#
b100 /
#400000
b1010 5#
04"
15"
18#
0^#
1_#
b10 G
b10 ."
b10 0#
b10 R#
b10100 A
b10100 /"
b10100 T#
b10100 :
b10100 0"
b10100 V#
b10100 .#
b10010100 +
b10010100 7
0(
#410000
0'
b0 D#
b1 E#
1F#
1G#
1@#
b1010 >#
b11111111111111111111111111111111 J#
b0 &
b0 ;
b11110111 %
b11110111 m
0E
b10001 v#
b100 k#
b101 h#
b10001 K"
b0 G"
b100 <"
b101 6"
b10000 h
b10001 _
b10101 -
1(
#411000
b0 5#
14"
05"
08#
1^#
0_#
b0 G
b0 ."
b0 0#
b0 R#
b0 A
b0 /"
b0 T#
b0 :
b0 0"
b0 V#
b0 .#
b0 +
b0 7
#420000
b1010 5#
04"
13"
17#
0^#
1]#
b11 G
b11 ."
b11 0#
b11 R#
b10100 A
b10100 /"
b10100 T#
b10100 :
b10100 0"
b10100 V#
b10100 .#
b11010100 +
b11010100 7
0(
#430000
1-#
b1 D#
1F#
1G#
b1 E#
1=#
b1010 9#
b1010 ;#
b11111111111111111111111111111111 J#
1@#
b1010 >#
b10010 _
b10001 h
b10010 K"
b1 G"
b101 F"
b10010 v#
b101 r#
b10110 -
1(
#431000
b0 5#
14"
03"
07#
1^#
0]#
b0 G
b0 ."
b0 0#
b0 R#
b0 A
b0 /"
b0 T#
b0 :
b0 0"
b0 V#
b0 .#
b0 +
b0 7
#440000
0(
