covid_crash_enhanced.vcd
$date
	Thu Feb 19 21:52:12 2026
$end
$version
	Icarus Verilog
$end
$timescale
	1ps
$end
$scope module tb_covid_crash_enhanced $end
$var wire 1 ! order_throttled $end
$var wire 8 " uio_oe [7:0] $end
$var wire 8 # uo_out [7:0] $end
$var wire 8 $ uio_out [7:0] $end
$var wire 4 % min_spread [3:0] $end
$var wire 1 & matching_enabled $end
$var wire 1 ' match_valid $end
$var wire 8 ( full_countdown [7:0] $end
$var wire 3 ) cb_type [2:0] $end
$var wire 4 * cb_countdown [3:0] $end
$var wire 1 + cb_active $end
$var wire 3 , alert_type [2:0] $end
$var wire 3 - alert_priority [2:0] $end
$var wire 1 . alert_flag $end
$var reg 1 / clk $end
$var reg 1 0 ena $end
$var reg 1 1 prev_alert $end
$var reg 1 2 prev_cb_active $end
$var reg 1 3 prev_matching_enabled $end
$var reg 1 4 rst_n $end
$var reg 8 5 ui_in [7:0] $end
$var reg 8 6 uio_in [7:0] $end
$var integer 32 7 alerts_fired [31:0] $end
$var integer 32 8 cycle_count [31:0] $end
$var integer 32 9 i [31:0] $end
$var integer 32 : intervention_start_cycle [31:0] $end
$var integer 32 ; interventions_fired [31:0] $end
$var integer 32 < matches_made [31:0] $end
$var integer 32 = total_cycles_halted [31:0] $end
$var integer 32 > total_cycles_throttled [31:0] $end
$scope module dut $end
$var wire 1 ? cb_load_final $end
$var wire 1 / clk $end
$var wire 1 @ comb_alert $end
$var wire 1 A config_strobe $end
$var wire 1 0 ena $end
$var wire 1 4 rst_n $end
$var wire 1 B uart_trigger $end
$var wire 8 C ui_in [7:0] $end
$var wire 8 D uio_in [7:0] $end
$var wire 8 E uio_oe [7:0] $end
$var wire 12 F vol_data [11:0] $end
$var wire 8 G uio_out [7:0] $end
$var wire 8 H uart_payload [7:0] $end
$var wire 3 I rule_alert_type [2:0] $end
$var wire 3 J rule_alert_priority [2:0] $end
$var wire 8 K rule_alert_bitmap [7:0] $end
$var wire 1 L rule_alert_any $end
$var wire 12 M price_data [11:0] $end
$var wire 1 N ml_valid $end
$var wire 8 O ml_confidence [7:0] $end
$var wire 3 P ml_class [2:0] $end
$var wire 1 Q match_valid $end
$var wire 8 R match_price [7:0] $end
$var wire 2 S input_type [1:0] $end
$var wire 128 T features [127:0] $end
$var wire 1 U feature_valid $end
$var wire 3 V comb_type [2:0] $end
$var wire 3 W comb_priority [2:0] $end
$var wire 2 X cb_state [1:0] $end
$var wire 8 Y cb_param_final [7:0] $end
$var wire 2 Z cb_mode_final [1:0] $end
$var wire 1 [ cb_active $end
$var wire 2 \ cascade_type [1:0] $end
$var wire 8 ] cascade_cb_param [7:0] $end
$var wire 1 ^ cascade_cb_load $end
$var wire 1 _ cascade_alert $end
$var wire 1 ` _unused $end
$var wire 12 a SPIKE_THRESH [11:0] $end
$var wire 12 b FLASH_THRESH [11:0] $end
$var parameter 32 c BAUD_DIV $end
$var parameter 32 d CLK_HZ $end
$var parameter 32 e HB_DIV $end
$var reg 1 f cb_load_r $end
$var reg 2 g cb_mode_cmd [1:0] $end
$var reg 2 h cb_mode_next [1:0] $end
$var reg 8 i cb_param_cmd [7:0] $end
$var reg 8 j cb_param_next [7:0] $end
$var reg 25 k hb_cnt [24:0] $end
$var reg 1 l hb_led $end
$var reg 1 m ml_anomaly_held $end
$var reg 3 n ml_class_held [2:0] $end
$var reg 8 o ml_conf_held [7:0] $end
$var reg 3 p ml_prio_held [2:0] $end
$var reg 1 q ml_valid_d $end
$var reg 1 r prev_alert_r $end
$var reg 2 s thresh_sel [1:0] $end
$var reg 10 t uart_bit_cnt [9:0] $end
$var reg 4 u uart_bits [3:0] $end
$var reg 1 v uart_busy $end
$var reg 10 w uart_shift [9:0] $end
$var reg 1 x uart_tx $end
$var reg 8 y uo_out [7:0] $end
$scope module u_cascade $end
$var wire 1 z cascade_fire $end
$var wire 1 / clk $end
$var wire 1 { event_any $end
$var wire 1 | is_spike_crash $end
$var wire 1 } is_stuff_crash $end
$var wire 1 ~ is_triple $end
$var wire 1 !" is_vol_crash $end
$var wire 1 "" ml_evt $end
$var wire 1 #" new_is_flash $end
$var wire 1 4 rst_n $end
$var wire 1 $" rule_evt $end
$var wire 1 %" test_flush $end
$var wire 3 &" rule_alert_type [2:0] $end
$var wire 1 L rule_alert_any $end
$var wire 1 N ml_valid $end
$var wire 8 '" ml_confidence [7:0] $end
$var wire 3 (" ml_class [2:0] $end
$var wire 3 )" h2_next [2:0] $end
$var wire 3 *" h1_next [2:0] $end
$var wire 3 +" h0_next [2:0] $end
$var wire 3 ," event_code [2:0] $end
$var wire 9 -" conf_x2_wide [8:0] $end
$var wire 8 ." conf_x2_sat [7:0] $end
$var wire 2 /" cascade_type_next [1:0] $end
$var parameter 32 0" CASCADE_HOLD $end
$var parameter 32 1" CASCADE_WINDOW $end
$var parameter 2 2" CT_SPIKE_CRASH $end
$var parameter 2 3" CT_STUFF_CRASH $end
$var parameter 2 4" CT_TRIPLE $end
$var parameter 2 5" CT_VOL_CRASH $end
$var reg 7 6" age_cnt [6:0] $end
$var reg 1 _ cascade_alert $end
$var reg 1 ^ cascade_cb_load $end
$var reg 8 7" cascade_cb_param [7:0] $end
$var reg 2 8" cascade_type [1:0] $end
$var reg 6 9" hold_cnt [5:0] $end
$upscope $end
$scope module u_feat_extractor $end
$var wire 1 / clk $end
$var wire 2 :" input_type [1:0] $end
$var wire 12 ;" price_data [11:0] $end
$var wire 1 4 rst_n $end
$var wire 12 <" volume_data [11:0] $end
$var wire 1 Q match_valid $end
$var wire 8 =" match_price [7:0] $end
$var wire 1 >" is_volume $end
$var wire 1 ?" is_sell $end
$var wire 1 @" is_price $end
$var wire 1 A" is_buy $end
$var reg 8 B" buy_count [7:0] $end
$var reg 12 C" cur_price [11:0] $end
$var reg 12 D" cur_vol [11:0] $end
$var reg 1 U feature_valid $end
$var reg 128 E" features [127:0] $end
$var reg 12 F" local_avg [11:0] $end
$var reg 12 G" local_delta [11:0] $end
$var reg 8 H" match_count [7:0] $end
$var reg 8 I" match_rate [7:0] $end
$var reg 12 J" price_avg [11:0] $end
$var reg 12 K" price_mad [11:0] $end
$var reg 12 L" price_prev1 [11:0] $end
$var reg 12 M" price_prev2 [11:0] $end
$var reg 15 N" price_sum8 [14:0] $end
$var reg 6 O" ptr_l [5:0] $end
$var reg 5 P" ptr_m [4:0] $end
$var reg 3 Q" ptr_s [2:0] $end
$var reg 8 R" sell_count [7:0] $end
$var reg 16 S" trade_timer [15:0] $end
$var reg 12 T" vol_avg [11:0] $end
$var reg 3 U" vol_ptr [2:0] $end
$var reg 15 V" vol_sum8 [14:0] $end
$var reg 8 W" window_cnt [7:0] $end
$var integer 32 X" i [31:0] $end
$scope function clip8 $end
$var reg 12 Y" x [11:0] $end
$upscope $end
$scope function clip8_16 $end
$var reg 16 Z" x [15:0] $end
$upscope $end
$scope function imbalance_byte $end
$var reg 8 [" buys [7:0] $end
$var reg 16 \" num [15:0] $end
$var reg 8 ]" sells [7:0] $end
$var reg 16 ^" total [15:0] $end
$upscope $end
$scope function momentum_byte $end
$var reg 13 _" d1 [12:0] $end
$var reg 13 `" d2 [12:0] $end
$var reg 13 a" mom [12:0] $end
$var reg 12 b" p0 [11:0] $end
$var reg 12 c" p1 [11:0] $end
$var reg 12 d" p2 [11:0] $end
$upscope $end
$scope function price_delta $end
$var reg 12 e" a [11:0] $end
$var reg 12 f" b [11:0] $end
$var reg 12 g" d [11:0] $end
$upscope $end
$scope function spread_byte $end
$var reg 8 h" asks [7:0] $end
$var reg 8 i" bids [7:0] $end
$upscope $end
$scope function vol_ratio_byte $end
$var reg 12 j" avg [11:0] $end
$var reg 12 k" cur [11:0] $end
$var reg 20 l" num [19:0] $end
$upscope $end
$upscope $end
$scope module u_ml_engine $end
$var wire 1 / clk $end
$var wire 1 U feature_valid $end
$var wire 128 m" features [127:0] $end
$var wire 1 4 rst_n $end
$var reg 32 n" acc2_tmp [31:0] $end
$var reg 3 o" best_class [2:0] $end
$var reg 32 p" gap [31:0] $end
$var reg 32 q" max_logit [31:0] $end
$var reg 32 r" min_logit [31:0] $end
$var reg 3 s" ml_class [2:0] $end
$var reg 8 t" ml_confidence [7:0] $end
$var reg 8 u" ml_margin [7:0] $end
$var reg 1 N ml_valid $end
$var reg 1 v" s0_valid $end
$var reg 1 w" s1_valid $end
$var reg 1 x" s2_valid $end
$var reg 32 y" second_max_logit [31:0] $end
$var integer 32 z" h1 [31:0] $end
$var integer 32 {" h2 [31:0] $end
$var integer 32 |" i1 [31:0] $end
$var integer 32 }" j3 [31:0] $end
$var integer 32 ~" k [31:0] $end
$var integer 32 !# o2 [31:0] $end
$scope function rom_b1 $end
$var reg 2 "# addr [1:0] $end
$upscope $end
$scope function rom_b2 $end
$var reg 3 ## addr [2:0] $end
$upscope $end
$scope function rom_w1 $end
$var reg 6 $# addr [5:0] $end
$upscope $end
$scope function rom_w2 $end
$var reg 5 %# addr [4:0] $end
$upscope $end
$scope begin unpack[0] $end
$var parameter 2 &# gi $end
$upscope $end
$scope begin unpack[1] $end
$var parameter 2 '# gi $end
$upscope $end
$scope begin unpack[2] $end
$var parameter 3 (# gi $end
$upscope $end
$scope begin unpack[3] $end
$var parameter 3 )# gi $end
$upscope $end
$scope begin unpack[4] $end
$var parameter 4 *# gi $end
$upscope $end
$scope begin unpack[5] $end
$var parameter 4 +# gi $end
$upscope $end
$scope begin unpack[6] $end
$var parameter 4 ,# gi $end
$upscope $end
$scope begin unpack[7] $end
$var parameter 4 -# gi $end
$upscope $end
$scope begin unpack[8] $end
$var parameter 5 .# gi $end
$upscope $end
$scope begin unpack[9] $end
$var parameter 5 /# gi $end
$upscope $end
$scope begin unpack[10] $end
$var parameter 5 0# gi $end
$upscope $end
$scope begin unpack[11] $end
$var parameter 5 1# gi $end
$upscope $end
$scope begin unpack[12] $end
$var parameter 5 2# gi $end
$upscope $end
$scope begin unpack[13] $end
$var parameter 5 3# gi $end
$upscope $end
$scope begin unpack[14] $end
$var parameter 5 4# gi $end
$upscope $end
$scope begin unpack[15] $end
$var parameter 5 5# gi $end
$upscope $end
$upscope $end
$scope module u_order_book $end
$var wire 1 ? cb_load $end
$var wire 2 6# cb_mode [1:0] $end
$var wire 8 7# cb_param [7:0] $end
$var wire 2 8# cb_state [1:0] $end
$var wire 1 / clk $end
$var wire 1 9# crossing $end
$var wire 6 :# data_in [5:0] $end
$var wire 6 ;# ext_data [5:0] $end
$var wire 2 <# input_type [1:0] $end
$var wire 1 4 rst_n $end
$var wire 4 =# throttle_div [3:0] $end
$var wire 1 ># throttle_allow $end
$var wire 3 ?# spread_guard [2:0] $end
$var wire 1 @# order_gate $end
$var wire 7 A# new_price [6:0] $end
$var wire 1 B# match_gate $end
$var wire 1 C# is_sell $end
$var wire 1 D# is_buy $end
$var wire 7 E# cross_threshold [6:0] $end
$var wire 1 [ cb_active $end
$var wire 3 F# active_guard [2:0] $end
$var reg 7 G# best_ask [6:0] $end
$var reg 2 H# best_ask_idx [1:0] $end
$var reg 1 I# best_ask_valid $end
$var reg 7 J# best_bid [6:0] $end
$var reg 2 K# best_bid_idx [1:0] $end
$var reg 1 L# best_bid_valid $end
$var reg 9 M# cb_countdown [8:0] $end
$var reg 2 N# cb_mode_r [1:0] $end
$var reg 8 O# cb_param_r [7:0] $end
$var reg 2 P# empty_ask_slot [1:0] $end
$var reg 2 Q# empty_bid_slot [1:0] $end
$var reg 1 R# has_empty_ask $end
$var reg 1 S# has_empty_bid $end
$var reg 8 T# match_price [7:0] $end
$var reg 1 Q match_valid $end
$var reg 4 U# throttle_cnt [3:0] $end
$var integer 32 V# i [31:0] $end
$upscope $end
$scope module u_rule_detector $end
$var wire 1 / clk $end
$var wire 1 W# det_flash $end
$var wire 1 X# det_imbalance $end
$var wire 1 Y# det_spread $end
$var wire 1 Z# det_vol_dry $end
$var wire 1 [# det_vol_surge $end
$var wire 1 \# det_volatility $end
$var wire 12 ]# flash_thresh [11:0] $end
$var wire 2 ^# input_type [1:0] $end
$var wire 8 _# match_price [7:0] $end
$var wire 1 Q match_valid $end
$var wire 12 `# price_data [11:0] $end
$var wire 1 4 rst_n $end
$var wire 12 a# spike_thresh [11:0] $end
$var wire 12 b# volume_data [11:0] $end
$var wire 13 c# vol_surge_thresh [12:0] $end
$var wire 12 d# vol_dry_thresh [11:0] $end
$var wire 12 e# vol_deviation [11:0] $end
$var wire 12 f# price_drop [11:0] $end
$var wire 12 g# price_delta [11:0] $end
$var wire 1 h# is_volume $end
$var wire 1 i# is_sell $end
$var wire 1 j# is_price $end
$var wire 1 k# is_buy $end
$var wire 1 l# det_velocity $end
$var wire 1 m# det_spike $end
$var wire 3 n# alert_type [2:0] $end
$var wire 3 o# alert_priority [2:0] $end
$var wire 8 p# alert_bitmap [7:0] $end
$var wire 1 L alert_any $end
$var parameter 6 q# VELOCITY_THRESH $end
$var parameter 32 r# VOL_DRY_DIV $end
$var parameter 32 s# VOL_SURGE_MULT $end
$var reg 4 t# buy_order_count [3:0] $end
$var reg 12 u# current_price [11:0] $end
$var reg 12 v# current_volume [11:0] $end
$var reg 6 w# match_counter [5:0] $end
$var reg 6 x# match_rate [5:0] $end
$var reg 12 y# prev_price [11:0] $end
$var reg 12 z# price_avg [11:0] $end
$var reg 12 {# price_mad [11:0] $end
$var reg 3 |# price_ptr [2:0] $end
$var reg 15 }# price_sum [14:0] $end
$var reg 4 ~# sell_order_count [3:0] $end
$var reg 12 !$ vol_avg [11:0] $end
$var reg 3 "$ vol_ptr [2:0] $end
$var reg 15 #$ vol_sum [14:0] $end
$var reg 8 $$ window_timer [7:0] $end
$var integer 32 %$ i [31:0] $end
$upscope $end
$upscope $end
$scope task idle $end
$var integer 32 &$ k [31:0] $end
$var integer 32 '$ n [31:0] $end
$upscope $end
$scope task send_buy $end
$var reg 6 ($ qty [5:0] $end
$upscope $end
$scope task send_price $end
$var reg 12 )$ p [11:0] $end
$upscope $end
$scope task send_sell $end
$var reg 6 *$ qty [5:0] $end
$upscope $end
$scope task send_volume $end
$var reg 12 +$ v [11:0] $end
$upscope $end
$upscope $end
$enddefinitions $end
$comment Show the parameter values. $end
$dumpall
b10 s#
b100 r#
b11110 q#
b1111 5#
b1110 4#
b1101 3#
b1100 2#
b1011 1#
b1010 0#
b1001 /#
b1000 .#
b111 -#
b110 ,#
b101 +#
b100 *#
b11 )#
b10 (#
b1 '#
b0 &#
b0 5"
b11 4"
b10 3"
b1 2"
b1000000 1"
b100000 0"
b1011111010111100001000000 e
b10111110101111000010000000 d
b110110010 c
$end
#0
$dumpvars
bx +$
bx *$
bx )$
bx ($
bx '$
bx &$
b1000 %$
b0 $$
b0 #$
b0 "$
b1100100 !$
b0 ~#
b0 }#
b0 |#
b101 {#
b1100100 z#
b1100100 y#
b0 x#
b0 w#
b0 v#
b1100100 u#
b0 t#
b10 p#
b1 o#
b1 n#
0m#
0l#
0k#
1j#
0i#
0h#
b0 g#
b0 f#
b0 e#
b110 d#
b110010000 c#
b0 b#
b10100 a#
b0 `#
b0 _#
b0 ^#
b101000 ]#
0\#
0[#
1Z#
0Y#
0X#
0W#
b11111111111111111111111111111111 V#
b0 U#
b0 T#
1S#
1R#
b0 Q#
b0 P#
b0 O#
b0 N#
b0 M#
0L#
b0 K#
b0 J#
0I#
b0 H#
b1111111 G#
b0 F#
b1111111 E#
0D#
0C#
1B#
b0 A#
1@#
b0 ?#
1>#
b0 =#
b0 <#
b0 ;#
b0 :#
09#
b0 8#
b0 7#
b0 6#
bx %#
bx $#
bx ##
bx "#
bx !#
b10000 ~"
bx }"
bx |"
bx {"
bx z"
bx y"
0x"
0w"
0v"
b0 u"
b0 t"
b0 s"
bx r"
bx q"
bx p"
bx o"
bx n"
bx m"
bx l"
bx k"
bx j"
bx i"
bx h"
bx g"
bx f"
bx e"
bx d"
bx c"
bx b"
bx a"
bx `"
bx _"
bx ^"
bx ]"
bx \"
bx ["
bx Z"
bx Y"
b1000 X"
b0 W"
b1100100000 V"
b0 U"
b1100100 T"
b0 S"
b0 R"
b0 Q"
b0 P"
b0 O"
b1100100000 N"
b1100100 M"
b1100100 L"
b101 K"
b1100100 J"
b0 I"
b0 H"
bx G"
bx F"
bx E"
b1100100 D"
b1100100 C"
b0 B"
0A"
1@"
0?"
0>"
b0 ="
b0 <"
b0 ;"
b0 :"
b0 9"
b0 8"
b0 7"
b0 6"
b0 /"
b0 ."
b0 -"
b1 ,"
b1 +"
b0 *"
b0 )"
b0 ("
b0 '"
b1 &"
0%"
1$"
0#"
0""
0!"
0~
0}
0|
1{
0z
b10010001 y
1x
b1111111111 w
0v
b0 u
b0 t
b1 s
0r
0q
b0 p
b0 o
b0 n
0m
0l
b0 k
b0 j
b0 i
b0 h
b0 g
0f
b101000 b
b10100 a
0`
0_
0^
b0 ]
b0 \
0[
b0 Z
b0 Y
b0 X
b1 W
b1 V
0U
bx T
b0 S
b0 R
0Q
b0 P
b0 O
0N
b0 M
1L
b10 K
b1 J
b1 I
b100100 H
b0 G
b0 F
b11111111 E
b0 D
b0 C
1B
0A
1@
0?
b0 >
b0 =
b0 <
b0 ;
b0 :
bx 9
b0 8
b0 7
b0 6
b0 5
04
13
02
01
10
0/
1.
b1 -
b1 ,
0+
b0 *
b0 )
b0 (
0'
1&
b1 %
b0 $
b10010001 #
b11111111 "
0!
$end
#10000
11
b110 ~"
b1000 X"
b1000 %$
b100 V#
b1 8
b1 7
1/
#20000
0/
#30000
b100 V#
b1000 %$
b1000 X"
b10000 ~"
b10 8
1/
#40000
0/
#50000
b110 ~"
b1000 X"
b1000 %$
b100 V#
b11 8
1/
#60000
0/
#70000
b100 V#
b1000 %$
b1000 X"
b10000 ~"
b100 8
1/
#80000
0/
#90000
b110 ,
b110 -
b110 +"
b11100110 #
b11100110 y
b110 W
b110 ,"
b11011000 H
b110 V
b110 J
b110 o#
b110 I
b110 &"
b110 n#
0B
1\#
b1010100 e#
b1 *"
b1000011 K
b1000011 p#
1m#
b1100100 g#
b1 k
0x
1v
b1001001000 w
1r
b1 W"
b1 S"
b10000 K"
b1 O"
b1 P"
b1 Q"
b1010111100 N"
b0 C"
b1 $$
b10000 {#
b0 z#
b1 |#
b111111110011100 }#
b0 u#
b1100100 G"
b1100100 F"
b101 8
14
1/
#91000
b10000010100 )$
b0 9
#100000
0/
#110000
b111 ,
b111 -
b111 +"
b11110111 #
b11110111 y
b111 W
b111 ,"
b11111100 H
b111 V
b111 J
b111 o#
b111 I
b111 &"
b111 n#
0\#
1W#
b0 e#
b111111110011 f#
b10000010 K
b10000010 p#
0m#
b0 g#
b110 *"
b1 )"
b10 $$
b1110 {#
b111111110011 z#
b10 |#
b111111100111000 }#
b0 y#
b10 W"
b10 S"
b11000 K"
b10 O"
b10 P"
b1010111 J"
b10 Q"
b1001011000 N"
b0 L"
b1 t
b10 k
b1010111 G"
b1010111 F"
b110 8
1/
#111000
b1010 A#
b10000 ;#
b10000010100 M
b10000010100 ;"
b10000010100 `#
b10000010100 F
b10000010100 <"
b10000010100 b#
b10100 :#
b11001000 +$
b10000 6
b10000 D
b10100 5
b10100 C
#120000
0/
#130000
b1010001100 e#
b111 *"
b110 )"
b10000011 K
b10000011 p#
1m#
b10000010100 g#
b101111010011 f#
b11 k
b10 t
b11 W"
b11 S"
b10001110 K"
b11 O"
b11 P"
b1001011 J"
b11 Q"
b11000001000 N"
b10000010100 C"
b0 M"
b11 $$
b110001000 {#
b111111100111 z#
b11 |#
b1011101000 }#
b10000010100 u#
b1111001001 G"
b1001011 F"
b111 8
1/
#131000
b100100 A#
b11 ;#
0@"
1>"
0j#
1h#
b1 S
b1 :"
b1 <#
b1 ^#
b11001000 M
b11001000 ;"
b11001000 `#
b11001000 F
b11001000 <"
b11001000 b#
b1000 :#
b1010 ($
b11 6
b11 D
b1001000 5
b1001000 C
#140000
0/
#150000
b0 c#
b0 d#
b10000001 K
b10000001 p#
0Z#
b111 )"
b100 $$
b0 !$
b1 "$
b1100100 #$
b11001000 v#
b100 W"
b100 S"
b1 U"
b1110000100 V"
b11001000 D"
b11 t
b100 k
b1000 8
1/
#151000
b101 A#
b0 ;#
0>"
1A"
1D#
0h#
1k#
b10 S
b10 :"
b10 <#
b10 ^#
b1010 M
b1010 ;"
b1010 `#
b1010 F
b1010 <"
b1010 b#
b1010 :#
b1010 *$
b0 6
b0 D
b10001010 5
b10001010 C
#160000
0/
#170000
b0 P#
b1 Q#
1R#
1S#
1L#
b101 J#
b11111111111111111111111111111111 V#
b101 k
b100 t
b101 W"
b101 S"
b1 B"
b101 $$
b1 t#
b1001 8
1/
#171000
0A"
1?"
0D#
1C#
0k#
1i#
b11 S
b11 :"
b11 <#
b11 ^#
b1 9
b11001010 5
b11001010 C
#180000
0/
#190000
19#
b1 P#
1R#
1S#
b1 Q#
1I#
b101 E#
b101 G#
b11111111111111111111111111111111 V#
1L#
b101 J#
b110 $$
b1 ~#
b110 W"
b110 S"
b1 R"
b101 t
b110 k
b1010 8
1/
#191000
b1010 A#
b10000 ;#
1@"
0?"
0C#
1j#
0i#
b0 S
b0 :"
b0 <#
b0 ^#
b10000010100 M
b10000010100 ;"
b10000010100 `#
b10000010100 F
b10000010100 <"
b10000010100 b#
b10100 :#
b10000 6
b10000 D
b10100 5
b10100 C
#200000
0/
#210000
b0 ,
b0 -
0.
b0 W
b0 H
b0 V
b0 ,"
0@
0{
b0 J
b0 o#
b0 I
b0 &"
b0 n#
0$"
0L
0W#
09#
b101 (
b101 *
1'
b0 e#
b0 f#
b0 K
b0 p#
0m#
b0 g#
1R#
b0 P#
1S#
b0 Q#
b11111111111111111111111111111111 V#
0I#
b1111111 E#
b1111111 G#
0L#
b0 J#
b101 $
b101 G
b1000 #
b1000 y
b111 k
b110 t
b111 W"
b111 S"
b11100110 K"
b100 O"
b100 P"
b11000001 J"
b100 Q"
b100110111000 N"
b10000010100 L"
b111 $$
b1011010001 {#
b1011101 z#
b100 |#
b11010011000 }#
b10000010100 y#
b101 R
b101 ="
b101 T#
b101 _#
1Q
b1101010011 G"
b11000001 F"
b1011 8
1/
#211000
b100100 A#
b11 ;#
0@"
1>"
0j#
1h#
b1 S
b1 :"
b1 <#
b1 ^#
b11001000 M
b11001000 ;"
b11001000 `#
b11001000 F
b11001000 <"
b11001000 b#
b1000 :#
b11 6
b11 D
b1001000 5
b1001000 C
#220000
0/
#230000
b10 ,
b10 -
b10 W
b10 ,"
b1001000 H
b10 V
b10 J
b10 o#
b10 I
b10 &"
b10 n#
1B
1.
b10 +"
1@
b0 (
b0 *
0'
1{
b0 $
b0 G
b10100010 #
b10100010 y
b110000 c#
1$"
1L
b100 K
b100 p#
1[#
0Q
b1000 $$
b1 w#
b1100 !$
b10 "$
b11001000 #$
b1000 W"
b0 S"
b1 H"
b1110000 T"
b10 U"
b1111101000 V"
b1 6"
0r
b111 t
b1000 k
01
b1 <
b1100 8
1/
#231000
b101 A#
b0 ;#
0>"
1A"
1D#
0h#
1k#
b10 S
b10 :"
b10 <#
b10 ^#
b1010 M
b1010 ;"
b1010 `#
b1010 F
b1010 <"
b1010 b#
b1010 :#
b0 6
b0 D
b10001010 5
b10001010 C
#240000
0/
#250000
0B
b10 *"
b0 P#
b1 Q#
1R#
1S#
1L#
b101 J#
b11111111111111111111111111111111 V#
b1001 k
b1000 t
1r
b0 6"
b1001 W"
b1 S"
b10 B"
b1001 $$
b10 t#
11
b1101 8
b10 7
1/
#251000
0A"
1?"
0D#
1C#
0k#
1i#
b11 S
b11 :"
b11 <#
b11 ^#
b10 9
b11001010 5
b11001010 C
#260000
0/
#270000
19#
b1 P#
1R#
1S#
b1 Q#
1I#
b101 E#
b101 G#
b11111111111111111111111111111111 V#
1L#
b101 J#
b10 )"
b1010 $$
b10 ~#
b1010 W"
b10 S"
b10 R"
b1001 t
b1010 k
b1110 8
1/
#271000
b1010 A#
b10000 ;#
1@"
0?"
0C#
1j#
0i#
b0 S
b0 :"
b0 <#
b0 ^#
b10000010100 M
b10000010100 ;"
b10000010100 `#
b10000010100 F
b10000010100 <"
b10000010100 b#
b10100 :#
b10000 6
b10000 D
b10100 5
b10100 C
#280000
0/
#290000
09#
b101 (
b101 *
1'
1R#
b0 P#
1S#
b0 Q#
b11111111111111111111111111111111 V#
0I#
b1111111 E#
b1111111 G#
0L#
b0 J#
b101 $
b101 G
b10101010 #
b10101010 y
b1011 k
b1010 t
b1011 W"
b11 S"
b100100100 K"
b101 O"
b101 P"
b100110111 J"
b101 Q"
b110101101000 N"
b10000010100 M"
b1011 $$
b1011101101 {#
b11010011 z#
b101 |#
b101001001000 }#
1Q
b1011011101 G"
b100110111 F"
b1111 8
1/
#291000
b100100 A#
b11 ;#
0@"
1>"
0j#
1h#
b1 S
b1 :"
b1 <#
b1 ^#
b11001000 M
b11001000 ;"
b11001000 `#
b11001000 F
b11001000 <"
b11001000 b#
b1000 :#
b11 6
b11 D
b1001000 5
b1001000 C
#300000
0/
#310000
b0 (
b0 *
0'
b0 $
b0 G
b10100010 #
b10100010 y
b1100100 c#
b1 d#
0Q
b1100 $$
b10 w#
b11001 !$
b11 "$
b100101100 #$
b1100 W"
b0 S"
b10 H"
b1111101 T"
b11 U"
b10001001100 V"
b1011 t
b1100 k
b10 <
b10000 8
1/
#311000
b101 A#
b0 ;#
0>"
1A"
1D#
0h#
1k#
b10 S
b10 :"
b10 <#
b10 ^#
b1010 M
b1010 ;"
b1010 `#
b1010 F
b1010 <"
b1010 b#
b1010 :#
b0 6
b0 D
b10001010 5
b10001010 C
#320000
0/
#330000
b0 P#
b1 Q#
1R#
1S#
1L#
b101 J#
b11111111111111111111111111111111 V#
b1101 k
b1100 t
b1101 W"
b1 S"
b11 B"
b1101 $$
b11 t#
b10001 8
1/
#331000
0A"
1?"
0D#
1C#
0k#
1i#
b11 S
b11 :"
b11 <#
b11 ^#
b11 9
b11001010 5
b11001010 C
#340000
0/
#350000
19#
b1 P#
1R#
1S#
b1 Q#
1I#
b101 E#
b101 G#
b11111111111111111111111111111111 V#
1L#
b101 J#
b1110 $$
b11 ~#
b1110 W"
b10 S"
b11 R"
b1101 t
b1110 k
b10010 8
1/
#351000
b1010 A#
b10000 ;#
1@"
0?"
0C#
1j#
0i#
b0 S
b0 :"
b0 <#
b0 ^#
b10000010100 M
b10000010100 ;"
b10000010100 `#
b10000010100 F
b10000010100 <"
b10000010100 b#
b10100 :#
b10000 6
b10000 D
b10100 5
b10100 C
#360000
0/
#370000
09#
b101 (
b101 *
1'
1R#
b0 P#
1S#
b0 Q#
b11111111111111111111111111111111 V#
0I#
b1111111 E#
b1111111 G#
0L#
b0 J#
b101 $
b101 G
b10101010 #
b10101010 y
b1111 k
b1110 t
b1111 W"
b11 S"
b101001100 K"
b110 O"
b110 P"
b110101101 J"
b110 Q"
b1000100011000 N"
b1111 $$
b1011110111 {#
b101001001 z#
b110 |#
b110111111000 }#
1Q
b1001100111 G"
b110101101 F"
b10011 8
1/
#371000
b100100 A#
b11 ;#
0@"
1>"
0j#
1h#
b1 S
b1 :"
b1 <#
b1 ^#
b11001000 M
b11001000 ;"
b11001000 `#
b11001000 F
b11001000 <"
b11001000 b#
b1000 :#
b11 6
b11 D
b1001000 5
b1001000 C
#380000
0/
#390000
b0 (
b0 *
0'
b0 $
b0 G
b10100010 #
b10100010 y
b10010100 c#
b10 d#
0Q
b10000 $$
b11 w#
b100101 !$
b100 "$
b110010000 #$
b10000 W"
b0 S"
b11 H"
b10001001 T"
b100 U"
b10010110000 V"
b1111 t
b10000 k
b11 <
b10100 8
1/
#391000
b101 A#
b0 ;#
0>"
1A"
1D#
0h#
1k#
b10 S
b10 :"
b10 <#
b10 ^#
b1010 M
b1010 ;"
b1010 `#
b1010 F
b1010 <"
b1010 b#
b1010 :#
b0 6
b0 D
b10001010 5
b10001010 C
#400000
0/
#410000
b100 ,
b100 -
b100 +"
b11000100 #
b11000100 y
b100 W
b100 ,"
b10010000 H
b100 V
b100 J
b100 o#
b100 I
b100 &"
b100 n#
b10100 K
b10100 p#
1X#
b0 P#
b1 Q#
1R#
1S#
1L#
b101 J#
b11111111111111111111111111111111 V#
b10001 k
b10000 t
b10001 W"
b1 S"
b100 B"
b10001 $$
b100 t#
b10101 8
1/
#411000
0A"
1?"
0D#
1C#
0k#
1i#
b11 S
b11 :"
b11 <#
b11 ^#
b100 9
b11001010 5
b11001010 C
#420000
0/
#430000
19#
b1 P#
1R#
1S#
b1 Q#
1I#
b101 E#
b101 G#
b11111111111111111111111111111111 V#
1L#
b101 J#
b100 *"
b10010 $$
b100 ~#
b10010 W"
b10 S"
b100 R"
b10001 t
b10010 k
b10110 8
1/
#431000
b1010 A#
b10000 ;#
1@"
0?"
0C#
1j#
0i#
b0 S
b0 :"
b0 <#
b0 ^#
b10000010100 M
b10000010100 ;"
b10000010100 `#
b10000010100 F
b10000010100 <"
b10000010100 b#
b10100 :#
b10000 6
b10000 D
b10100 5
b10100 C
#440000
0/
#450000
09#
b101 (
b101 *
1'
b100 )"
1R#
b0 P#
1S#
b0 Q#
b11111111111111111111111111111111 V#
0I#
b1111111 E#
b1111111 G#
0L#
b0 J#
b101 $
b101 G
b11001100 #
b11001100 y
b10011 k
b10010 t
b10011 W"
b11 S"
b101100000 K"
b111 O"
b111 P"
b1000100011 J"
b111 Q"
b1010011001000 N"
b10011 $$
b1011110001 {#
b110111111 z#
b111 |#
b1000110101000 }#
1Q
b111110001 G"
b1000100011 F"
b10111 8
1/
