crash_2001.vcd
$date
	Thu Feb 19 21:52:27 2026
$end
$version
	Icarus Verilog
$end
$timescale
	1ps
$end
$scope module tb_2001_crash $end
$var wire 8 ! uio_oe [7:0] $end
$var wire 8 " uo_out [7:0] $end
$var wire 8 # uio_out [7:0] $end
$var wire 1 $ ml_valid_out $end
$var wire 4 % ml_conf_nibble [3:0] $end
$var wire 3 & ml_class_out [2:0] $end
$var wire 1 ' match_valid $end
$var wire 3 ( alert_type [2:0] $end
$var wire 3 ) alert_priority [2:0] $end
$var wire 1 * alert_flag $end
$var reg 1 + clk $end
$var reg 1 , ena $end
$var reg 1 - prev_alert $end
$var reg 3 . prev_type [2:0] $end
$var reg 1 / rst_n $end
$var reg 8 0 ui_in [7:0] $end
$var reg 8 1 uio_in [7:0] $end
$var integer 32 2 alerts_fired [31:0] $end
$var integer 32 3 cycle_count [31:0] $end
$var integer 32 4 flash_events [31:0] $end
$var integer 32 5 ml_results [31:0] $end
$var integer 32 6 spikes_detected [31:0] $end
$scope module dut $end
$var wire 1 7 cb_load_final $end
$var wire 1 + clk $end
$var wire 1 8 comb_alert $end
$var wire 1 9 config_strobe $end
$var wire 1 , ena $end
$var wire 1 / rst_n $end
$var wire 1 : uart_trigger $end
$var wire 8 ; ui_in [7:0] $end
$var wire 8 < uio_in [7:0] $end
$var wire 8 = uio_oe [7:0] $end
$var wire 12 > vol_data [11:0] $end
$var wire 8 ? uio_out [7:0] $end
$var wire 8 @ uart_payload [7:0] $end
$var wire 3 A rule_alert_type [2:0] $end
$var wire 3 B rule_alert_priority [2:0] $end
$var wire 8 C rule_alert_bitmap [7:0] $end
$var wire 1 D rule_alert_any $end
$var wire 12 E price_data [11:0] $end
$var wire 1 F ml_valid $end
$var wire 8 G ml_confidence [7:0] $end
$var wire 3 H ml_class [2:0] $end
$var wire 1 I match_valid $end
$var wire 8 J match_price [7:0] $end
$var wire 2 K input_type [1:0] $end
$var wire 128 L features [127:0] $end
$var wire 1 M feature_valid $end
$var wire 3 N comb_type [2:0] $end
$var wire 3 O comb_priority [2:0] $end
$var wire 2 P cb_state [1:0] $end
$var wire 8 Q cb_param_final [7:0] $end
$var wire 2 R cb_mode_final [1:0] $end
$var wire 1 S cb_active $end
$var wire 2 T cascade_type [1:0] $end
$var wire 8 U cascade_cb_param [7:0] $end
$var wire 1 V cascade_cb_load $end
$var wire 1 W cascade_alert $end
$var wire 1 X _unused $end
$var wire 12 Y SPIKE_THRESH [11:0] $end
$var wire 12 Z FLASH_THRESH [11:0] $end
$var parameter 32 [ BAUD_DIV $end
$var parameter 32 \ CLK_HZ $end
$var parameter 32 ] HB_DIV $end
$var reg 1 ^ cb_load_r $end
$var reg 2 _ cb_mode_cmd [1:0] $end
$var reg 2 ` cb_mode_next [1:0] $end
$var reg 8 a cb_param_cmd [7:0] $end
$var reg 8 b cb_param_next [7:0] $end
$var reg 25 c hb_cnt [24:0] $end
$var reg 1 d hb_led $end
$var reg 1 e ml_anomaly_held $end
$var reg 3 f ml_class_held [2:0] $end
$var reg 8 g ml_conf_held [7:0] $end
$var reg 3 h ml_prio_held [2:0] $end
$var reg 1 i ml_valid_d $end
$var reg 1 j prev_alert_r $end
$var reg 2 k thresh_sel [1:0] $end
$var reg 10 l uart_bit_cnt [9:0] $end
$var reg 4 m uart_bits [3:0] $end
$var reg 1 n uart_busy $end
$var reg 10 o uart_shift [9:0] $end
$var reg 1 p uart_tx $end
$var reg 8 q uo_out [7:0] $end
$scope module u_cascade $end
$var wire 1 r cascade_fire $end
$var wire 1 + clk $end
$var wire 1 s event_any $end
$var wire 1 t is_spike_crash $end
$var wire 1 u is_stuff_crash $end
$var wire 1 v is_triple $end
$var wire 1 w is_vol_crash $end
$var wire 1 x ml_evt $end
$var wire 1 y new_is_flash $end
$var wire 1 / rst_n $end
$var wire 1 z rule_evt $end
$var wire 1 { test_flush $end
$var wire 3 | rule_alert_type [2:0] $end
$var wire 1 D rule_alert_any $end
$var wire 1 F ml_valid $end
$var wire 8 } ml_confidence [7:0] $end
$var wire 3 ~ ml_class [2:0] $end
$var wire 3 !" h2_next [2:0] $end
$var wire 3 "" h1_next [2:0] $end
$var wire 3 #" h0_next [2:0] $end
$var wire 3 $" event_code [2:0] $end
$var wire 9 %" conf_x2_wide [8:0] $end
$var wire 8 &" conf_x2_sat [7:0] $end
$var wire 2 '" cascade_type_next [1:0] $end
$var parameter 32 (" CASCADE_HOLD $end
$var parameter 32 )" CASCADE_WINDOW $end
$var parameter 2 *" CT_SPIKE_CRASH $end
$var parameter 2 +" CT_STUFF_CRASH $end
$var parameter 2 ," CT_TRIPLE $end
$var parameter 2 -" CT_VOL_CRASH $end
$var reg 7 ." age_cnt [6:0] $end
$var reg 1 W cascade_alert $end
$var reg 1 V cascade_cb_load $end
$var reg 8 /" cascade_cb_param [7:0] $end
$var reg 2 0" cascade_type [1:0] $end
$var reg 6 1" hold_cnt [5:0] $end
$upscope $end
$scope module u_feat_extractor $end
$var wire 1 + clk $end
$var wire 2 2" input_type [1:0] $end
$var wire 12 3" price_data [11:0] $end
$var wire 1 / rst_n $end
$var wire 12 4" volume_data [11:0] $end
$var wire 1 I match_valid $end
$var wire 8 5" match_price [7:0] $end
$var wire 1 6" is_volume $end
$var wire 1 7" is_sell $end
$var wire 1 8" is_price $end
$var wire 1 9" is_buy $end
$var reg 8 :" buy_count [7:0] $end
$var reg 12 ;" cur_price [11:0] $end
$var reg 12 <" cur_vol [11:0] $end
$var reg 1 M feature_valid $end
$var reg 128 =" features [127:0] $end
$var reg 12 >" local_avg [11:0] $end
$var reg 12 ?" local_delta [11:0] $end
$var reg 8 @" match_count [7:0] $end
$var reg 8 A" match_rate [7:0] $end
$var reg 12 B" price_avg [11:0] $end
$var reg 12 C" price_mad [11:0] $end
$var reg 12 D" price_prev1 [11:0] $end
$var reg 12 E" price_prev2 [11:0] $end
$var reg 15 F" price_sum8 [14:0] $end
$var reg 6 G" ptr_l [5:0] $end
$var reg 5 H" ptr_m [4:0] $end
$var reg 3 I" ptr_s [2:0] $end
$var reg 8 J" sell_count [7:0] $end
$var reg 16 K" trade_timer [15:0] $end
$var reg 12 L" vol_avg [11:0] $end
$var reg 3 M" vol_ptr [2:0] $end
$var reg 15 N" vol_sum8 [14:0] $end
$var reg 8 O" window_cnt [7:0] $end
$var integer 32 P" i [31:0] $end
$scope function clip8 $end
$var reg 12 Q" x [11:0] $end
$upscope $end
$scope function clip8_16 $end
$var reg 16 R" x [15:0] $end
$upscope $end
$scope function imbalance_byte $end
$var reg 8 S" buys [7:0] $end
$var reg 16 T" num [15:0] $end
$var reg 8 U" sells [7:0] $end
$var reg 16 V" total [15:0] $end
$upscope $end
$scope function momentum_byte $end
$var reg 13 W" d1 [12:0] $end
$var reg 13 X" d2 [12:0] $end
$var reg 13 Y" mom [12:0] $end
$var reg 12 Z" p0 [11:0] $end
$var reg 12 [" p1 [11:0] $end
$var reg 12 \" p2 [11:0] $end
$upscope $end
$scope function price_delta $end
$var reg 12 ]" a [11:0] $end
$var reg 12 ^" b [11:0] $end
$var reg 12 _" d [11:0] $end
$upscope $end
$scope function spread_byte $end
$var reg 8 `" asks [7:0] $end
$var reg 8 a" bids [7:0] $end
$upscope $end
$scope function vol_ratio_byte $end
$var reg 12 b" avg [11:0] $end
$var reg 12 c" cur [11:0] $end
$var reg 20 d" num [19:0] $end
$upscope $end
$upscope $end
$scope module u_ml_engine $end
$var wire 1 + clk $end
$var wire 1 M feature_valid $end
$var wire 128 e" features [127:0] $end
$var wire 1 / rst_n $end
$var reg 32 f" acc2_tmp [31:0] $end
$var reg 3 g" best_class [2:0] $end
$var reg 32 h" gap [31:0] $end
$var reg 32 i" max_logit [31:0] $end
$var reg 32 j" min_logit [31:0] $end
$var reg 3 k" ml_class [2:0] $end
$var reg 8 l" ml_confidence [7:0] $end
$var reg 8 m" ml_margin [7:0] $end
$var reg 1 F ml_valid $end
$var reg 1 n" s0_valid $end
$var reg 1 o" s1_valid $end
$var reg 1 p" s2_valid $end
$var reg 32 q" second_max_logit [31:0] $end
$var integer 32 r" h1 [31:0] $end
$var integer 32 s" h2 [31:0] $end
$var integer 32 t" i1 [31:0] $end
$var integer 32 u" j3 [31:0] $end
$var integer 32 v" k [31:0] $end
$var integer 32 w" o2 [31:0] $end
$scope function rom_b1 $end
$var reg 2 x" addr [1:0] $end
$upscope $end
$scope function rom_b2 $end
$var reg 3 y" addr [2:0] $end
$upscope $end
$scope function rom_w1 $end
$var reg 6 z" addr [5:0] $end
$upscope $end
$scope function rom_w2 $end
$var reg 5 {" addr [4:0] $end
$upscope $end
$scope begin unpack[0] $end
$var parameter 2 |" gi $end
$upscope $end
$scope begin unpack[1] $end
$var parameter 2 }" gi $end
$upscope $end
$scope begin unpack[2] $end
$var parameter 3 ~" gi $end
$upscope $end
$scope begin unpack[3] $end
$var parameter 3 !# gi $end
$upscope $end
$scope begin unpack[4] $end
$var parameter 4 "# gi $end
$upscope $end
$scope begin unpack[5] $end
$var parameter 4 ## gi $end
$upscope $end
$scope begin unpack[6] $end
$var parameter 4 $# gi $end
$upscope $end
$scope begin unpack[7] $end
$var parameter 4 %# gi $end
$upscope $end
$scope begin unpack[8] $end
$var parameter 5 &# gi $end
$upscope $end
$scope begin unpack[9] $end
$var parameter 5 '# gi $end
$upscope $end
$scope begin unpack[10] $end
$var parameter 5 (# gi $end
$upscope $end
$scope begin unpack[11] $end
$var parameter 5 )# gi $end
$upscope $end
$scope begin unpack[12] $end
$var parameter 5 *# gi $end
$upscope $end
$scope begin unpack[13] $end
$var parameter 5 +# gi $end
$upscope $end
$scope begin unpack[14] $end
$var parameter 5 ,# gi $end
$upscope $end
$scope begin unpack[15] $end
$var parameter 5 -# gi $end
$upscope $end
$upscope $end
$scope module u_order_book $end
$var wire 1 7 cb_load $end
$var wire 2 .# cb_mode [1:0] $end
$var wire 8 /# cb_param [7:0] $end
$var wire 2 0# cb_state [1:0] $end
$var wire 1 + clk $end
$var wire 1 1# crossing $end
$var wire 6 2# data_in [5:0] $end
$var wire 6 3# ext_data [5:0] $end
$var wire 2 4# input_type [1:0] $end
$var wire 1 / rst_n $end
$var wire 4 5# throttle_div [3:0] $end
$var wire 1 6# throttle_allow $end
$var wire 3 7# spread_guard [2:0] $end
$var wire 1 8# order_gate $end
$var wire 7 9# new_price [6:0] $end
$var wire 1 :# match_gate $end
$var wire 1 ;# is_sell $end
$var wire 1 <# is_buy $end
$var wire 7 =# cross_threshold [6:0] $end
$var wire 1 S cb_active $end
$var wire 3 ># active_guard [2:0] $end
$var reg 7 ?# best_ask [6:0] $end
$var reg 2 @# best_ask_idx [1:0] $end
$var reg 1 A# best_ask_valid $end
$var reg 7 B# best_bid [6:0] $end
$var reg 2 C# best_bid_idx [1:0] $end
$var reg 1 D# best_bid_valid $end
$var reg 9 E# cb_countdown [8:0] $end
$var reg 2 F# cb_mode_r [1:0] $end
$var reg 8 G# cb_param_r [7:0] $end
$var reg 2 H# empty_ask_slot [1:0] $end
$var reg 2 I# empty_bid_slot [1:0] $end
$var reg 1 J# has_empty_ask $end
$var reg 1 K# has_empty_bid $end
$var reg 8 L# match_price [7:0] $end
$var reg 1 I match_valid $end
$var reg 4 M# throttle_cnt [3:0] $end
$var integer 32 N# i [31:0] $end
$upscope $end
$scope module u_rule_detector $end
$var wire 1 + clk $end
$var wire 1 O# det_flash $end
$var wire 1 P# det_imbalance $end
$var wire 1 Q# det_spread $end
$var wire 1 R# det_vol_dry $end
$var wire 1 S# det_vol_surge $end
$var wire 1 T# det_volatility $end
$var wire 12 U# flash_thresh [11:0] $end
$var wire 2 V# input_type [1:0] $end
$var wire 8 W# match_price [7:0] $end
$var wire 1 I match_valid $end
$var wire 12 X# price_data [11:0] $end
$var wire 1 / rst_n $end
$var wire 12 Y# spike_thresh [11:0] $end
$var wire 12 Z# volume_data [11:0] $end
$var wire 13 [# vol_surge_thresh [12:0] $end
$var wire 12 \# vol_dry_thresh [11:0] $end
$var wire 12 ]# vol_deviation [11:0] $end
$var wire 12 ^# price_drop [11:0] $end
$var wire 12 _# price_delta [11:0] $end
$var wire 1 `# is_volume $end
$var wire 1 a# is_sell $end
$var wire 1 b# is_price $end
$var wire 1 c# is_buy $end
$var wire 1 d# det_velocity $end
$var wire 1 e# det_spike $end
$var wire 3 f# alert_type [2:0] $end
$var wire 3 g# alert_priority [2:0] $end
$var wire 8 h# alert_bitmap [7:0] $end
$var wire 1 D alert_any $end
$var parameter 6 i# VELOCITY_THRESH $end
$var parameter 32 j# VOL_DRY_DIV $end
$var parameter 32 k# VOL_SURGE_MULT $end
$var reg 4 l# buy_order_count [3:0] $end
$var reg 12 m# current_price [11:0] $end
$var reg 12 n# current_volume [11:0] $end
$var reg 6 o# match_counter [5:0] $end
$var reg 6 p# match_rate [5:0] $end
$var reg 12 q# prev_price [11:0] $end
$var reg 12 r# price_avg [11:0] $end
$var reg 12 s# price_mad [11:0] $end
$var reg 3 t# price_ptr [2:0] $end
$var reg 15 u# price_sum [14:0] $end
$var reg 4 v# sell_order_count [3:0] $end
$var reg 12 w# vol_avg [11:0] $end
$var reg 3 x# vol_ptr [2:0] $end
$var reg 15 y# vol_sum [14:0] $end
$var reg 8 z# window_timer [7:0] $end
$var integer 32 {# i [31:0] $end
$upscope $end
$upscope $end
$scope task event_banner $end
$var reg 160 |# date [159:0] $end
$var reg 480 }# title [479:0] $end
$upscope $end
$scope task idle $end
$var integer 32 ~# k [31:0] $end
$var integer 32 !$ n [31:0] $end
$upscope $end
$scope task phase_banner $end
$var reg 400 "$ msg [399:0] $end
$upscope $end
$scope task send_buy $end
$var reg 6 #$ qty [5:0] $end
$upscope $end
$scope task send_price $end
$var reg 12 $$ p [11:0] $end
$upscope $end
$scope task send_sell $end
$var reg 6 %$ qty [5:0] $end
$upscope $end
$scope task send_volume $end
$var reg 12 &$ v [11:0] $end
$upscope $end
$upscope $end
$enddefinitions $end
$comment Show the parameter values. $end
$dumpall
b10 k#
b100 j#
b11110 i#
b1111 -#
b1110 ,#
b1101 +#
b1100 *#
b1011 )#
b1010 (#
b1001 '#
b1000 &#
b111 %#
b110 $#
b101 ##
b100 "#
b11 !#
b10 ~"
b1 }"
b0 |"
b0 -"
b11 ,"
b10 +"
b1 *"
b1000000 )"
b100000 ("
b1011111010111100001000000 ]
b10111110101111000010000000 \
b110110010 [
$end
#0
$dumpvars
bx &$
bx %$
bx $$
bx #$
bx "$
bx !$
bx ~#
bx }#
bx |#
b1000 {#
b0 z#
b0 y#
b0 x#
b1100100 w#
b0 v#
b0 u#
b0 t#
b101 s#
b1100100 r#
b1100100 q#
b0 p#
b0 o#
b0 n#
b1100100 m#
b0 l#
b10 h#
b1 g#
b1 f#
0e#
0d#
0c#
1b#
0a#
0`#
b0 _#
b0 ^#
b0 ]#
b110 \#
b110010000 [#
b0 Z#
b10100 Y#
b0 X#
b0 W#
b0 V#
b101000 U#
0T#
0S#
1R#
0Q#
0P#
0O#
b11111111111111111111111111111111 N#
b0 M#
b0 L#
1K#
1J#
b0 I#
b0 H#
b0 G#
b0 F#
b0 E#
0D#
b0 C#
b0 B#
0A#
b0 @#
b1111111 ?#
b0 >#
b1111111 =#
0<#
0;#
1:#
b0 9#
18#
b0 7#
16#
b0 5#
b0 4#
b0 3#
b0 2#
01#
b0 0#
b0 /#
b0 .#
bx {"
bx z"
bx y"
bx x"
bx w"
b10000 v"
bx u"
bx t"
bx s"
bx r"
bx q"
0p"
0o"
0n"
b0 m"
b0 l"
b0 k"
bx j"
bx i"
bx h"
bx g"
bx f"
bx e"
bx d"
bx c"
bx b"
bx a"
bx `"
bx _"
bx ^"
bx ]"
bx \"
bx ["
bx Z"
bx Y"
bx X"
bx W"
bx V"
bx U"
bx T"
bx S"
bx R"
bx Q"
b1000 P"
b0 O"
b1100100000 N"
b0 M"
b1100100 L"
b0 K"
b0 J"
b0 I"
b0 H"
b0 G"
b1100100000 F"
b1100100 E"
b1100100 D"
b101 C"
b1100100 B"
b0 A"
b0 @"
bx ?"
bx >"
bx ="
b1100100 <"
b1100100 ;"
b0 :"
09"
18"
07"
06"
b0 5"
b0 4"
b0 3"
b0 2"
b0 1"
b0 0"
b0 /"
b0 ."
b0 '"
b0 &"
b0 %"
b1 $"
b1 #"
b0 ""
b0 !"
b0 ~
b0 }
b1 |
0{
1z
0y
0x
0w
0v
0u
0t
1s
0r
b10010001 q
1p
b1111111111 o
0n
b0 m
b0 l
b1 k
0j
0i
b0 h
b0 g
b0 f
0e
0d
b0 c
b0 b
b0 a
b0 `
b0 _
0^
b101000 Z
b10100 Y
0X
0W
0V
b0 U
b0 T
0S
b0 R
b0 Q
b0 P
b1 O
b1 N
0M
bx L
b0 K
b0 J
0I
b0 H
b0 G
0F
b0 E
1D
b10 C
b1 B
b1 A
b100100 @
b0 ?
b0 >
b11111111 =
b0 <
b0 ;
1:
09
18
07
b0 6
b0 5
b0 4
b0 3
b0 2
b0 1
b0 0
0/
b0 .
0-
1,
0+
1*
b1 )
b1 (
0'
b0 &
b0 %
0$
b0 #
b10010001 "
b11111111 !
$end
#10000
b110 v"
b1000 P"
b1000 {#
b100 N#
b1 3
b1 .
1-
b1 2
1+
#20000
0+
#30000
b100 N#
b1000 {#
b1000 P"
b10000 v"
b10 3
1+
#40000
0+
#50000
b110 v"
b1000 P"
b1000 {#
b100 N#
b11 3
1+
#60000
0+
#70000
b100 N#
b1000 {#
b1000 P"
b10000 v"
b100 3
1+
#80000
0+
#90000
b110 (
b110 )
b110 #"
b11100110 "
b11100110 q
b110 O
b110 $"
b11011000 @
b110 N
b110 B
b110 g#
b110 A
b110 |
b110 f#
0:
1T#
b1010100 ]#
b1 ""
b1000011 C
b1000011 h#
1e#
b1100100 _#
b1 c
0p
1n
b1001001000 o
1j
b1 O"
b1 K"
b10000 C"
b1 G"
b1 H"
b1 I"
b1010111100 F"
b0 ;"
b1 z#
b10000 s#
b0 r#
b1 t#
b111111110011100 u#
b0 m#
b1100100 ?"
b1100100 >"
b101 3
1/
1+
#91000
b100011100 $$
b1000011010100110100001101001111001000000100001101101001011100110110001101101111001000000101001101111001011100110111010001100101011011010111001100111010001000000010010000110111001100010010000000101101001111100010000000100100001101010011001100100000001010000010110100110010001101010010010100101001 "$
b100000101110000011100100110100101101100001000000011000100110100001011000010000000110010001100000011000000110000 |#
b10001000100111101010100001011010100001101001111010011010010000001000011010100100100000101010011010010000010000000100000010000100110110001100001011000110110101100100000010001100111001001101001011001000110000101111001 }#
#100000
0+
#110000
b111 (
b111 )
b111 #"
b11110111 "
b11110111 q
b111 O
b111 $"
b11111100 @
b111 N
b111 B
b111 g#
b111 A
b111 |
b111 f#
0T#
1O#
b0 ]#
b111111110011 ^#
b10000010 C
b10000010 h#
0e#
b0 _#
b110 ""
b1 !"
b10 z#
b1110 s#
b111111110011 r#
b10 t#
b111111100111000 u#
b0 q#
b10 O"
b10 K"
b11000 C"
b10 G"
b10 H"
b1010111 B"
b10 I"
b1001011000 F"
b0 D"
b1 l
b10 c
b1010111 ?"
b1010111 >"
b110 .
b10 2
b110 3
1+
#111000
b1110 9#
b100 3#
b100011100 E
b100011100 3"
b100011100 X#
b100011100 >
b100011100 4"
b100011100 Z#
b11100 2#
b100101100 &$
b100 1
b100 <
b11100 0
b11100 ;
#120000
0+
#130000
b111 ""
b110 !"
b10000011 C
b10000011 h#
1e#
b100011100 _#
b111011001011 ^#
b11 c
b10 l
b11 O"
b11 K"
b101111 C"
b11 G"
b11 H"
b1001011 B"
b11 I"
b1100010000 F"
b100011100 ;"
b0 E"
b11 z#
b111100111 s#
b111111100111 r#
b11 t#
b111111111110000 u#
b100011100 m#
b11010001 ?"
b1001011 >"
b111 3
b111 .
b1 4
b11 2
1+
#131000
b10110 9#
08"
16"
0b#
1`#
b1 K
b1 2"
b1 4#
b1 V#
b100101100 E
b100101100 3"
b100101100 X#
b100101100 >
b100101100 4"
b100101100 Z#
b101100 2#
b1010 #$
b1101100 0
b1101100 ;
#140000
0+
#150000
b0 [#
b0 \#
b10000001 C
b10000001 h#
0R#
b111 !"
b100 z#
b0 w#
b1 x#
b11001000 y#
b100101100 n#
b100 O"
b100 K"
b1 M"
b1111101000 N"
b100101100 <"
b11 l
b100 c
b1000 3
1+
#151000
b101 9#
b0 3#
06"
19"
1<#
0`#
1c#
b10 K
b10 2"
b10 4#
b10 V#
b1010 E
b1010 3"
b1010 X#
b1010 >
b1010 4"
b1010 Z#
b1010 2#
b1010 %$
b0 1
b0 <
b10001010 0
b10001010 ;
#160000
0+
#170000
b0 H#
b1 I#
1J#
1K#
1D#
b101 B#
b11111111111111111111111111111111 N#
b101 c
b100 l
b101 O"
b101 K"
b1 :"
b101 z#
b1 l#
b1001 3
1+
#171000
09"
17"
0<#
1;#
0c#
1a#
b11 K
b11 2"
b11 4#
b11 V#
b11001010 0
b11001010 ;
#180000
0+
#190000
11#
b1 H#
1J#
1K#
b1 I#
1A#
b101 =#
b101 ?#
b11111111111111111111111111111111 N#
1D#
b101 B#
b110 z#
b1 v#
b110 O"
b110 K"
b1 J"
b101 l
b110 c
b1010 3
1+
#191000
b1110 9#
b100 3#
18"
07"
0;#
1b#
0a#
b0 K
b0 2"
b0 4#
b0 V#
b100011100 E
b100011100 3"
b100011100 X#
b100011100 >
b100011100 4"
b100011100 Z#
b11100 2#
b100 1
b100 <
b11100 0
b11100 ;
#200000
0+
#210000
01#
b101 %
1'
b111011100010 ^#
b10000000 C
b10000000 h#
0e#
b0 _#
1J#
b0 H#
1K#
b0 I#
b11111111111111111111111111111111 N#
0A#
b1111111 =#
b1111111 ?#
0D#
b0 B#
b101 #
b101 ?
b11111111 "
b11111111 q
b111 c
b110 l
b111 O"
b111 K"
b1000000 C"
b100 G"
b100 H"
b1100010 B"
b100 I"
b1111001000 F"
b100011100 D"
b111 z#
b1110000011 s#
b111111111110 r#
b100 t#
b10101000 u#
b100011100 q#
b101 J
b101 5"
b101 L#
b101 W#
1I
b10111010 ?"
b1100010 >"
b1011 3
1+
#211000
b10110 9#
08"
16"
0b#
1`#
b1 K
b1 2"
b1 4#
b1 V#
b100101100 E
b100101100 3"
b100101100 X#
b100101100 >
b100101100 4"
b100101100 Z#
b101100 2#
b1101100 0
b1101100 ;
#220000
0+
#230000
b0 %
0'
b0 #
b0 ?
b11110111 "
b11110111 q
b1100100 [#
b10000100 C
b10000100 h#
1S#
b1 \#
0I
b1000 z#
b1 o#
b11001 w#
b10 x#
b110010000 y#
b1000 O"
b0 K"
b1 @"
b1111101 L"
b10 M"
b10010110000 N"
b111 l
b1000 c
b1100 3
1+
#231000
b101 9#
b0 3#
06"
19"
1<#
0`#
1c#
b10 K
b10 2"
b10 4#
b10 V#
b1010 E
b1010 3"
b1010 X#
b1010 >
b1010 4"
b1010 Z#
b1010 2#
b0 1
b0 <
b10001010 0
b10001010 ;
#240000
0+
#250000
b0 H#
b1 I#
1J#
1K#
1D#
b101 B#
b11111111111111111111111111111111 N#
b1001 c
b1000 l
b1001 O"
b1 K"
b10 :"
b1001 z#
b10 l#
b1101 3
1+
#251000
09"
17"
0<#
1;#
0c#
1a#
b11 K
b11 2"
b11 4#
b11 V#
b11001010 0
b11001010 ;
#260000
0+
#270000
11#
b1 H#
1J#
1K#
b1 I#
1A#
b101 =#
b101 ?#
b11111111111111111111111111111111 N#
1D#
b101 B#
b1010 z#
b10 v#
b1010 O"
b10 K"
b10 J"
b1001 l
b1010 c
b1110 3
1+
#271000
b1110 9#
b100 3#
18"
07"
0;#
1b#
0a#
b0 K
b0 2"
b0 4#
b0 V#
b100011100 E
b100011100 3"
b100011100 X#
b100011100 >
b100011100 4"
b100011100 Z#
b11100 2#
b100 1
b100 <
b11100 0
b11100 ;
#280000
0+
#290000
b10 (
b10 )
b10 #"
b10 O
b10 $"
b1001000 @
b10 N
b10 B
b10 g#
b10 A
b10 |
b10 f#
b100 C
b100 h#
0O#
01#
b101 %
1'
b0 ^#
1J#
b0 H#
1K#
b0 I#
b11111111111111111111111111111111 N#
0A#
b1111111 =#
b1111111 ?#
0D#
b0 B#
b101 #
b101 ?
b10101010 "
b10101010 q
b1011 c
b1010 l
b1011 O"
b11 K"
b1001100 C"
b101 G"
b101 H"
b1111001 B"
b101 I"
b10010000000 F"
b100011100 E"
b1011 z#
b10011101110 s#
b10101 r#
b101 t#
b101100000 u#
1I
b10100011 ?"
b1111001 >"
b1111 3
1+
#291000
b10110 9#
08"
16"
0b#
1`#
b1 K
b1 2"
b1 4#
b1 V#
b100101100 E
b100101100 3"
b100101100 X#
b100101100 >
b100101100 4"
b100101100 Z#
b101100 2#
b1101100 0
b1101100 ;
#300000
0+
#310000
b0 %
0'
b0 #
b0 ?
b10100010 "
b10100010 q
b11001000 [#
b11 \#
b10 ""
0I
b1100 z#
b10 o#
b110010 w#
b11 x#
b1001011000 y#
b1100 O"
b0 K"
b10 @"
b10010110 L"
b11 M"
b10101111000 N"
b1011 l
b1100 c
b10 .
b100 2
b10000 3
1+
#311000
b101 9#
b0 3#
06"
19"
1<#
0`#
1c#
b10 K
b10 2"
b10 4#
b10 V#
b1010 E
b1010 3"
b1010 X#
b1010 >
b1010 4"
b1010 Z#
b1010 2#
b0 1
b0 <
b10001010 0
b10001010 ;
#320000
0+
#330000
b10 !"
b0 H#
b1 I#
1J#
1K#
1D#
b101 B#
b11111111111111111111111111111111 N#
b1101 c
b1100 l
b1101 O"
b1 K"
b11 :"
b1101 z#
b11 l#
b10001 3
1+
#331000
09"
17"
0<#
1;#
0c#
1a#
b11 K
b11 2"
b11 4#
b11 V#
b11001010 0
b11001010 ;
#340000
0+
#350000
11#
b1 H#
1J#
1K#
b1 I#
1A#
b101 =#
b101 ?#
b11111111111111111111111111111111 N#
1D#
b101 B#
b1110 z#
b11 v#
b1110 O"
b10 K"
b11 J"
b1101 l
b1110 c
b10010 3
1+
#351000
b1110 9#
b100 3#
18"
07"
0;#
1b#
0a#
b0 K
b0 2"
b0 4#
b0 V#
b100011100 E
b100011100 3"
b100011100 X#
b100011100 >
b100011100 4"
b100011100 Z#
b11100 2#
b100 1
b100 <
b11100 0
b11100 ;
#360000
0+
#370000
01#
b101 %
1'
1J#
b0 H#
1K#
b0 I#
b11111111111111111111111111111111 N#
0A#
b1111111 =#
b1111111 ?#
0D#
b0 B#
b101 #
b101 ?
b10101010 "
b10101010 q
b1111 c
b1110 l
b1111 O"
b11 K"
b1010100 C"
b110 G"
b110 H"
b10010000 B"
b110 I"
b10100111000 F"
b1111 z#
b10001110001 s#
b101100 r#
b110 t#
b1000011000 u#
1I
b10001100 ?"
b10010000 >"
b10011 3
1+
#371000
b10110 9#
08"
16"
0b#
1`#
b1 K
b1 2"
b1 4#
b1 V#
b100101100 E
b100101100 3"
b100101100 X#
b100101100 >
b100101100 4"
b100101100 Z#
b101100 2#
b1101100 0
b1101100 ;
#380000
0+
#390000
b0 (
b0 )
b0 O
b0 @
b0 N
b0 B
b0 g#
b0 A
b0 |
b0 f#
0*
b0 $"
08
0s
b0 %
0'
0z
0D
b0 C
b0 h#
0S#
b0 #
b0 ?
b0 "
b0 q
b100101100 [#
b100 \#
0I
b10000 z#
b11 o#
b1001011 w#
b100 x#
b1100100000 y#
b10000 O"
b0 K"
b11 @"
b10101111 L"
b100 M"
b11001000000 N"
b1111 l
b10000 c
b10100 3
1+
#391000
b101 9#
b0 3#
06"
19"
1<#
0`#
1c#
b10 K
b10 2"
b10 4#
b10 V#
b1010 E
b1010 3"
b1010 X#
b1010 >
b1010 4"
b1010 Z#
b1010 2#
b0 1
b0 <
b10001010 0
b10001010 ;
#400000
0+
#410000
b100 (
b100 )
b100 O
b100 $"
b10010000 @
b100 N
1:
1*
b100 B
b100 g#
b100 A
b100 |
b100 f#
b11000100 "
b11000100 q
b100 #"
18
1s
1z
1D
b10000 C
b10000 h#
1P#
b0 H#
b1 I#
1J#
1K#
1D#
b101 B#
b11111111111111111111111111111111 N#
b10001 c
b10000 l
0j
b1 ."
b10001 O"
b1 K"
b100 :"
b10001 z#
b100 l#
b10101 3
b0 .
0-
1+
#411000
09"
17"
0<#
1;#
0c#
1a#
b11 K
b11 2"
b11 4#
b11 V#
b11001010 0
b11001010 ;
#420000
0+
#430000
0:
11#
b1 H#
1J#
1K#
b1 I#
1A#
b101 =#
b101 ?#
b11111111111111111111111111111111 N#
1D#
b101 B#
b100 ""
b10010 z#
b100 v#
b10010 O"
b10 K"
b100 J"
b0 ."
1j
b10001 l
b10010 c
b100 .
1-
b101 2
b10110 3
1+
#431000
b1110 9#
b100 3#
18"
07"
0;#
1b#
0a#
b0 K
b0 2"
b0 4#
b0 V#
b100011100 E
b100011100 3"
b100011100 X#
b100011100 >
b100011100 4"
b100011100 Z#
b11100 2#
b100 1
b100 <
b11100 0
b11100 ;
#440000
0+
#450000
01#
b101 %
1'
b100 !"
1J#
b0 H#
1K#
b0 I#
b11111111111111111111111111111111 N#
0A#
b1111111 =#
b1111111 ?#
0D#
b0 B#
b101 #
b101 ?
b11001100 "
b11001100 q
b10011 c
b10010 l
b10011 O"
b11 K"
b1011000 C"
b111 G"
b111 H"
b10100111 B"
b111 I"
b10111110000 F"
b10011 z#
b10000000000 s#
b1000011 r#
b111 t#
b1011010000 u#
1I
b1110101 ?"
b10100111 >"
b10111 3
1+
#451000
b10110 9#
08"
16"
0b#
1`#
b1 K
b1 2"
b1 4#
b1 V#
b100101100 E
b100101100 3"
b100101100 X#
b100101100 >
b100101100 4"
b100101100 Z#
b101100 2#
b1101100 0
b1101100 ;
#460000
0+
