flash_crash_2010.vcd
$date
	Sat Feb 21 17:14:42 2026
$end
$version
	Icarus Verilog
$end
$timescale
	1ps
$end
$scope module tb_flash_crash_2010 $end
$var wire 8 ! uio_oe [7:0] $end
$var wire 8 " uo_out [7:0] $end
$var wire 8 # uio_out [7:0] $end
$var wire 3 $ alert_type [2:0] $end
$var wire 3 % alert_prio [2:0] $end
$var wire 1 & alert_flag $end
$var reg 1 ' clk $end
$var reg 1 ( ena $end
$var reg 1 ) got_crash_flash $end
$var reg 1 * in_crash_phase $end
$var reg 1 + rst_n $end
$var reg 8 , ui_in [7:0] $end
$var reg 8 - uio_in [7:0] $end
$var integer 32 . crash_flash_count [31:0] $end
$var integer 32 / cyc [31:0] $end
$var integer 32 0 first_crash_flash [31:0] $end
$var integer 32 1 i [31:0] $end
$var integer 32 2 total_alerts [31:0] $end
$scope function aname $end
$var reg 3 3 t [2:0] $end
$upscope $end
$scope module dut $end
$var wire 1 4 cb_load_final $end
$var wire 1 ' clk $end
$var wire 1 5 comb_alert $end
$var wire 1 6 config_strobe $end
$var wire 1 ( ena $end
$var wire 1 + rst_n $end
$var wire 1 7 uart_trigger $end
$var wire 8 8 ui_in [7:0] $end
$var wire 8 9 uio_in [7:0] $end
$var wire 8 : uio_oe [7:0] $end
$var wire 12 ; vol_data [11:0] $end
$var wire 8 < uio_out [7:0] $end
$var wire 8 = uart_payload [7:0] $end
$var wire 3 > rule_alert_type [2:0] $end
$var wire 3 ? rule_alert_priority [2:0] $end
$var wire 8 @ rule_alert_bitmap [7:0] $end
$var wire 1 A rule_alert_any $end
$var wire 12 B price_data [11:0] $end
$var wire 1 C ml_valid $end
$var wire 8 D ml_confidence [7:0] $end
$var wire 3 E ml_class [2:0] $end
$var wire 1 F match_valid $end
$var wire 8 G match_price [7:0] $end
$var wire 2 H input_type [1:0] $end
$var wire 128 I features [127:0] $end
$var wire 1 J feature_valid $end
$var wire 3 K comb_type [2:0] $end
$var wire 3 L comb_priority [2:0] $end
$var wire 2 M cb_state [1:0] $end
$var wire 8 N cb_param_final [7:0] $end
$var wire 2 O cb_mode_final [1:0] $end
$var wire 1 P cb_active $end
$var wire 2 Q cascade_type [1:0] $end
$var wire 8 R cascade_cb_param [7:0] $end
$var wire 1 S cascade_cb_load $end
$var wire 1 T cascade_alert $end
$var wire 1 U _unused $end
$var wire 1 V _cascade_type_unused $end
$var wire 12 W SPIKE_THRESH [11:0] $end
$var wire 12 X FLASH_THRESH [11:0] $end
$var parameter 32 Y BAUD_DIV $end
$var parameter 32 Z CLK_HZ $end
$var parameter 32 [ HB_DIV $end
$var reg 1 \ cb_load_r $end
$var reg 2 ] cb_mode_cmd [1:0] $end
$var reg 2 ^ cb_mode_next [1:0] $end
$var reg 8 _ cb_param_cmd [7:0] $end
$var reg 8 ` cb_param_next [7:0] $end
$var reg 25 a hb_cnt [24:0] $end
$var reg 1 b hb_led $end
$var reg 1 c ml_anomaly_held $end
$var reg 3 d ml_class_held [2:0] $end
$var reg 3 e ml_prio_held [2:0] $end
$var reg 1 f prev_alert_r $end
$var reg 2 g thresh_sel [1:0] $end
$var reg 10 h uart_bit_cnt [9:0] $end
$var reg 4 i uart_bits [3:0] $end
$var reg 1 j uart_busy $end
$var reg 10 k uart_shift [9:0] $end
$var reg 1 l uart_tx $end
$var reg 8 m uo_out [7:0] $end
$scope module u_cascade $end
$var wire 1 n cascade_fire $end
$var wire 1 ' clk $end
$var wire 1 o event_any $end
$var wire 1 p is_spike_crash $end
$var wire 1 q is_stuff_crash $end
$var wire 1 r is_triple $end
$var wire 1 s is_vol_crash $end
$var wire 1 t ml_evt $end
$var wire 1 u new_is_flash $end
$var wire 1 + rst_n $end
$var wire 1 v rule_evt $end
$var wire 1 w test_flush $end
$var wire 3 x rule_alert_type [2:0] $end
$var wire 1 A rule_alert_any $end
$var wire 1 C ml_valid $end
$var wire 8 y ml_confidence [7:0] $end
$var wire 3 z ml_class [2:0] $end
$var wire 3 { h2_next [2:0] $end
$var wire 3 | h1_next [2:0] $end
$var wire 3 } event_code [2:0] $end
$var wire 9 ~ conf_x2_wide [8:0] $end
$var wire 8 !" conf_x2_sat [7:0] $end
$var wire 2 "" cascade_type_next [1:0] $end
$var parameter 32 #" CASCADE_HOLD $end
$var parameter 32 $" CASCADE_WINDOW $end
$var parameter 2 %" CT_SPIKE_CRASH $end
$var parameter 2 &" CT_STUFF_CRASH $end
$var parameter 2 '" CT_TRIPLE $end
$var parameter 2 (" CT_VOL_CRASH $end
$var reg 7 )" age_cnt [6:0] $end
$var reg 1 T cascade_alert $end
$var reg 1 S cascade_cb_load $end
$var reg 8 *" cascade_cb_param [7:0] $end
$var reg 2 +" cascade_type [1:0] $end
$var reg 6 ," hold_cnt [5:0] $end
$upscope $end
$scope module u_feat_extractor $end
$var wire 1 ' clk $end
$var wire 2 -" input_type [1:0] $end
$var wire 12 ." price_data [11:0] $end
$var wire 1 + rst_n $end
$var wire 12 /" volume_data [11:0] $end
$var wire 1 F match_valid $end
$var wire 8 0" match_price [7:0] $end
$var wire 1 1" is_volume $end
$var wire 1 2" is_sell $end
$var wire 1 3" is_price $end
$var wire 1 4" is_buy $end
$var reg 8 5" buy_count [7:0] $end
$var reg 12 6" cur_vol [11:0] $end
$var reg 8 7" feat1_acc [7:0] $end
$var reg 1 J feature_valid $end
$var reg 128 8" features [127:0] $end
$var reg 12 9" price_mad [11:0] $end
$var reg 14 :" price_sum4 [13:0] $end
$var reg 2 ;" ptr_s [1:0] $end
$var reg 8 <" sell_count [7:0] $end
$var reg 2 =" vol_ptr [1:0] $end
$var reg 14 >" vol_sum4 [13:0] $end
$var reg 8 ?" window_cnt [7:0] $end
$var integer 32 @" i [31:0] $end
$scope begin seq_main $end
$scope begin emit $end
$var reg 16 A" arr_tmp [15:0] $end
$var reg 12 B" delta_s [11:0] $end
$var reg 8 C" vol_avg8 [7:0] $end
$var reg 16 D" vr_tmp [15:0] $end
$upscope $end
$scope begin price_upd $end
$var reg 8 E" delta8 [7:0] $end
$var reg 12 F" pavg [11:0] $end
$var reg 12 G" pdelta [11:0] $end
$upscope $end
$upscope $end
$upscope $end
$scope module u_ml_engine $end
$var wire 1 ' clk $end
$var wire 1 J feature_valid $end
$var wire 128 H" features [127:0] $end
$var wire 1 + rst_n $end
$var wire 8 I" f_volrat [7:0] $end
$var wire 8 J" f_volat [7:0] $end
$var wire 8 K" f_price10 [7:0] $end
$var wire 8 L" f_price1 [7:0] $end
$var wire 8 M" f_imbal [7:0] $end
$var wire 8 N" f_arriv [7:0] $end
$var reg 3 O" c_class [2:0] $end
$var reg 8 P" c_conf [7:0] $end
$var reg 3 Q" ml_class [2:0] $end
$var reg 8 R" ml_confidence [7:0] $end
$var reg 1 C ml_valid $end
$scope begin classify $end
$upscope $end
$upscope $end
$scope module u_order_book $end
$var wire 1 4 cb_load $end
$var wire 2 S" cb_mode [1:0] $end
$var wire 8 T" cb_param [7:0] $end
$var wire 2 U" cb_state [1:0] $end
$var wire 1 ' clk $end
$var wire 1 V" crossing $end
$var wire 6 W" data_in [5:0] $end
$var wire 6 X" ext_data [5:0] $end
$var wire 2 Y" input_type [1:0] $end
$var wire 1 + rst_n $end
$var wire 4 Z" throttle_div [3:0] $end
$var wire 1 [" throttle_allow $end
$var wire 3 \" spread_guard [2:0] $end
$var wire 1 ]" order_gate $end
$var wire 7 ^" new_price [6:0] $end
$var wire 1 _" match_gate $end
$var wire 1 `" is_sell $end
$var wire 1 a" is_buy $end
$var wire 7 b" cross_threshold [6:0] $end
$var wire 1 P cb_active $end
$var wire 3 c" active_guard [2:0] $end
$var reg 7 d" best_ask [6:0] $end
$var reg 2 e" best_ask_idx [1:0] $end
$var reg 1 f" best_ask_valid $end
$var reg 7 g" best_bid [6:0] $end
$var reg 2 h" best_bid_idx [1:0] $end
$var reg 1 i" best_bid_valid $end
$var reg 9 j" cb_countdown [8:0] $end
$var reg 2 k" cb_mode_r [1:0] $end
$var reg 8 l" cb_param_r [7:0] $end
$var reg 2 m" empty_ask_slot [1:0] $end
$var reg 2 n" empty_bid_slot [1:0] $end
$var reg 1 o" has_empty_ask $end
$var reg 1 p" has_empty_bid $end
$var reg 8 q" match_price [7:0] $end
$var reg 1 F match_valid $end
$var reg 4 r" throttle_cnt [3:0] $end
$var integer 32 s" i3 [31:0] $end
$scope begin best_finder $end
$var reg 3 t" i [2:0] $end
$upscope $end
$scope begin slot_finder $end
$upscope $end
$upscope $end
$scope module u_rule_detector $end
$var wire 1 ' clk $end
$var wire 1 u" det_flash $end
$var wire 1 v" det_imbalance $end
$var wire 1 w" det_spread $end
$var wire 1 x" det_vol_dry $end
$var wire 1 y" det_vol_surge $end
$var wire 1 z" det_volatility $end
$var wire 12 {" flash_thresh [11:0] $end
$var wire 2 |" input_type [1:0] $end
$var wire 8 }" match_price [7:0] $end
$var wire 1 F match_valid $end
$var wire 12 ~" price_data [11:0] $end
$var wire 1 + rst_n $end
$var wire 12 !# spike_thresh [11:0] $end
$var wire 12 "# volume_data [11:0] $end
$var wire 13 ## vol_surge_thresh [12:0] $end
$var wire 12 $# vol_dry_thresh [11:0] $end
$var wire 12 %# vol_deviation [11:0] $end
$var wire 12 &# price_drop [11:0] $end
$var wire 12 '# price_delta [11:0] $end
$var wire 1 (# is_volume $end
$var wire 1 )# is_sell $end
$var wire 1 *# is_price $end
$var wire 1 +# is_buy $end
$var wire 1 ,# det_velocity $end
$var wire 1 -# det_spike $end
$var wire 3 .# alert_type [2:0] $end
$var wire 3 /# alert_priority [2:0] $end
$var wire 8 0# alert_bitmap [7:0] $end
$var wire 1 A alert_any $end
$var parameter 5 1# VELOCITY_THRESH $end
$var parameter 32 2# VOL_DRY_DIV $end
$var parameter 32 3# VOL_SURGE_MULT $end
$var reg 3 4# buy_order_count [2:0] $end
$var reg 12 5# current_price [11:0] $end
$var reg 12 6# current_volume [11:0] $end
$var reg 5 7# match_counter [4:0] $end
$var reg 5 8# match_rate [4:0] $end
$var reg 12 9# prev_price [11:0] $end
$var reg 12 :# price_avg [11:0] $end
$var reg 12 ;# price_mad [11:0] $end
$var reg 2 <# price_ptr [1:0] $end
$var reg 14 =# price_sum [13:0] $end
$var reg 3 ># sell_order_count [2:0] $end
$var reg 12 ?# vol_avg [11:0] $end
$var reg 2 @# vol_ptr [1:0] $end
$var reg 14 A# vol_sum [13:0] $end
$var reg 8 B# window_timer [7:0] $end
$var integer 32 C# i [31:0] $end
$upscope $end
$upscope $end
$scope task chk $end
$upscope $end
$scope task idle $end
$var integer 32 D# n [31:0] $end
$upscope $end
$scope task sb $end
$var reg 6 E# q [5:0] $end
$upscope $end
$scope task sp $end
$var reg 12 F# p [11:0] $end
$upscope $end
$scope task ss $end
$var reg 6 G# q [5:0] $end
$upscope $end
$scope task sv $end
$var reg 12 H# v [11:0] $end
$upscope $end
$upscope $end
$enddefinitions $end
$comment Show the parameter values. $end
$dumpall
b10 3#
b100 2#
b11110 1#
b0 ("
b11 '"
b10 &"
b1 %"
b1000000 $"
b100000 #"
b1011111010111100001000000 [
b10111110101111000010000000 Z
b110110010 Y
$end
#0
$dumpvars
bx H#
bx G#
bx F#
bx E#
bx D#
bx C#
bx B#
bx A#
bx @#
bx ?#
bx >#
bx =#
bx <#
bx ;#
bx :#
bx 9#
bx 8#
bx 7#
bx 6#
bx 5#
bx 4#
bx 0#
bx /#
bx .#
x-#
x,#
0+#
1*#
0)#
0(#
bx '#
bx &#
bx %#
b0xxxxxxxx $#
bx00 ##
b0 "#
b0xxxxxx !#
b0 ~"
bx }"
b0 |"
b0xxxxx0 {"
xz"
xy"
xx"
xw"
xv"
xu"
bx t"
bx s"
bx r"
bx q"
xp"
xo"
bx n"
bx m"
bx l"
bx k"
bx j"
xi"
bx h"
bx g"
xf"
bx e"
bx d"
bx c"
bx b"
0a"
0`"
x_"
b0 ^"
x]"
bx \"
x["
bx Z"
b0 Y"
b0 X"
b0 W"
xV"
bx U"
bx T"
bx S"
bx R"
bx Q"
bx P"
bx O"
bx N"
bx M"
bx L"
bx K"
bx J"
bx I"
bx H"
bx G"
bx F"
bx E"
bx D"
bx C"
bx B"
bx A"
bx @"
bx ?"
bx >"
bx ="
bx <"
bx ;"
bx :"
bx 9"
bx 8"
bx 7"
bx 6"
bx 5"
04"
13"
02"
01"
bx 0"
b0 /"
b0 ."
b0 -"
bx ,"
bx +"
bx *"
bx )"
bx ""
bx !"
bx0 ~
bx }
bx |
bx {
bx z
bx y
bx x
0w
xv
xu
xt
xs
xr
xq
xp
xo
xn
bx m
xl
bx k
xj
bx i
bx h
bx g
xf
bx e
bx d
xc
xb
bx a
bx `
bx _
bx ^
bx ]
x\
b0xxxxx0 X
b0xxxxxx W
xV
0U
xT
xS
bx R
bx Q
xP
bx O
bx N
bx M
bx L
bx K
xJ
bx I
b0 H
bx G
xF
bx E
bx D
xC
b0 B
xA
bx @
bx ?
bx >
bx =
bx <
b0 ;
b11111111 :
b0 9
b0 8
x7
06
x5
x4
bx 3
b0 2
bx 1
b0 0
b0 /
b0 .
b0 -
b0 ,
0+
0*
0)
1(
0'
x&
bx %
bx $
bx #
bx "
b11111111 !
$end
#10000
0u
b1 $
b1 %
b1 L
b1 }
b1 K
17
1&
b1 ?
b1 /#
b1 >
b1 x
b1 .#
0n
b0 ""
15
0r
0z"
1o
b0 !"
0V"
b0 %#
0u"
0w"
0v"
0y"
1v
1A
1x"
0s
0p
0q
b0 Z"
b0 \"
1]"
1_"
b1111111 b"
b0 c"
1o"
b0 m"
1p"
b0 n"
b100 t"
b0 e"
0f"
b1111111 d"
b0 h"
0i"
b0 g"
0-#
b0 '#
b0 &#
b110010000 ##
b110 $#
b0 ~
b0 `
b0 ^
0t
04
0V
b0 {
b0 |
b10100 W
b10100 !#
b101000 X
b101000 {"
b0 N
b0 T"
b0 O
b0 S"
b100100 =
b0 #
b0 <
b10010001 "
b10010001 m
0J
b0 7"
b0 ?"
b0 <"
b0 5"
b1100100 6"
b110010000 >"
b101 9"
b110010000 :"
b0 ="
b0 ;"
1["
b0 r"
b0 l"
b0 j"
0P
b0 M
b0 U"
b0 k"
b0 G
b0 0"
b0 q"
b0 }"
0F
b101 ;#
b0 6#
b1100100 9#
b1100100 5#
b0 >#
b0 4#
b10 @
b10 0#
0,#
b0 8#
b0 B#
b0 7#
b1100100 ?#
b1100100 :#
b0 A#
b0 =#
b0 @#
b0 <#
b0 D
b0 y
b0 R"
b0 E
b0 z
b0 Q"
0C
b0 ,"
b0 R
b0 *"
0S
b0 Q
b0 +"
0T
b0 )"
b1 g
0\
b0 _
b0 ]
b0 e
0c
b0 d
0f
b0 i
b0 h
b1111111111 k
1l
0j
0b
b0 a
b100 @"
b100 s"
b100 C#
b1 /
1'
#20000
0'
#30000
b100 @"
b100 C#
b100 s"
b10 /
1'
#40000
0'
#50000
b100 @"
b100 s"
b100 C#
b11 /
1'
#60000
0'
#70000
b100 @"
b100 C#
b100 s"
b100 /
1'
#80000
0'
#90000
b110 $
b110 %
b11100110 "
b11100110 m
b110 L
b110 }
b11011000 =
b110 K
b110 ?
b110 /#
b110 >
b110 x
b110 .#
1z"
07
b1010100 %#
b1000011 @
b1000011 0#
1-#
b1100100 '#
b1 |
b1 ?"
b1100 7"
b1 ;"
b100101100 :"
b1 B#
b10000 ;#
b0 :#
b1 <#
b11111110011100 =#
b0 5#
1f
0l
1j
b1001001000 k
b1 a
b1100100 E"
b1100100 G"
b1100100 F"
b101 /
1+
1'
#91000
b110010 ^"
b1 X"
b1100100 B
b1100100 ."
b1100100 ~"
b1100100 ;
b1100100 /"
b1100100 "#
b100100 W"
b1 -
b1 9
b100100 ,
b100100 8
b1100100 F#
#100000
0'
#110000
b111 $
b111 %
b11110111 "
b11110111 m
b111 L
b111 }
b11111100 =
b111 K
b111 ?
b111 /#
b111 >
b111 x
b111 .#
0z"
b10000011 @
b10000011 0#
1u"
b110 |
b1 {
b1001010 %#
b111110000011 &#
b10 ?"
b1110 7"
b100 9"
b10 ;"
b10 a
b1 h
b10 B#
b11010 ;#
b111111100111 :#
b10 <#
b1100100 5#
b0 9#
b11001 E"
b11001 G"
b1001011 F"
b110 /
1'
#111000
03"
11"
0*#
1(#
b1 H
b1 -"
b1 Y"
b1 |"
b1100100 ,
b1100100 8
b1100100 H#
b1 2
#120000
0'
#130000
b0 ##
b0 $#
b10000001 @
b10000001 0#
0x"
b111 |
b110 {
b11 ?"
b1 ="
b11 B#
b0 ?#
b1 @#
b1100100 6#
b10 h
b11 a
b111 /
1'
#131000
b10 ^"
b0 X"
01"
14"
1a"
0(#
1+#
b10 H
b10 -"
b10 Y"
b10 |"
b101 B
b101 ."
b101 ~"
b101 ;
b101 /"
b101 "#
b101 W"
b0 -
b0 9
b10000101 ,
b10000101 8
b101 E#
#140000
0'
#150000
b111 {
b0 m"
b1 n"
1o"
1p"
1i"
b10 g"
b100 t"
b100 ?"
b1 5"
b100 a
b11 h
b100 B#
b1 4#
b1000 /
1'
#151000
04"
12"
0a"
1`"
0+#
1)#
b11 H
b11 -"
b11 Y"
b11 |"
b11000101 ,
b11000101 8
b101 G#
#160000
0'
#170000
1V"
b1 m"
1o"
1p"
b1 n"
1f"
b10 b"
b10 d"
b100 t"
1i"
b10 g"
b101 ?"
b1 <"
b101 B#
b1 >#
b100 h
b101 a
b1001 /
1'
#171000
b110010 ^"
b1 X"
13"
02"
0`"
1*#
0)#
b0 H
b0 -"
b0 Y"
b0 |"
b1100100 B
b1100100 ."
b1100100 ~"
b1100100 ;
b1100100 /"
b1100100 "#
b100100 W"
b1 -
b1 9
b100100 ,
b100100 8
#180000
0'
#190000
0V"
b0 %#
b10000000 @
b10000000 0#
0-#
b0 '#
1o"
b0 m"
1p"
b0 n"
b100 t"
0f"
b1111111 b"
b1111111 d"
0i"
b0 g"
b10 #
b10 <
b11111111 "
b11111111 m
b110 ?"
b10000 7"
b11 9"
b11 ;"
b110 a
b101 h
b110 B#
b1000000111 ;#
b11 <#
b1100100 9#
b10 G
b10 0"
b10 q"
b10 }"
1F
b1010 /
1'
#191000
03"
11"
0*#
1(#
b1 H
b1 -"
b1 Y"
b1 |"
b1100100 ,
b1100100 8
b10 2
#200000
0'
#210000
b0 #
b0 <
b11110111 "
b11110111 m
b111 ?"
b10 ="
0F
b111 B#
b1 7#
b10 @#
b110 h
b111 a
b1011 /
1'
#211000
b10 ^"
b0 X"
01"
14"
1a"
0(#
1+#
b10 H
b10 -"
b10 Y"
b10 |"
b101 B
b101 ."
b101 ~"
b101 ;
b101 /"
b101 "#
b101 W"
b0 -
b0 9
b10000101 ,
b10000101 8
#220000
0'
#230000
b10010000 @
b10010000 0#
1v"
b0 m"
b1 n"
1o"
1p"
1i"
b10 g"
b100 t"
b1000 ?"
b10 5"
b1000 a
b111 h
b1000 B#
b10 4#
b1100 /
1'
#231000
04"
12"
0a"
1`"
0+#
1)#
b11 H
b11 -"
b11 Y"
b11 |"
b11000101 ,
b11000101 8
#240000
0'
#250000
1V"
b1 m"
1o"
1p"
b1 n"
1f"
b10 b"
b10 d"
b100 t"
1i"
b10 g"
b1001 ?"
b10 <"
b1001 B#
b10 >#
b1000 h
b1001 a
b1101 /
1'
#251000
b110010 ^"
b1 X"
13"
02"
0`"
1*#
0)#
b0 H
b0 -"
b0 Y"
b0 |"
b1100100 B
b1100100 ."
b1100100 ~"
b1100100 ;
b1100100 /"
b1100100 "#
b100100 W"
b1 -
b1 9
b100100 ,
b100100 8
#260000
0'
#270000
0V"
1o"
b0 m"
1p"
b0 n"
b100 t"
0f"
b1111111 b"
b1111111 d"
0i"
b0 g"
b10 #
b10 <
b11111111 "
b11111111 m
b1010 ?"
b10001 7"
b10 9"
b0 ;"
b1010 a
b1001 h
b1010 B#
b1110110110 ;#
b0 <#
1F
b1110 /
1'
#271000
03"
11"
0*#
1(#
b1 H
b1 -"
b1 Y"
b1 |"
b1100100 ,
b1100100 8
b11 2
#280000
0'
#290000
b0 #
b0 <
b11110111 "
b11110111 m
b1011 ?"
b11 ="
0F
b1011 B#
b10 7#
b11 @#
b1010 h
b1011 a
b1111 /
1'
#291000
b10 ^"
b0 X"
01"
14"
1a"
0(#
1+#
b10 H
b10 -"
b10 Y"
b10 |"
b101 B
b101 ."
b101 ~"
b101 ;
b101 /"
b101 "#
b101 W"
b0 -
b0 9
b10000101 ,
b10000101 8
#300000
0'
#310000
b0 m"
b1 n"
1o"
1p"
1i"
b10 g"
b100 t"
b1100 ?"
b11 5"
b1100 a
b1011 h
b1100 B#
b11 4#
b10000 /
1'
#311000
04"
12"
0a"
1`"
0+#
1)#
b11 H
b11 -"
b11 Y"
b11 |"
b11000101 ,
b11000101 8
#320000
0'
#330000
b10000000 @
b10000000 0#
0v"
1V"
b1 m"
1o"
1p"
b1 n"
1f"
b10 b"
b10 d"
b100 t"
1i"
b10 g"
b1101 ?"
b11 <"
b1101 B#
b11 >#
b1100 h
b1101 a
b10001 /
1'
#331000
b110010 ^"
b1 X"
13"
02"
0`"
1*#
0)#
b0 H
b0 -"
b0 Y"
b0 |"
b1100100 B
b1100100 ."
b1100100 ~"
b1100100 ;
b1100100 /"
b1100100 "#
b100100 W"
b1 -
b1 9
b100100 ,
b100100 8
#340000
0'
#350000
0V"
1o"
b0 m"
1p"
b0 n"
b100 t"
0f"
b1111111 b"
b1111111 d"
0i"
b0 g"
b10 #
b10 <
b11111111 "
b11111111 m
b1110 ?"
b10010 7"
b1 9"
b1 ;"
b110010000 :"
b1110 a
b1101 h
b1110 B#
b10100101111 ;#
b1 <#
b0 =#
1F
b10010 /
1'
#351000
03"
11"
0*#
1(#
b1 H
b1 -"
b1 Y"
b1 |"
b1100100 ,
b1100100 8
b100 2
#360000
0'
#370000
b0 #
b0 <
b11110111 "
b11110111 m
b1111 ?"
b0 ="
0F
b1111 B#
b11 7#
b0 @#
b1110 h
b1111 a
b10011 /
1'
#371000
b10 ^"
b0 X"
01"
14"
1a"
0(#
1+#
b10 H
b10 -"
b10 Y"
b10 |"
b101 B
b101 ."
b101 ~"
b101 ;
b101 /"
b101 "#
b101 W"
b0 -
b0 9
b10000101 ,
b10000101 8
#380000
0'
#390000
b10010000 @
b10010000 0#
1v"
b0 m"
b1 n"
1o"
1p"
1i"
b10 g"
b100 t"
b10000 ?"
b100 5"
b10000 a
b1111 h
b10000 B#
b100 4#
b10100 /
1'
#391000
04"
12"
0a"
1`"
0+#
1)#
b11 H
b11 -"
b11 Y"
b11 |"
b11000101 ,
b11000101 8
#400000
0'
#410000
1V"
b1 m"
1o"
1p"
b1 n"
1f"
b10 b"
b10 d"
b100 t"
1i"
b10 g"
b10001 ?"
b100 <"
b10001 B#
b100 >#
b10000 h
b10001 a
b10101 /
1'
#411000
b110010 ^"
b1 X"
13"
02"
0`"
1*#
0)#
b0 H
b0 -"
b0 Y"
b0 |"
b1100100 B
b1100100 ."
b1100100 ~"
b1100100 ;
b1100100 /"
b1100100 "#
b100100 W"
b1 -
b1 9
b100100 ,
b100100 8
#420000
0'
#430000
b100 $
b100 %
b100 L
b100 }
b10010000 =
b100 K
b100 ?
b100 /#
b100 >
b100 x
b100 .#
0V"
b0 &#
b10000 @
b10000 0#
0u"
1o"
b0 m"
1p"
b0 n"
b100 t"
0f"
b1111111 b"
b1111111 d"
0i"
b0 g"
b10 #
b10 <
b11001100 "
b11001100 m
b10010 ?"
b10000 7"
b0 9"
b10 ;"
b10010 a
b10001 h
b10010 B#
b11001111001 ;#
b0 :#
b10 <#
1F
b0 E"
b0 G"
b1100100 F"
b10110 /
1'
#431000
03"
11"
0*#
1(#
b1 H
b1 -"
b1 Y"
b1 |"
b1100100 ,
b1100100 8
b101 2
#440000
0'
#450000
b0 #
b0 <
b11000100 "
b11000100 m
b100 |
b10011 ?"
b1 ="
0F
b10011 B#
b100 7#
b1 @#
b10010 h
b10011 a
b10111 /
1'
#451000
b10 ^"
b0 X"
01"
14"
1a"
0(#
1+#
b10 H
b10 -"
b10 Y"
b10 |"
b101 B
b101 ."
b101 ~"
b101 ;
b101 /"
b101 "#
b101 W"
b0 -
b0 9
b10000101 ,
b10000101 8
#460000
0'
#470000
b100 {
b0 m"
b1 n"
1o"
1p"
1i"
b10 g"
b100 t"
b10100 ?"
b101 5"
b10100 a
b10011 h
b10100 B#
b101 4#
b11000 /
1'
#471000
04"
12"
0a"
1`"
0+#
1)#
b11 H
b11 -"
b11 Y"
b11 |"
b11000101 ,
b11000101 8
#480000
0'
#490000
1V"
b1 m"
1o"
1p"
b1 n"
1f"
b10 b"
b10 d"
b100 t"
1i"
b10 g"
b10101 ?"
b101 <"
b10101 B#
b101 >#
b10100 h
b10101 a
b11001 /
1'
#491000
b110010 ^"
b1 X"
13"
02"
0`"
1*#
0)#
b0 H
b0 -"
b0 Y"
b0 |"
b1100100 B
b1100100 ."
b1100100 ~"
b1100100 ;
b1100100 /"
b1100100 "#
b100100 W"
b1 -
b1 9
b100100 ,
b100100 8
#500000
0'
#510000
0V"
1o"
b0 m"
1p"
b0 n"
b100 t"
0f"
b1111111 b"
b1111111 d"
0i"
b0 g"
b10 #
b10 <
b11001100 "
b11001100 m
b10110 ?"
b1110 7"
b11 ;"
b10110 a
b10101 h
b10110 B#
b10110110110 ;#
b11 <#
1F
b11010 /
1'
#511000
03"
11"
0*#
1(#
b1 H
b1 -"
b1 Y"
b1 |"
b1100100 ,
b1100100 8
b110 2
#520000
0'
#530000
b0 #
b0 <
b11000100 "
b11000100 m
b10111 ?"
b10 ="
0F
b10111 B#
b101 7#
b10 @#
b10110 h
b10111 a
b11011 /
1'
#531000
b10 ^"
b0 X"
01"
14"
1a"
0(#
1+#
b10 H
b10 -"
b10 Y"
b10 |"
b101 B
b101 ."
b101 ~"
b101 ;
b101 /"
b101 "#
b101 W"
b0 -
b0 9
b10000101 ,
b10000101 8
#540000
0'
#550000
b0 m"
b1 n"
1o"
1p"
1i"
b10 g"
b100 t"
b11000 ?"
b110 5"
b11000 a
b10111 h
b11000 B#
b110 4#
b11100 /
1'
#551000
04"
12"
0a"
1`"
0+#
1)#
b11 H
b11 -"
b11 Y"
b11 |"
b11000101 ,
b11000101 8
#560000
0'
#570000
1V"
b1 m"
1o"
1p"
b1 n"
1f"
b10 b"
b10 d"
b100 t"
1i"
b10 g"
b11001 ?"
b110 <"
b11001 B#
b110 >#
b11000 h
b11001 a
b11101 /
1'
#571000
b110010 ^"
b1 X"
13"
02"
0`"
1*#
0)#
b0 H
b0 -"
b0 Y"
b0 |"
b1100100 B
b1100100 ."
b1100100 ~"
b1100100 ;
b1100100 /"
b1100100 "#
b100100 W"
b1 -
b1 9
b100100 ,
b100100 8
#580000
0'
#590000
0V"
1o"
b0 m"
1p"
b0 n"
b100 t"
0f"
b1111111 b"
b1111111 d"
0i"
b0 g"
b10 #
b10 <
b11001100 "
b11001100 m
b11010 ?"
b1101 7"
b0 ;"
b11010 a
b11001 h
b11010 B#
b10100001011 ;#
b0 <#
1F
b11110 /
1'
#591000
03"
11"
0*#
1(#
b1 H
b1 -"
b1 Y"
b1 |"
b1100100 ,
b1100100 8
b111 2
#600000
0'
#610000
b0 #
b0 <
b11000100 "
b11000100 m
b11011 ?"
b11 ="
0F
b11011 B#
b110 7#
b11 @#
b11010 h
b11011 a
b11111 /
1'
#611000
b10 ^"
b0 X"
01"
14"
1a"
0(#
1+#
b10 H
b10 -"
b10 Y"
b10 |"
b101 B
b101 ."
b101 ~"
b101 ;
b101 /"
b101 "#
b101 W"
b0 -
b0 9
b10000101 ,
b10000101 8
#620000
0'
#630000
b0 m"
b1 n"
1o"
1p"
1i"
b10 g"
b100 t"
b11100 ?"
b111 5"
b11100 a
b11011 h
b11100 B#
b111 4#
b100000 /
1'
#631000
04"
12"
0a"
1`"
0+#
1)#
b11 H
b11 -"
b11 Y"
b11 |"
b11000101 ,
b11000101 8
#640000
0'
#650000
1V"
b1 m"
1o"
1p"
b1 n"
1f"
b10 b"
b10 d"
b100 t"
1i"
b10 g"
b11101 ?"
b111 <"
b11101 B#
b111 >#
b11100 h
b11101 a
b100001 /
1'
#651000
b110010 ^"
b1 X"
13"
02"
0`"
1*#
0)#
b0 H
b0 -"
b0 Y"
b0 |"
b1100100 B
b1100100 ."
b1100100 ~"
b1100100 ;
b1100100 /"
b1100100 "#
b100100 W"
b1 -
b1 9
b100100 ,
b100100 8
#660000
0'
#670000
0V"
1o"
b0 m"
1p"
b0 n"
b100 t"
0f"
b1111111 b"
b1111111 d"
0i"
b0 g"
b10 #
b10 <
b11001100 "
b11001100 m
b11110 ?"
b1100 7"
b1 ;"
b11110 a
b11101 h
b11110 B#
b10001110110 ;#
b1 <#
1F
b100010 /
1'
#671000
03"
11"
0*#
1(#
b1 H
b1 -"
b1 Y"
b1 |"
b1100100 ,
b1100100 8
b1000 2
#680000
0'
#690000
b0 #
b0 <
b11000100 "
b11000100 m
b11111 ?"
b0 ="
0F
b11111 B#
b111 7#
b0 @#
b11110 h
b11111 a
b100011 /
1'
#691000
b10 ^"
b0 X"
01"
14"
1a"
0(#
1+#
b10 H
b10 -"
b10 Y"
b10 |"
b101 B
b101 ."
b101 ~"
b101 ;
b101 /"
b101 "#
b101 W"
b0 -
b0 9
b10000101 ,
b10000101 8
#700000
0'
#710000
b0 m"
b1 n"
1o"
1p"
1i"
b10 g"
b100 t"
b100000 ?"
b1000 5"
b100000 a
b11111 h
b100000 B#
b100100 /
1'
#711000
04"
12"
0a"
1`"
0+#
1)#
b11 H
b11 -"
b11 Y"
b11 |"
b11000101 ,
b11000101 8
#720000
0'
