nanotrade.vcd
$date
	Tue Feb 17 23:39:45 2026
$end
$version
	Icarus Verilog
$end
$timescale
	1ps
$end
$scope module tb_nanotrade $end
$var wire 8 ! uio_oe [7:0] $end
$var wire 8 " uo_out [7:0] $end
$var wire 8 # uio_out [7:0] $end
$var wire 1 $ ml_valid_out $end
$var wire 4 % ml_conf_nibble [3:0] $end
$var wire 3 & ml_class_out [2:0] $end
$var wire 1 ' match_valid $end
$var wire 3 ( alert_type [2:0] $end
$var wire 3 ) alert_priority [2:0] $end
$var wire 1 * alert_flag $end
$var reg 1 + clk $end
$var reg 1 , ena $end
$var reg 1 - prev_alert $end
$var reg 3 . prev_prio [2:0] $end
$var reg 3 / prev_type [2:0] $end
$var reg 1 0 rst_n $end
$var reg 8 1 ui_in [7:0] $end
$var reg 8 2 uio_in [7:0] $end
$var integer 32 3 cycle_count [31:0] $end
$var integer 32 4 flash_crashes [31:0] $end
$var integer 32 5 ml_inferences [31:0] $end
$var integer 32 6 total_alerts [31:0] $end
$var integer 32 7 total_matches [31:0] $end
$scope function alert_name_full $end
$var reg 3 8 t [2:0] $end
$upscope $end
$scope function conf_bar $end
$var reg 4 9 c [3:0] $end
$upscope $end
$scope function ml_class_name $end
$var reg 3 : c [2:0] $end
$upscope $end
$scope function prio_bar $end
$var reg 3 ; p [2:0] $end
$upscope $end
$scope module dut $end
$var wire 1 + clk $end
$var wire 1 < comb_alert $end
$var wire 1 = config_strobe $end
$var wire 1 , ena $end
$var wire 1 0 rst_n $end
$var wire 1 > uart_trigger $end
$var wire 8 ? ui_in [7:0] $end
$var wire 8 @ uio_in [7:0] $end
$var wire 8 A uio_oe [7:0] $end
$var wire 12 B vol_data [11:0] $end
$var wire 8 C uio_out [7:0] $end
$var wire 8 D uart_payload [7:0] $end
$var wire 3 E rule_alert_type [2:0] $end
$var wire 3 F rule_alert_priority [2:0] $end
$var wire 8 G rule_alert_bitmap [7:0] $end
$var wire 1 H rule_alert_any $end
$var wire 12 I price_data [11:0] $end
$var wire 1 J ml_valid $end
$var wire 8 K ml_confidence [7:0] $end
$var wire 3 L ml_class [2:0] $end
$var wire 1 M match_valid $end
$var wire 8 N match_price [7:0] $end
$var wire 2 O input_type [1:0] $end
$var wire 128 P features [127:0] $end
$var wire 1 Q feature_valid $end
$var wire 3 R comb_type [2:0] $end
$var wire 3 S comb_priority [2:0] $end
$var wire 1 T _unused $end
$var wire 12 U SPIKE_THRESH [11:0] $end
$var wire 12 V FLASH_THRESH [11:0] $end
$var parameter 32 W BAUD_DIV $end
$var parameter 32 X CLK_HZ $end
$var parameter 32 Y HB_DIV $end
$var reg 25 Z hb_cnt [24:0] $end
$var reg 1 [ hb_led $end
$var reg 1 \ ml_anomaly_held $end
$var reg 3 ] ml_class_held [2:0] $end
$var reg 8 ^ ml_conf_held [7:0] $end
$var reg 3 _ ml_prio_held [2:0] $end
$var reg 1 ` prev_alert_r $end
$var reg 2 a thresh_sel [1:0] $end
$var reg 10 b uart_bit_cnt [9:0] $end
$var reg 4 c uart_bits [3:0] $end
$var reg 1 d uart_busy $end
$var reg 10 e uart_shift [9:0] $end
$var reg 1 f uart_tx $end
$var reg 8 g uo_out [7:0] $end
$scope module u_feat_extractor $end
$var wire 1 + clk $end
$var wire 2 h input_type [1:0] $end
$var wire 12 i price_data [11:0] $end
$var wire 1 0 rst_n $end
$var wire 12 j volume_data [11:0] $end
$var wire 1 M match_valid $end
$var wire 8 k match_price [7:0] $end
$var wire 1 l is_volume $end
$var wire 1 m is_sell $end
$var wire 1 n is_price $end
$var wire 1 o is_buy $end
$var reg 8 p buy_count [7:0] $end
$var reg 12 q cur_price [11:0] $end
$var reg 12 r cur_vol [11:0] $end
$var reg 1 Q feature_valid $end
$var reg 128 s features [127:0] $end
$var reg 12 t local_avg [11:0] $end
$var reg 12 u local_delta [11:0] $end
$var reg 8 v match_count [7:0] $end
$var reg 8 w match_rate [7:0] $end
$var reg 12 x price_avg [11:0] $end
$var reg 12 y price_mad [11:0] $end
$var reg 12 z price_prev1 [11:0] $end
$var reg 12 { price_prev2 [11:0] $end
$var reg 15 | price_sum8 [14:0] $end
$var reg 6 } ptr_l [5:0] $end
$var reg 5 ~ ptr_m [4:0] $end
$var reg 3 !" ptr_s [2:0] $end
$var reg 8 "" sell_count [7:0] $end
$var reg 16 #" trade_timer [15:0] $end
$var reg 12 $" vol_avg [11:0] $end
$var reg 3 %" vol_ptr [2:0] $end
$var reg 15 &" vol_sum8 [14:0] $end
$var reg 8 '" window_cnt [7:0] $end
$var integer 32 (" i [31:0] $end
$scope function clip8 $end
$var reg 12 )" x [11:0] $end
$upscope $end
$scope function clip8_16 $end
$var reg 16 *" x [15:0] $end
$upscope $end
$scope function imbalance_byte $end
$var reg 8 +" buys [7:0] $end
$var reg 16 ," num [15:0] $end
$var reg 8 -" sells [7:0] $end
$var reg 16 ." total [15:0] $end
$upscope $end
$scope function momentum_byte $end
$var reg 13 /" d1 [12:0] $end
$var reg 13 0" d2 [12:0] $end
$var reg 13 1" mom [12:0] $end
$var reg 12 2" p0 [11:0] $end
$var reg 12 3" p1 [11:0] $end
$var reg 12 4" p2 [11:0] $end
$upscope $end
$scope function price_delta $end
$var reg 12 5" a [11:0] $end
$var reg 12 6" b [11:0] $end
$var reg 12 7" d [11:0] $end
$upscope $end
$scope function spread_byte $end
$var reg 8 8" asks [7:0] $end
$var reg 8 9" bids [7:0] $end
$upscope $end
$scope function vol_ratio_byte $end
$var reg 12 :" avg [11:0] $end
$var reg 12 ;" cur [11:0] $end
$var reg 20 <" num [19:0] $end
$upscope $end
$upscope $end
$scope module u_ml_engine $end
$var wire 1 + clk $end
$var wire 1 Q feature_valid $end
$var wire 128 =" features [127:0] $end
$var wire 1 0 rst_n $end
$var reg 32 >" acc2_tmp [31:0] $end
$var reg 3 ?" best_class [2:0] $end
$var reg 32 @" gap [31:0] $end
$var reg 32 A" max_logit [31:0] $end
$var reg 32 B" min_logit [31:0] $end
$var reg 3 C" ml_class [2:0] $end
$var reg 8 D" ml_confidence [7:0] $end
$var reg 1 J ml_valid $end
$var reg 1 E" s0_valid $end
$var reg 1 F" s1_valid $end
$var reg 1 G" s2_valid $end
$var integer 32 H" h1 [31:0] $end
$var integer 32 I" h2 [31:0] $end
$var integer 32 J" i1 [31:0] $end
$var integer 32 K" j3 [31:0] $end
$var integer 32 L" k [31:0] $end
$var integer 32 M" o2 [31:0] $end
$scope function rom_b1 $end
$var reg 2 N" addr [1:0] $end
$upscope $end
$scope function rom_b2 $end
$var reg 3 O" addr [2:0] $end
$upscope $end
$scope function rom_w1 $end
$var reg 6 P" addr [5:0] $end
$upscope $end
$scope function rom_w2 $end
$var reg 5 Q" addr [4:0] $end
$upscope $end
$scope begin unpack[0] $end
$var parameter 2 R" gi $end
$upscope $end
$scope begin unpack[1] $end
$var parameter 2 S" gi $end
$upscope $end
$scope begin unpack[2] $end
$var parameter 3 T" gi $end
$upscope $end
$scope begin unpack[3] $end
$var parameter 3 U" gi $end
$upscope $end
$scope begin unpack[4] $end
$var parameter 4 V" gi $end
$upscope $end
$scope begin unpack[5] $end
$var parameter 4 W" gi $end
$upscope $end
$scope begin unpack[6] $end
$var parameter 4 X" gi $end
$upscope $end
$scope begin unpack[7] $end
$var parameter 4 Y" gi $end
$upscope $end
$scope begin unpack[8] $end
$var parameter 5 Z" gi $end
$upscope $end
$scope begin unpack[9] $end
$var parameter 5 [" gi $end
$upscope $end
$scope begin unpack[10] $end
$var parameter 5 \" gi $end
$upscope $end
$scope begin unpack[11] $end
$var parameter 5 ]" gi $end
$upscope $end
$scope begin unpack[12] $end
$var parameter 5 ^" gi $end
$upscope $end
$scope begin unpack[13] $end
$var parameter 5 _" gi $end
$upscope $end
$scope begin unpack[14] $end
$var parameter 5 `" gi $end
$upscope $end
$scope begin unpack[15] $end
$var parameter 5 a" gi $end
$upscope $end
$upscope $end
$scope module u_order_book $end
$var wire 1 + clk $end
$var wire 6 b" data_in [5:0] $end
$var wire 6 c" ext_data [5:0] $end
$var wire 2 d" input_type [1:0] $end
$var wire 1 e" is_order $end
$var wire 1 0 rst_n $end
$var wire 7 f" new_price [6:0] $end
$var wire 1 g" is_sell $end
$var wire 1 h" is_buy $end
$var reg 7 i" best_ask [6:0] $end
$var reg 2 j" best_ask_idx [1:0] $end
$var reg 1 k" best_ask_valid $end
$var reg 7 l" best_bid [6:0] $end
$var reg 2 m" best_bid_idx [1:0] $end
$var reg 1 n" best_bid_valid $end
$var reg 2 o" empty_ask_slot [1:0] $end
$var reg 2 p" empty_bid_slot [1:0] $end
$var reg 1 q" has_empty_ask $end
$var reg 1 r" has_empty_bid $end
$var reg 8 s" match_price [7:0] $end
$var reg 1 M match_valid $end
$var integer 32 t" i [31:0] $end
$upscope $end
$scope module u_rule_detector $end
$var wire 1 + clk $end
$var wire 1 u" det_flash $end
$var wire 1 v" det_imbalance $end
$var wire 1 w" det_spread $end
$var wire 1 x" det_vol_dry $end
$var wire 1 y" det_vol_surge $end
$var wire 1 z" det_volatility $end
$var wire 12 {" flash_thresh [11:0] $end
$var wire 2 |" input_type [1:0] $end
$var wire 8 }" match_price [7:0] $end
$var wire 1 M match_valid $end
$var wire 12 ~" price_data [11:0] $end
$var wire 1 0 rst_n $end
$var wire 12 !# spike_thresh [11:0] $end
$var wire 12 "# volume_data [11:0] $end
$var wire 13 ## vol_surge_thresh [12:0] $end
$var wire 12 $# vol_dry_thresh [11:0] $end
$var wire 12 %# vol_deviation [11:0] $end
$var wire 12 &# price_drop [11:0] $end
$var wire 12 '# price_delta [11:0] $end
$var wire 1 (# is_volume $end
$var wire 1 )# is_sell $end
$var wire 1 *# is_price $end
$var wire 1 +# is_buy $end
$var wire 1 ,# det_velocity $end
$var wire 1 -# det_spike $end
$var wire 3 .# alert_type [2:0] $end
$var wire 3 /# alert_priority [2:0] $end
$var wire 8 0# alert_bitmap [7:0] $end
$var wire 1 H alert_any $end
$var parameter 6 1# VELOCITY_THRESH $end
$var parameter 32 2# VOL_DRY_DIV $end
$var parameter 32 3# VOL_SURGE_MULT $end
$var reg 4 4# buy_order_count [3:0] $end
$var reg 12 5# current_price [11:0] $end
$var reg 12 6# current_volume [11:0] $end
$var reg 6 7# match_counter [5:0] $end
$var reg 6 8# match_rate [5:0] $end
$var reg 12 9# prev_price [11:0] $end
$var reg 12 :# price_avg [11:0] $end
$var reg 12 ;# price_mad [11:0] $end
$var reg 3 <# price_ptr [2:0] $end
$var reg 15 =# price_sum [14:0] $end
$var reg 4 ># sell_order_count [3:0] $end
$var reg 12 ?# vol_avg [11:0] $end
$var reg 3 @# vol_ptr [2:0] $end
$var reg 15 A# vol_sum [14:0] $end
$var reg 8 B# window_timer [7:0] $end
$var integer 32 C# i [31:0] $end
$upscope $end
$upscope $end
$scope task idle $end
$var integer 32 D# n [31:0] $end
$upscope $end
$scope task scenario_banner $end
$var reg 352 E# title [351:0] $end
$var integer 32 F# num [31:0] $end
$upscope $end
$scope task send_buy $end
$var reg 6 G# qty [5:0] $end
$upscope $end
$scope task send_price $end
$var reg 12 H# price [11:0] $end
$upscope $end
$scope task send_sell $end
$var reg 6 I# qty [5:0] $end
$upscope $end
$scope task send_volume $end
$var reg 12 J# vol [11:0] $end
$upscope $end
$scope task set_threshold_preset $end
$var reg 2 K# preset [1:0] $end
$upscope $end
$upscope $end
$enddefinitions $end
$comment Show the parameter values. $end
$dumpall
b10 3#
b100 2#
b11110 1#
b1111 a"
b1110 `"
b1101 _"
b1100 ^"
b1011 ]"
b1010 \"
b1001 ["
b1000 Z"
b111 Y"
b110 X"
b101 W"
b100 V"
b11 U"
b10 T"
b1 S"
b0 R"
b1011111010111100001000000 Y
b10111110101111000010000000 X
b110110010 W
$end
#0
$dumpvars
bx K#
bx J#
bx I#
bx H#
bx G#
bx F#
bx E#
bx D#
b1000 C#
b0 B#
b0 A#
b0 @#
b1100100 ?#
b0 >#
b0 =#
b0 <#
b101 ;#
b1100100 :#
b1100100 9#
b0 8#
b0 7#
b0 6#
b1100100 5#
b0 4#
b10 0#
b1 /#
b1 .#
0-#
0,#
0+#
1*#
0)#
0(#
b0 '#
b0 &#
b0 %#
b110 $#
b110010000 ##
b0 "#
b10100 !#
b0 ~"
b0 }"
b0 |"
b101000 {"
0z"
0y"
1x"
0w"
0v"
0u"
b11111111111111111111111111111111 t"
b0 s"
1r"
1q"
b0 p"
b0 o"
0n"
b0 m"
b0 l"
0k"
b0 j"
b1111111 i"
0h"
0g"
b0 f"
0e"
b0 d"
b0 c"
b0 b"
bx Q"
bx P"
bx O"
bx N"
bx M"
b10000 L"
bx K"
bx J"
bx I"
bx H"
0G"
0F"
0E"
b0 D"
b0 C"
bx B"
bx A"
bx @"
bx ?"
bx >"
bx ="
bx <"
bx ;"
bx :"
bx 9"
bx 8"
bx 7"
bx 6"
bx 5"
bx 4"
bx 3"
bx 2"
bx 1"
bx 0"
bx /"
bx ."
bx -"
bx ,"
bx +"
bx *"
bx )"
b1000 ("
b0 '"
b1100100000 &"
b0 %"
b1100100 $"
b0 #"
b0 ""
b0 !"
b0 ~
b0 }
b1100100000 |
b1100100 {
b1100100 z
b101 y
b1100100 x
b0 w
b0 v
bx u
bx t
bx s
b1100100 r
b1100100 q
b0 p
0o
1n
0m
0l
b0 k
b0 j
b0 i
b0 h
b10010001 g
1f
b1111111111 e
0d
b0 c
b0 b
b1 a
0`
b0 _
b0 ^
b0 ]
0\
0[
b0 Z
b101000 V
b10100 U
0T
b1 S
b1 R
0Q
bx P
b0 O
b0 N
0M
b0 L
b0 K
0J
b0 I
1H
b10 G
b1 F
b1 E
b100100 D
b0 C
b0 B
b11111111 A
b0 @
b0 ?
1>
0=
1<
bx ;
bx :
bx 9
bx 8
b0 7
b0 6
b0 5
b0 4
b0 3
b0 2
b0 1
00
b0 /
b0 .
0-
1,
0+
1*
b1 )
b1 (
0'
b0 &
b0 %
0$
b0 #
b10010001 "
b11111111 !
$end
#10000
b1 /
b1 .
1-
b110 L"
b1000 ("
b1000 C#
b100 t"
b1 3
b1 ;
b1 8
b1 6
1+
#20000
0+
#30000
b100 t"
b1000 C#
b1000 ("
b10000 L"
b10 3
1+
#40000
0+
#50000
b110 L"
b1000 ("
b1000 C#
b100 t"
b11 3
1+
#60000
0+
#70000
b100 t"
b1000 C#
b1000 ("
b10000 L"
b100 3
1+
#80000
0+
#90000
b110 (
b110 )
b11100110 "
b11100110 g
b110 S
b11011000 D
b110 R
b110 F
b110 /#
b110 E
b110 .#
1z"
0>
b1010100 %#
b1000011 G
b1000011 0#
1-#
b1100100 '#
b1 Z
0f
1d
b1001001000 e
1`
b1 '"
b1 #"
b10000 y
b1 }
b1 ~
b1 !"
b1010111100 |
b0 q
b1 B#
b10000 ;#
b0 :#
b1 <#
b111111110011100 =#
b0 5#
b1100100 u
b1100100 t
b101 3
10
1+
#91000
b110010 f"
b1 c"
b1100100 I
b1100100 i
b1100100 ~"
b1100100 B
b1100100 j
b1100100 "#
b100100 b"
b1 2
b1 @
b100100 1
b100100 ?
b1100100 H#
b1 F#
b1001110011011110111001001101101011000010110110000100000010011010110000101110010011010110110010101110100001000000101011101100001011100100110110100101101011101010111000000100000001000000010100001110000011100100110100101100011011001010011110100110001001100000011000000101001 E#
#100000
0+
#110000
b111 (
b111 )
b11110111 "
b11110111 g
b111 S
b11111100 D
b111 R
b111 F
b111 /#
b111 E
b111 .#
0z"
b10000011 G
b10000011 0#
1u"
b1001010 %#
b111110001111 &#
b10 B#
b11010 ;#
b111111110011 :#
b10 <#
b1100100 5#
b0 9#
b10 '"
b10 #"
b1111 y
b10 }
b10 ~
b1010111 x
b10 !"
b1100100 q
b0 z
b1 b
b10 Z
b110 /
b110 .
b1101 u
b1010111 t
b110 ;
b110 8
b10 6
b110 3
1+
#111000
0n
1l
0*#
1(#
b1 O
b1 h
b1 d"
b1 |"
b1100100 1
b1100100 ?
b1100100 J#
#120000
0+
#130000
b0 ##
b0 $#
b10000001 G
b10000001 0#
0x"
b11 Z
b10 b
b11 '"
b11 #"
b1 %"
b11 B#
b0 ?#
b1 @#
b1100100 6#
b111 /
b111 .
b111 3
b111 ;
b111 8
b1 4
b11 6
1+
#131000
1e"
b10 f"
b0 c"
0l
1o
1h"
0(#
1+#
b10 O
b10 h
b10 d"
b10 |"
b101 I
b101 i
b101 ~"
b101 B
b101 j
b101 "#
b101 b"
b0 2
b0 @
b10000101 1
b10000101 ?
b101 G#
#140000
0+
#150000
b0 o"
b1 p"
1q"
1r"
1n"
b10 l"
b11111111111111111111111111111111 t"
b100 B#
b1 4#
b100 '"
b100 #"
b1 p
b11 b
b100 Z
b1000 3
1+
#151000
0o
1m
0h"
1g"
0+#
1)#
b11 O
b11 h
b11 d"
b11 |"
b11000101 1
b11000101 ?
b101 I#
#160000
0+
#170000
b1 o"
1q"
1r"
b1 p"
1k"
b10 i"
b11111111111111111111111111111111 t"
1n"
b10 l"
b101 Z
b100 b
b101 '"
b101 #"
b1 ""
b101 B#
b1 >#
b1001 3
1+
#171000
0e"
b110010 f"
b1 c"
1n
0m
0g"
1*#
0)#
b0 O
b0 h
b0 d"
b0 |"
b1100100 I
b1100100 i
b1100100 ~"
b1100100 B
b1100100 j
b1100100 "#
b100100 b"
b1 2
b1 @
b100100 1
b100100 ?
#180000
0+
#190000
b10 %
1'
1q"
b0 o"
1r"
b0 p"
b11111111111111111111111111111111 t"
0k"
b1111111 i"
0n"
b0 l"
b10 #
b10 C
b11111111 "
b11111111 g
b0 %#
b10000000 G
b10000000 0#
0-#
b0 '#
b10 N
b10 k
b10 s"
b10 }"
1M
b110 B#
b1000001000 ;#
b11 <#
b1100100 9#
b110 '"
b110 #"
b1110 y
b11 }
b11 ~
b11 !"
b1100100 z
b0 {
b101 b
b110 Z
b1010 3
1+
#191000
0n
1l
0*#
1(#
b1 O
b1 h
b1 d"
b1 |"
b1100100 1
b1100100 ?
#200000
0+
#210000
b0 %
0'
b0 #
b0 C
b11110111 "
b11110111 g
b111 Z
b110 b
b111 '"
b0 #"
b1 v
b10 %"
b111 B#
b1 7#
b10 @#
0M
b1011 3
b1 7
1+
#211000
1e"
b10 f"
b0 c"
0l
1o
1h"
0(#
1+#
b10 O
b10 h
b10 d"
b10 |"
b101 I
b101 i
b101 ~"
b101 B
b101 j
b101 "#
b101 b"
b0 2
b0 @
b10000101 1
b10000101 ?
#220000
0+
#230000
b0 o"
b1 p"
1q"
1r"
1n"
b10 l"
b11111111111111111111111111111111 t"
b1000 B#
b10 4#
b1000 '"
b1 #"
b10 p
b111 b
b1000 Z
b1100 3
1+
#231000
0o
1m
0h"
1g"
0+#
1)#
b11 O
b11 h
b11 d"
b11 |"
b11000101 1
b11000101 ?
#240000
0+
#250000
b1 o"
1q"
1r"
b1 p"
1k"
b10 i"
b11111111111111111111111111111111 t"
1n"
b10 l"
b1001 Z
b1000 b
b1001 '"
b10 #"
b10 ""
b1001 B#
b10 >#
b1101 3
1+
#251000
0e"
b110010 f"
b1 c"
1n
0m
0g"
1*#
0)#
b0 O
b0 h
b0 d"
b0 |"
b1100100 I
b1100100 i
b1100100 ~"
b1100100 B
b1100100 j
b1100100 "#
b100100 b"
b1 2
b1 @
b100100 1
b100100 ?
#260000
0+
#270000
b10 %
1'
1q"
b0 o"
1r"
b0 p"
b11111111111111111111111111111111 t"
0k"
b1111111 i"
0n"
b0 l"
b10 #
b10 C
b11111111 "
b11111111 g
1M
b1010 B#
b1110111000 ;#
b100 <#
b1010 '"
b11 #"
b1101 y
b100 }
b100 ~
b100 !"
b1100100 {
b1001 b
b1010 Z
b1110 3
1+
#271000
0n
1l
0*#
1(#
b1 O
b1 h
b1 d"
b1 |"
b1100100 1
b1100100 ?
#280000
0+
#290000
b0 %
0'
b0 #
b0 C
b11110111 "
b11110111 g
b1011 Z
b1010 b
b1011 '"
b0 #"
b10 v
b11 %"
b1011 B#
b10 7#
b11 @#
0M
b1111 3
b10 7
1+
#291000
1e"
b10 f"
b0 c"
0l
1o
1h"
0(#
1+#
b10 O
b10 h
b10 d"
b10 |"
b101 I
b101 i
b101 ~"
b101 B
b101 j
b101 "#
b101 b"
b0 2
b0 @
b10000101 1
b10000101 ?
#300000
0+
#310000
b0 o"
b1 p"
1q"
1r"
1n"
b10 l"
b11111111111111111111111111111111 t"
b1100 B#
b11 4#
b1100 '"
b1 #"
b11 p
b1011 b
b1100 Z
b10000 3
1+
#311000
0o
1m
0h"
1g"
0+#
1)#
b11 O
b11 h
b11 d"
b11 |"
b11000101 1
b11000101 ?
#320000
0+
#330000
b1 o"
1q"
1r"
b1 p"
1k"
b10 i"
b11111111111111111111111111111111 t"
1n"
b10 l"
b1101 Z
b1100 b
b1101 '"
b10 #"
b11 ""
b1101 B#
b11 >#
b10001 3
1+
#331000
0e"
b110010 f"
b1 c"
1n
0m
0g"
1*#
0)#
b0 O
b0 h
b0 d"
b0 |"
b1100100 I
b1100100 i
b1100100 ~"
b1100100 B
b1100100 j
b1100100 "#
b100100 b"
b1 2
b1 @
b100100 1
b100100 ?
#340000
0+
#350000
b10 %
1'
1q"
b0 o"
1r"
b0 p"
b11111111111111111111111111111111 t"
0k"
b1111111 i"
0n"
b0 l"
b10 #
b10 C
b11111111 "
b11111111 g
1M
b1110 B#
b10100110010 ;#
b101 <#
b1110 '"
b11 #"
b101 }
b101 ~
b101 !"
b1101 b
b1110 Z
b10010 3
1+
#351000
0n
1l
0*#
1(#
b1 O
b1 h
b1 d"
b1 |"
b1100100 1
b1100100 ?
#360000
0+
#370000
b0 %
0'
b0 #
b0 C
b11110111 "
b11110111 g
b1111 Z
b1110 b
b1111 '"
b0 #"
b11 v
b100 %"
b1111 B#
b11 7#
b100 @#
0M
b10011 3
b11 7
1+
#371000
1e"
b10 f"
b0 c"
0l
1o
1h"
0(#
1+#
b10 O
b10 h
b10 d"
b10 |"
b101 I
b101 i
b101 ~"
b101 B
b101 j
b101 "#
b101 b"
b0 2
b0 @
b10000101 1
b10000101 ?
#380000
0+
#390000
b10010000 G
b10010000 0#
1v"
b0 o"
b1 p"
1q"
1r"
1n"
b10 l"
b11111111111111111111111111111111 t"
b10000 B#
b100 4#
b10000 '"
b1 #"
b100 p
b1111 b
b10000 Z
b10100 3
1+
#391000
0o
1m
0h"
1g"
0+#
1)#
b11 O
b11 h
b11 d"
b11 |"
b11000101 1
b11000101 ?
#400000
0+
#410000
b1 o"
1q"
1r"
b1 p"
1k"
b10 i"
b11111111111111111111111111111111 t"
1n"
b10 l"
b10001 Z
b10000 b
b10001 '"
b10 #"
b100 ""
b10001 B#
b100 >#
b10101 3
1+
#411000
0e"
b110010 f"
b1 c"
1n
0m
0g"
1*#
0)#
b0 O
b0 h
b0 d"
b0 |"
b1100100 I
b1100100 i
b1100100 ~"
b1100100 B
b1100100 j
b1100100 "#
b100100 b"
b1 2
b1 @
b100100 1
b100100 ?
#420000
0+
#430000
b10 %
1'
1q"
b0 o"
1r"
b0 p"
b11111111111111111111111111111111 t"
0k"
b1111111 i"
0n"
b0 l"
b10 #
b10 C
b11111111 "
b11111111 g
1M
b10010 B#
b11001111101 ;#
b110 <#
b10010 '"
b11 #"
b110 }
b110 ~
b110 !"
b10001 b
b10010 Z
b10110 3
1+
#431000
0n
1l
0*#
1(#
b1 O
b1 h
b1 d"
b1 |"
b1100100 1
b1100100 ?
#440000
0+
#450000
b0 %
0'
b0 #
b0 C
b11110111 "
b11110111 g
b10011 Z
b10010 b
b10011 '"
b0 #"
b100 v
b101 %"
b10011 B#
b100 7#
b101 @#
0M
b10111 3
b100 7
1+
#451000
1e"
b10 f"
b0 c"
0l
1o
1h"
0(#
1+#
b10 O
b10 h
b10 d"
b10 |"
b101 I
b101 i
b101 ~"
b101 B
b101 j
b101 "#
b101 b"
b0 2
b0 @
b10000101 1
b10000101 ?
#460000
0+
#470000
b0 o"
b1 p"
1q"
1r"
1n"
b10 l"
b11111111111111111111111111111111 t"
b10100 B#
b101 4#
b10100 '"
b1 #"
b101 p
b10011 b
b10100 Z
b11000 3
1+
#471000
0o
1m
0h"
1g"
0+#
1)#
b11 O
b11 h
b11 d"
b11 |"
b11000101 1
b11000101 ?
#480000
0+
#490000
b1 o"
1q"
1r"
b1 p"
1k"
b10 i"
b11111111111111111111111111111111 t"
1n"
b10 l"
b10101 Z
b10100 b
b10101 '"
b10 #"
b101 ""
b10101 B#
b101 >#
b11001 3
1+
#491000
0e"
b110010 f"
b1 c"
1n
0m
0g"
1*#
0)#
b0 O
b0 h
b0 d"
b0 |"
b1100100 I
b1100100 i
b1100100 ~"
b1100100 B
b1100100 j
b1100100 "#
b100100 b"
b1 2
b1 @
b100100 1
b100100 ?
#500000
0+
#510000
b10 %
1'
1q"
b0 o"
1r"
b0 p"
b11111111111111111111111111111111 t"
0k"
b1111111 i"
0n"
b0 l"
b10 #
b10 C
b11111111 "
b11111111 g
1M
b10110 B#
b11110011111 ;#
b111 <#
b10110 '"
b11 #"
b111 }
b111 ~
b111 !"
b10101 b
b10110 Z
b11010 3
1+
#511000
0n
1l
0*#
1(#
b1 O
b1 h
b1 d"
b1 |"
b1100100 1
b1100100 ?
#520000
0+
#530000
b0 %
0'
b0 #
b0 C
b11110111 "
b11110111 g
b10111 Z
b10110 b
b10111 '"
b0 #"
b101 v
b110 %"
b10111 B#
b101 7#
b110 @#
0M
b11011 3
b101 7
1+
#531000
1e"
b10 f"
b0 c"
0l
1o
1h"
0(#
1+#
b10 O
b10 h
b10 d"
b10 |"
b101 I
b101 i
b101 ~"
b101 B
b101 j
b101 "#
b101 b"
b0 2
b0 @
b10000101 1
b10000101 ?
#540000
0+
#550000
b0 o"
b1 p"
1q"
1r"
1n"
b10 l"
b11111111111111111111111111111111 t"
b11000 B#
b110 4#
b11000 '"
b1 #"
b110 p
b10111 b
b11000 Z
b11100 3
1+
#551000
0o
1m
0h"
1g"
0+#
1)#
b11 O
b11 h
b11 d"
b11 |"
b11000101 1
b11000101 ?
#560000
0+
#570000
b10000000 G
b10000000 0#
0v"
b1 o"
1q"
1r"
b1 p"
1k"
b10 i"
b11111111111111111111111111111111 t"
1n"
b10 l"
b11001 Z
b11000 b
b11001 '"
b10 #"
b110 ""
b11001 B#
b110 >#
b11101 3
1+
#571000
0e"
b110010 f"
b1 c"
1n
0m
0g"
1*#
0)#
b0 O
b0 h
b0 d"
b0 |"
b1100100 I
b1100100 i
b1100100 ~"
b1100100 B
b1100100 j
b1100100 "#
b100100 b"
b1 2
b1 @
b100100 1
b100100 ?
#580000
0+
#590000
b10 %
1'
1q"
b0 o"
1r"
b0 p"
b11111111111111111111111111111111 t"
0k"
b1111111 i"
0n"
b0 l"
b10 #
b10 C
b11111111 "
b11111111 g
1M
b11010 B#
b100010011101 ;#
b0 <#
b11010 '"
b11 #"
b1000 }
b1000 ~
b0 !"
b11001 b
b11010 Z
b11110 3
1+
#591000
0n
1l
0*#
1(#
b1 O
b1 h
b1 d"
b1 |"
b1100100 1
b1100100 ?
#600000
0+
#610000
b0 %
0'
b0 #
b0 C
b11110111 "
b11110111 g
b11011 Z
b11010 b
b11011 '"
b0 #"
b110 v
b111 %"
b11011 B#
b110 7#
b111 @#
0M
b11111 3
b110 7
1+
#611000
1e"
b10 f"
b0 c"
0l
1o
1h"
0(#
1+#
b10 O
b10 h
b10 d"
b10 |"
b101 I
b101 i
b101 ~"
b101 B
b101 j
b101 "#
b101 b"
b0 2
b0 @
b10000101 1
b10000101 ?
#620000
0+
#630000
b0 o"
b1 p"
1q"
1r"
1n"
b10 l"
b11111111111111111111111111111111 t"
b11100 B#
b111 4#
b11100 '"
b1 #"
b111 p
b11011 b
b11100 Z
b100000 3
1+
#631000
0o
1m
0h"
1g"
0+#
1)#
b11 O
b11 h
b11 d"
b11 |"
b11000101 1
b11000101 ?
#640000
0+
#650000
b1 o"
1q"
1r"
b1 p"
1k"
b10 i"
b11111111111111111111111111111111 t"
1n"
b10 l"
b11101 Z
b11100 b
b11101 '"
b10 #"
b111 ""
b11101 B#
b111 >#
b100001 3
1+
#651000
0e"
b110010 f"
b1 c"
1n
0m
0g"
1*#
0)#
b0 O
b0 h
b0 d"
b0 |"
b1100100 I
b1100100 i
b1100100 ~"
b1100100 B
b1100100 j
b1100100 "#
b100100 b"
b1 2
b1 @
b100100 1
b100100 ?
#660000
0+
#670000
b10 %
1'
1q"
b0 o"
1r"
b0 p"
b11111111111111111111111111111111 t"
0k"
b1111111 i"
0n"
b0 l"
b10 #
b10 C
b11111111 "
b11111111 g
1M
b11110 B#
b100101111011 ;#
b1 <#
b0 =#
b11110 '"
b11 #"
b1001 }
b1001 ~
b1 !"
b1100100000 |
b11101 b
b11110 Z
b100010 3
1+
#671000
0n
1l
0*#
1(#
b1 O
b1 h
b1 d"
b1 |"
b1100100 1
b1100100 ?
#680000
0+
#690000
b0 %
0'
b0 #
b0 C
b11110111 "
b11110111 g
b11111 Z
b11110 b
b11111 '"
b0 #"
b111 v
b0 %"
b11111 B#
b111 7#
b0 @#
0M
b100011 3
b111 7
1+
#691000
1e"
b10 f"
b0 c"
0l
1o
1h"
0(#
1+#
b10 O
b10 h
b10 d"
b10 |"
b101 I
b101 i
b101 ~"
b101 B
b101 j
b101 "#
b101 b"
b0 2
b0 @
b10000101 1
b10000101 ?
#700000
0+
#710000
b10010000 G
b10010000 0#
1v"
b0 o"
b1 p"
1q"
1r"
1n"
b10 l"
b11111111111111111111111111111111 t"
b100000 B#
b1000 4#
b100000 '"
b1 #"
b1000 p
b11111 b
b100000 Z
b100100 3
1+
#711000
0o
1m
0h"
1g"
0+#
1)#
b11 O
b11 h
b11 d"
b11 |"
b11000101 1
b11000101 ?
#720000
0+
