nanotrade_stock.vcd
$date
	Tue Feb 17 17:47:05 2026
$end
$version
	Icarus Verilog
$end
$timescale
	1ps
$end
$scope module tb_nanotrade_stock $end
$var wire 8 ! uio_oe [7:0] $end
$var wire 8 " uo_out [7:0] $end
$var wire 8 # uio_out [7:0] $end
$var wire 1 $ ml_valid_out $end
$var wire 4 % ml_conf_out [3:0] $end
$var wire 3 & ml_class_out [2:0] $end
$var wire 1 ' match_valid $end
$var wire 3 ( alert_type [2:0] $end
$var wire 3 ) alert_priority [2:0] $end
$var wire 1 * alert_flag $end
$var reg 1 + clk $end
$var reg 1 , ena $end
$var reg 8 - ml_class_seen [7:0] $end
$var reg 1 . prev_alert $end
$var reg 3 / prev_prio [2:0] $end
$var reg 3 0 prev_type [2:0] $end
$var reg 1 1 rst_n $end
$var reg 8 2 rule_type_seen [7:0] $end
$var reg 8 3 ui_in [7:0] $end
$var reg 8 4 uio_in [7:0] $end
$var integer 32 5 cycle_count [31:0] $end
$var integer 32 6 i [31:0] $end
$var integer 32 7 matches_fired [31:0] $end
$var integer 32 8 ml_alerts_fired [31:0] $end
$var integer 32 9 rule_alerts_fired [31:0] $end
$var integer 32 : stim_idx [31:0] $end
$var integer 32 ; stim_size [31:0] $end
$scope function alert_name $end
$var reg 3 < t [2:0] $end
$upscope $end
$scope function input_type_name $end
$var reg 2 = t [1:0] $end
$upscope $end
$scope function ml_name $end
$var reg 3 > c [2:0] $end
$upscope $end
$scope module dut $end
$var wire 1 + clk $end
$var wire 1 ? comb_alert $end
$var wire 1 , ena $end
$var wire 1 1 rst_n $end
$var wire 8 @ ui_in [7:0] $end
$var wire 8 A uio_in [7:0] $end
$var wire 8 B uio_oe [7:0] $end
$var wire 12 C vol_data [11:0] $end
$var wire 8 D uo_out [7:0] $end
$var wire 8 E uio_out [7:0] $end
$var wire 3 F rule_alert_type [2:0] $end
$var wire 3 G rule_alert_priority [2:0] $end
$var wire 8 H rule_alert_bitmap [7:0] $end
$var wire 1 I rule_alert_any $end
$var wire 12 J price_data [11:0] $end
$var wire 1 K ml_valid $end
$var wire 8 L ml_confidence [7:0] $end
$var wire 3 M ml_class [2:0] $end
$var wire 1 N match_valid $end
$var wire 8 O match_price [7:0] $end
$var wire 2 P input_type [1:0] $end
$var wire 128 Q features [127:0] $end
$var wire 1 R feature_valid $end
$var wire 3 S comb_type [2:0] $end
$var wire 3 T comb_priority [2:0] $end
$var wire 1 U _unused $end
$var reg 1 V ml_anomaly_held $end
$var reg 3 W ml_class_held [2:0] $end
$var reg 8 X ml_conf_held [7:0] $end
$var reg 3 Y ml_prio_held [2:0] $end
$scope module u_feat_extractor $end
$var wire 1 + clk $end
$var wire 2 Z input_type [1:0] $end
$var wire 12 [ price_data [11:0] $end
$var wire 1 1 rst_n $end
$var wire 12 \ volume_data [11:0] $end
$var wire 1 N match_valid $end
$var wire 8 ] match_price [7:0] $end
$var wire 1 ^ is_volume $end
$var wire 1 _ is_sell $end
$var wire 1 ` is_price $end
$var wire 1 a is_buy $end
$var reg 8 b buy_count [7:0] $end
$var reg 12 c cur_price [11:0] $end
$var reg 12 d cur_vol [11:0] $end
$var reg 1 R feature_valid $end
$var reg 128 e features [127:0] $end
$var reg 12 f local_avg [11:0] $end
$var reg 12 g local_delta [11:0] $end
$var reg 8 h match_count [7:0] $end
$var reg 8 i match_rate [7:0] $end
$var reg 12 j price_avg [11:0] $end
$var reg 12 k price_mad [11:0] $end
$var reg 12 l price_prev1 [11:0] $end
$var reg 12 m price_prev2 [11:0] $end
$var reg 15 n price_sum8 [14:0] $end
$var reg 6 o ptr_l [5:0] $end
$var reg 5 p ptr_m [4:0] $end
$var reg 3 q ptr_s [2:0] $end
$var reg 8 r sell_count [7:0] $end
$var reg 16 s trade_timer [15:0] $end
$var reg 12 t vol_avg [11:0] $end
$var reg 3 u vol_ptr [2:0] $end
$var reg 15 v vol_sum8 [14:0] $end
$var reg 8 w window_cnt [7:0] $end
$var integer 32 x i [31:0] $end
$scope function clip8 $end
$var reg 12 y x [11:0] $end
$upscope $end
$scope function clip8_16 $end
$var reg 16 z x [15:0] $end
$upscope $end
$scope function imbalance_byte $end
$var reg 8 { buys [7:0] $end
$var reg 16 | num [15:0] $end
$var reg 8 } sells [7:0] $end
$var reg 16 ~ total [15:0] $end
$upscope $end
$scope function momentum_byte $end
$var reg 13 !" d1 [12:0] $end
$var reg 13 "" d2 [12:0] $end
$var reg 13 #" mom [12:0] $end
$var reg 12 $" p0 [11:0] $end
$var reg 12 %" p1 [11:0] $end
$var reg 12 &" p2 [11:0] $end
$upscope $end
$scope function price_delta $end
$var reg 12 '" a [11:0] $end
$var reg 12 (" b [11:0] $end
$var reg 12 )" d [11:0] $end
$upscope $end
$scope function spread_byte $end
$var reg 8 *" asks [7:0] $end
$var reg 8 +" bids [7:0] $end
$upscope $end
$scope function vol_ratio_byte $end
$var reg 12 ," avg [11:0] $end
$var reg 12 -" cur [11:0] $end
$var reg 20 ." num [19:0] $end
$upscope $end
$upscope $end
$scope module u_ml_engine $end
$var wire 1 + clk $end
$var wire 1 R feature_valid $end
$var wire 128 /" features [127:0] $end
$var wire 1 1 rst_n $end
$var parameter 80 0" B1_HEX $end
$var parameter 80 1" B2_HEX $end
$var parameter 80 2" W1_HEX $end
$var parameter 80 3" W2_HEX $end
$var reg 32 4" acc2_tmp [31:0] $end
$var reg 3 5" best_class [2:0] $end
$var reg 32 6" gap [31:0] $end
$var reg 32 7" max_logit [31:0] $end
$var reg 32 8" min_logit [31:0] $end
$var reg 3 9" ml_class [2:0] $end
$var reg 8 :" ml_confidence [7:0] $end
$var reg 1 K ml_valid $end
$var reg 1 ;" s0_valid $end
$var reg 1 <" s1_valid $end
$var reg 1 =" s2_valid $end
$var integer 32 >" h1 [31:0] $end
$var integer 32 ?" h2 [31:0] $end
$var integer 32 @" i1 [31:0] $end
$var integer 32 A" j3 [31:0] $end
$var integer 32 B" k [31:0] $end
$var integer 32 C" o2 [31:0] $end
$scope begin unpack[0] $end
$var parameter 2 D" gi $end
$upscope $end
$scope begin unpack[1] $end
$var parameter 2 E" gi $end
$upscope $end
$scope begin unpack[2] $end
$var parameter 3 F" gi $end
$upscope $end
$scope begin unpack[3] $end
$var parameter 3 G" gi $end
$upscope $end
$scope begin unpack[4] $end
$var parameter 4 H" gi $end
$upscope $end
$scope begin unpack[5] $end
$var parameter 4 I" gi $end
$upscope $end
$scope begin unpack[6] $end
$var parameter 4 J" gi $end
$upscope $end
$scope begin unpack[7] $end
$var parameter 4 K" gi $end
$upscope $end
$scope begin unpack[8] $end
$var parameter 5 L" gi $end
$upscope $end
$scope begin unpack[9] $end
$var parameter 5 M" gi $end
$upscope $end
$scope begin unpack[10] $end
$var parameter 5 N" gi $end
$upscope $end
$scope begin unpack[11] $end
$var parameter 5 O" gi $end
$upscope $end
$scope begin unpack[12] $end
$var parameter 5 P" gi $end
$upscope $end
$scope begin unpack[13] $end
$var parameter 5 Q" gi $end
$upscope $end
$scope begin unpack[14] $end
$var parameter 5 R" gi $end
$upscope $end
$scope begin unpack[15] $end
$var parameter 5 S" gi $end
$upscope $end
$upscope $end
$scope module u_order_book $end
$var wire 1 + clk $end
$var wire 6 T" data_in [5:0] $end
$var wire 6 U" ext_data [5:0] $end
$var wire 2 V" input_type [1:0] $end
$var wire 1 W" is_order $end
$var wire 1 1 rst_n $end
$var wire 7 X" new_price [6:0] $end
$var wire 1 Y" is_sell $end
$var wire 1 Z" is_buy $end
$var reg 7 [" best_ask [6:0] $end
$var reg 2 \" best_ask_idx [1:0] $end
$var reg 1 ]" best_ask_valid $end
$var reg 7 ^" best_bid [6:0] $end
$var reg 2 _" best_bid_idx [1:0] $end
$var reg 1 `" best_bid_valid $end
$var reg 2 a" empty_ask_slot [1:0] $end
$var reg 2 b" empty_bid_slot [1:0] $end
$var reg 1 c" has_empty_ask $end
$var reg 1 d" has_empty_bid $end
$var reg 8 e" match_price [7:0] $end
$var reg 1 N match_valid $end
$var integer 32 f" i [31:0] $end
$upscope $end
$scope module u_rule_detector $end
$var wire 1 + clk $end
$var wire 1 g" det_flash $end
$var wire 1 h" det_imbalance $end
$var wire 1 i" det_spread $end
$var wire 1 j" det_vol_dry $end
$var wire 1 k" det_vol_surge $end
$var wire 1 l" det_volatility $end
$var wire 2 m" input_type [1:0] $end
$var wire 8 n" match_price [7:0] $end
$var wire 1 N match_valid $end
$var wire 12 o" price_data [11:0] $end
$var wire 1 1 rst_n $end
$var wire 12 p" volume_data [11:0] $end
$var wire 13 q" vol_surge_thresh [12:0] $end
$var wire 12 r" vol_dry_thresh [11:0] $end
$var wire 12 s" vol_deviation [11:0] $end
$var wire 12 t" price_drop [11:0] $end
$var wire 12 u" price_delta [11:0] $end
$var wire 1 v" is_volume $end
$var wire 1 w" is_sell $end
$var wire 1 x" is_price $end
$var wire 1 y" is_buy $end
$var wire 1 z" det_velocity $end
$var wire 1 {" det_spike $end
$var wire 3 |" alert_type [2:0] $end
$var wire 3 }" alert_priority [2:0] $end
$var wire 8 ~" alert_bitmap [7:0] $end
$var wire 1 I alert_any $end
$var parameter 12 !# FLASH_THRESH $end
$var parameter 12 "# SPIKE_THRESH $end
$var parameter 6 ## VELOCITY_THRESH $end
$var parameter 32 $# VOL_DRY_DIV $end
$var parameter 32 %# VOL_SURGE_MULT $end
$var reg 4 &# buy_order_count [3:0] $end
$var reg 12 '# current_price [11:0] $end
$var reg 12 (# current_volume [11:0] $end
$var reg 6 )# match_counter [5:0] $end
$var reg 6 *# match_rate [5:0] $end
$var reg 12 +# prev_price [11:0] $end
$var reg 12 ,# price_avg [11:0] $end
$var reg 12 -# price_mad [11:0] $end
$var reg 3 .# price_ptr [2:0] $end
$var reg 15 /# price_sum [14:0] $end
$var reg 4 0# sell_order_count [3:0] $end
$var reg 12 1# vol_avg [11:0] $end
$var reg 3 2# vol_ptr [2:0] $end
$var reg 15 3# vol_sum [14:0] $end
$var reg 8 4# window_timer [7:0] $end
$var integer 32 5# i [31:0] $end
$upscope $end
$upscope $end
$upscope $end
$enddefinitions $end
$comment Show the parameter values. $end
$dumpall
b10 %#
b100 $#
b11110 ##
b10100 "#
b101000 !#
b1111 S"
b1110 R"
b1101 Q"
b1100 P"
b1011 O"
b1010 N"
b1001 M"
b1000 L"
b111 K"
b110 J"
b101 I"
b100 H"
b11 G"
b10 F"
b1 E"
b0 D"
b1110010011011110110110100101111011101110011001000101110011010000110010101111000 3"
b1110010011011110110110100101111011101110011000100101110011010000110010101111000 2"
b1110010011011110110110100101111011000100011001000101110011010000110010101111000 1"
b1110010011011110110110100101111011000100011000100101110011010000110010101111000 0"
$end
#0
$dumpvars
b1000 5#
b0 4#
b0 3#
b0 2#
b1100100 1#
b0 0#
b0 /#
b0 .#
b101 -#
b1100100 ,#
b1100100 +#
b0 *#
b0 )#
b0 (#
b1100100 '#
b0 &#
b10 ~"
b1 }"
b1 |"
0{"
0z"
0y"
1x"
0w"
0v"
b0 u"
b0 t"
b0 s"
b110 r"
b110010000 q"
b0 p"
b0 o"
b0 n"
b0 m"
0l"
0k"
1j"
0i"
0h"
0g"
b11111111111111111111111111111111 f"
b0 e"
1d"
1c"
b0 b"
b0 a"
0`"
b0 _"
b0 ^"
0]"
b0 \"
b1111111 ["
0Z"
0Y"
b0 X"
0W"
b0 V"
b0 U"
b0 T"
bx C"
b10000 B"
bx A"
bx @"
bx ?"
bx >"
0="
0<"
0;"
b0 :"
b0 9"
bx 8"
bx 7"
bx 6"
bx 5"
bx 4"
bx /"
bx ."
bx -"
bx ,"
bx +"
bx *"
bx )"
bx ("
bx '"
bx &"
bx %"
bx $"
bx #"
bx ""
bx !"
bx ~
bx }
bx |
bx {
bx z
bx y
b1000 x
b0 w
b1100100000 v
b0 u
b1100100 t
b0 s
b0 r
b0 q
b0 p
b0 o
b1100100000 n
b1100100 m
b1100100 l
b101 k
b1100100 j
b0 i
b0 h
bx g
bx f
bx e
b1100100 d
b1100100 c
b0 b
0a
1`
0_
0^
b0 ]
b0 \
b0 [
b0 Z
b0 Y
b0 X
b0 W
0V
0U
b1 T
b1 S
0R
bx Q
b0 P
b0 O
0N
b0 M
b0 L
0K
b0 J
1I
b10 H
b1 G
b1 F
b0 E
b10010001 D
b0 C
b11111111 B
b0 A
b0 @
1?
bx >
bx =
bx <
b0 ;
bx :
b0 9
b0 8
b0 7
b100000000000000 6
b0 5
b0 4
b0 3
b0 2
01
b0 0
b0 /
0.
b0 -
1,
0+
1*
b1 )
b1 (
0'
b0 &
b0 %
0$
b0 #
b10010001 "
b11111111 !
$end
#10000
b1 0
b1 /
1.
b110 B"
b1000 x
b1000 5#
b100 f"
b1 5
b10 2
b1 9
b1 <
1+
#20000
0+
#30000
b100 f"
b1000 5#
b1000 x
b10000 B"
b10 5
1+
#40000
0+
#50000
b110 B"
b1000 x
b1000 5#
b100 f"
b11 5
1+
#60000
0+
#70000
b100 f"
b1000 5#
b1000 x
b10000 B"
b100 5
1+
#80000
0+
#90000
b110 )
b110 (
b110 T
b11100110 "
b11100110 D
b110 S
b110 G
b110 }"
b110 F
b110 |"
1l"
b1010100 s"
b1000011 H
b1000011 ~"
1{"
b1100100 u"
b1 w
b1 s
b10000 k
b1 o
b1 p
b1 q
b1010111100 n
b0 c
b1 4#
b10000 -#
b0 ,#
b1 .#
b111111110011100 /#
b0 '#
b1100100 g
b1100100 f
b101 5
11
1+
#91000
b0 :
#100000
0+
#110000
b111 )
b111 (
b111 T
b11110111 "
b11110111 D
b111 S
b111 G
b111 }"
b111 F
b111 |"
0l"
1g"
b0 s"
b111111110011 t"
b10000010 H
b10000010 ~"
0{"
b0 u"
b10 4#
b1110 -#
b111111110011 ,#
b10 .#
b111111100111000 /#
b0 +#
b10 w
b10 s
b11000 k
b10 o
b10 p
b1010111 j
b10 q
b1001011000 n
b0 l
b110 0
b110 /
b1010111 g
b1010111 f
b1000010 2
b10 9
b110 <
b110 5
1+
#120000
0+
#130000
b111111100111 t"
b11 w
b11 s
b11110 k
b11 o
b11 p
b1001011 j
b11 q
b111110100 n
b0 m
b11 4#
b1000001010 -#
b111111100111 ,#
b11 .#
b111111011010100 /#
b111 0
b111 /
b1001011 g
b1001011 f
b111 5
b11000010 2
b11 9
b111 <
1+
#140000
0+
#150000
b111111011010 t"
b100 4#
b1111000101 -#
b111111011010 ,#
b100 .#
b111111001110000 /#
b100 w
b100 s
b100010 k
b100 o
b100 p
b111110 j
b100 q
b110010000 n
b111110 g
b111110 f
b1000 5
1+
#160000
0+
#170000
b111111001110 t"
b101 w
b101 s
b100100 k
b101 o
b101 p
b110010 j
b101 q
b100101100 n
b101 4#
b10101000111 -#
b111111001110 ,#
b101 .#
b111111000001100 /#
b110010 g
b110010 f
b1001 5
1+
#180000
0+
#190000
b111111000001 t"
b110 4#
b11010010111 -#
b111111000001 ,#
b110 .#
b111110110101000 /#
b110 w
b110 s
b110 o
b110 p
b100101 j
b110 q
b11001000 n
b100101 g
b100101 f
b1010 5
1+
#200000
0+
#210000
b111110110101 t"
b111 w
b111 s
b100010 k
b111 o
b111 p
b11001 j
b111 q
b1100100 n
b111 4#
b11110111100 -#
b111110110101 ,#
b111 .#
b111110101000100 /#
b11001 g
b11001 f
b1011 5
1+
#220000
0+
#230000
b111110101000 t"
b1000 4#
b100010111011 -#
b111110101000 ,#
b0 .#
b111110011100000 /#
b1000 w
b1000 s
b11111 k
b1000 o
b1000 p
b1100 j
b0 q
b0 n
b1100 g
b1100 f
b1100 5
1+
#240000
0+
#250000
b111110011100 t"
b1001 w
b1001 s
b11011 k
b1001 o
b1001 p
b0 j
b1 q
b1001 4#
b100110011000 -#
b111110011100 ,#
b1 .#
b0 g
b0 f
b1101 5
1+
#260000
0+
#270000
b1010 4#
b101001011000 -#
b10 .#
b1010 w
b1010 s
b10111 k
b1010 o
b1010 p
b10 q
b1110 5
1+
#280000
0+
#290000
b1011 w
b1011 s
b10100 k
b1011 o
b1011 p
b11 q
b1011 4#
b101100000000 -#
b11 .#
b1111 5
1+
#300000
0+
#310000
b1100 4#
b101110010011 -#
b100 .#
b1100 w
b1100 s
b10001 k
b1100 o
b1100 p
b100 q
b10000 5
1+
#320000
0+
#330000
b1101 w
b1101 s
b1110 k
b1101 o
b1101 p
b101 q
b1101 4#
b110000010100 -#
b101 .#
b10001 5
1+
#340000
0+
#350000
b1110 4#
b110010000101 -#
b110 .#
b1110 w
b1110 s
b1100 k
b1110 o
b1110 p
b110 q
b10010 5
1+
#360000
0+
#370000
b1111 w
b1111 s
b1010 k
b1111 o
b1111 p
b111 q
b1111 4#
b110011100111 -#
b111 .#
b10011 5
1+
#380000
0+
#390000
b10000 4#
b110100111101 -#
b0 .#
b10000 w
b10000 s
b1000 k
b10000 o
b10000 p
b0 q
b10100 5
1+
#400000
0+
#410000
b10001 w
b10001 s
b111 k
b10001 o
b10001 p
b1 q
b10001 4#
b110110001000 -#
b1 .#
b10101 5
1+
#420000
0+
#430000
b10010 4#
b110111001010 -#
b10 .#
b10010 w
b10010 s
b110 k
b10010 o
b10010 p
b10 q
b10110 5
1+
#440000
0+
#450000
b10011 w
b10011 s
b101 k
b10011 o
b10011 p
b11 q
b10011 4#
b111000000100 -#
b11 .#
b10111 5
1+
#460000
0+
#470000
b10100 4#
b111000110111 -#
b100 .#
b10100 w
b10100 s
b100 k
b10100 o
b10100 p
b100 q
b11000 5
1+
#480000
0+
#490000
b10101 w
b10101 s
b11 k
b10101 o
b10101 p
b101 q
b10101 4#
b111001100011 -#
b101 .#
b11001 5
1+
#500000
0+
#510000
b10110 4#
b111010001010 -#
b110 .#
b10110 w
b10110 s
b10 k
b10110 o
b10110 p
b110 q
b11010 5
1+
#520000
0+
#530000
b10111 w
b10111 s
b1 k
b10111 o
b10111 p
b111 q
b10111 4#
b111010101100 -#
b111 .#
b11011 5
1+
#540000
0+
#550000
b11000 4#
b111011001010 -#
b0 .#
b11000 w
b11000 s
b0 k
b11000 o
b11000 p
b0 q
b11100 5
1+
#560000
0+
#570000
b11001 w
b11001 s
b11001 o
b11001 p
b1 q
b11001 4#
b111011100100 -#
b1 .#
b11101 5
1+
#580000
0+
#590000
b11010 4#
b111011111011 -#
b10 .#
b11010 w
b11010 s
b11010 o
b11010 p
b10 q
b11110 5
1+
#600000
0+
#610000
b11011 w
b11011 s
b11011 o
b11011 p
b11 q
b11011 4#
b111100001111 -#
b11 .#
b11111 5
1+
#620000
0+
#630000
b11100 4#
b111100100000 -#
b100 .#
b11100 w
b11100 s
b11100 o
b11100 p
b100 q
b100000 5
1+
#640000
0+
#650000
b11101 w
b11101 s
b11101 o
b11101 p
b101 q
b11101 4#
b111100101111 -#
b101 .#
b100001 5
1+
#660000
0+
#670000
b11110 4#
b111100111100 -#
b110 .#
b11110 w
b11110 s
b11110 o
b11110 p
b110 q
b100010 5
1+
#680000
0+
#690000
b11111 w
b11111 s
b11111 o
b11111 p
b111 q
b11111 4#
b111101001000 -#
b111 .#
b100011 5
1+
#700000
0+
#710000
b100000 4#
b111101010010 -#
b0 .#
b100000 w
b100000 s
b100000 o
b0 p
b0 q
b100100 5
1+
#720000
0+
#730000
b100001 w
b100001 s
b100001 o
b1 p
b1 q
b100001 4#
b111101011011 -#
b1 .#
b100101 5
1+
#740000
0+
#750000
b100010 4#
b111101100011 -#
b10 .#
b100010 w
b100010 s
b100010 o
b10 p
b10 q
b100110 5
1+
#760000
0+
#770000
b100011 w
b100011 s
b100011 o
b11 p
b11 q
b100011 4#
b111101101010 -#
b11 .#
b100111 5
1+
#780000
0+
#790000
b100100 4#
b111101110000 -#
b100 .#
b100100 w
b100100 s
b100100 o
b100 p
b100 q
b101000 5
1+
#800000
0+
#810000
b100101 w
b100101 s
b100101 o
b101 p
b101 q
b100101 4#
b111101110101 -#
b101 .#
b101001 5
1+
#820000
0+
#830000
b100110 4#
b111101111001 -#
b110 .#
b100110 w
b100110 s
b100110 o
b110 p
b110 q
b101010 5
1+
#840000
0+
#850000
b100111 w
b100111 s
b100111 o
b111 p
b111 q
b100111 4#
b111101111101 -#
b111 .#
b101011 5
1+
#860000
0+
#870000
b101000 4#
b111110000000 -#
b0 .#
b101000 w
b101000 s
b101000 o
b1000 p
b0 q
b101100 5
1+
#880000
0+
#890000
b101001 w
b101001 s
b101001 o
b1001 p
b1 q
b101001 4#
b111110000011 -#
b1 .#
b101101 5
1+
#900000
0+
#910000
b101010 4#
b111110000110 -#
b10 .#
b101010 w
b101010 s
b101010 o
b1010 p
b10 q
b101110 5
1+
#920000
0+
#930000
b101011 w
b101011 s
b101011 o
b1011 p
b11 q
b101011 4#
b111110001000 -#
b11 .#
b101111 5
1+
#940000
0+
#950000
b101100 4#
b111110001010 -#
b100 .#
b101100 w
b101100 s
b101100 o
b1100 p
b100 q
b110000 5
1+
#960000
0+
#970000
b101101 w
b101101 s
b101101 o
b1101 p
b101 q
b101101 4#
b111110001100 -#
b101 .#
b110001 5
1+
#980000
0+
#990000
b101110 4#
b111110001110 -#
b110 .#
b101110 w
b101110 s
b101110 o
b1110 p
b110 q
b110010 5
1+
#1000000
0+
#1010000
b101111 w
b101111 s
b101111 o
b1111 p
b111 q
b101111 4#
b111110001111 -#
b111 .#
b110011 5
1+
#1020000
0+
#1030000
b110000 4#
b111110010000 -#
b0 .#
b110000 w
b110000 s
b110000 o
b10000 p
b0 q
b110100 5
1+
#1040000
0+
#1050000
b110001 w
b110001 s
b110001 o
b10001 p
b1 q
b110001 4#
b111110010001 -#
b1 .#
b110101 5
1+
#1060000
0+
#1070000
b110010 4#
b111110010010 -#
b10 .#
b110010 w
b110010 s
b110010 o
b10010 p
b10 q
b110110 5
1+
#1080000
0+
#1090000
b110011 w
b110011 s
b110011 o
b10011 p
b11 q
b110011 4#
b111110010011 -#
b11 .#
b110111 5
1+
#1100000
0+
#1110000
b110100 4#
b111110010100 -#
b100 .#
b110100 w
b110100 s
b110100 o
b10100 p
b100 q
b111000 5
1+
#1120000
0+
#1130000
b110101 w
b110101 s
b110101 o
b10101 p
b101 q
b110101 4#
b111110010101 -#
b101 .#
b111001 5
1+
#1140000
0+
#1150000
b110110 4#
b110 .#
b110110 w
b110110 s
b110110 o
b10110 p
b110 q
b111010 5
1+
#1160000
0+
#1170000
b110111 w
b110111 s
b110111 o
b10111 p
b111 q
b110111 4#
b111 .#
b111011 5
1+
#1180000
0+
#1190000
b111000 4#
b0 .#
b111000 w
b111000 s
b111000 o
b11000 p
b0 q
b111100 5
1+
#1200000
0+
#1210000
b111001 w
b111001 s
b111001 o
b11001 p
b1 q
b111001 4#
b1 .#
b111101 5
1+
#1220000
0+
#1230000
b111010 4#
b10 .#
b111010 w
b111010 s
b111010 o
b11010 p
b10 q
b111110 5
1+
#1240000
0+
#1250000
b111011 w
b111011 s
b111011 o
b11011 p
b11 q
b111011 4#
b11 .#
b111111 5
1+
#1260000
0+
#1270000
b111100 4#
b100 .#
b111100 w
b111100 s
b111100 o
b11100 p
b100 q
b1000000 5
1+
#1280000
0+
#1290000
b111101 w
b111101 s
b111101 o
b11101 p
b101 q
b111101 4#
b101 .#
b1000001 5
1+
#1300000
0+
#1310000
b111110 4#
b110 .#
b111110 w
b111110 s
b111110 o
b11110 p
b110 q
b1000010 5
1+
#1320000
0+
#1330000
b111111 w
b111111 s
b111111 o
b11111 p
b111 q
b111111 4#
b111 .#
b1000011 5
1+
#1340000
0+
#1350000
b1000000 4#
b0 .#
b1000000 w
b1000000 s
b0 o
b0 p
b0 q
b1000100 5
1+
#1360000
0+
#1370000
b1000001 w
b1000001 s
b1 o
b1 p
b1 q
b1000001 4#
b1 .#
b1000101 5
1+
#1380000
0+
#1390000
b1000010 4#
b10 .#
b1000010 w
b1000010 s
b10 o
b10 p
b10 q
b1000110 5
1+
#1400000
0+
#1410000
b1000011 w
b1000011 s
b11 o
b11 p
b11 q
b1000011 4#
b11 .#
b1000111 5
1+
#1420000
0+
#1430000
b1000100 4#
b100 .#
b1000100 w
b1000100 s
b100 o
b100 p
b100 q
b1001000 5
1+
#1440000
0+
#1450000
b1000101 w
b1000101 s
b101 o
b101 p
b101 q
b1000101 4#
b101 .#
b1001001 5
1+
#1460000
0+
#1470000
b1000110 4#
b110 .#
b1000110 w
b1000110 s
b110 o
b110 p
b110 q
b1001010 5
1+
#1480000
0+
#1490000
b1000111 w
b1000111 s
b111 o
b111 p
b111 q
b1000111 4#
b111 .#
b1001011 5
1+
#1500000
0+
#1510000
b1001000 4#
b0 .#
b1001000 w
b1001000 s
b1000 o
b1000 p
b0 q
b1001100 5
1+
#1520000
0+
#1530000
b1001001 w
b1001001 s
b1001 o
b1001 p
b1 q
b1001001 4#
b1 .#
b1001101 5
1+
#1540000
0+
#1550000
b1001010 4#
b10 .#
b1001010 w
b1001010 s
b1010 o
b1010 p
b10 q
b1001110 5
1+
#1560000
0+
#1570000
b1001011 w
b1001011 s
b1011 o
b1011 p
b11 q
b1001011 4#
b11 .#
b1001111 5
1+
#1580000
0+
#1590000
b1001100 4#
b100 .#
b1001100 w
b1001100 s
b1100 o
b1100 p
b100 q
b1010000 5
1+
#1600000
0+
#1610000
b1001101 w
b1001101 s
b1101 o
b1101 p
b101 q
b1001101 4#
b101 .#
b1010001 5
1+
#1620000
0+
#1630000
b1001110 4#
b110 .#
b1001110 w
b1001110 s
b1110 o
b1110 p
b110 q
b1010010 5
1+
#1640000
0+
#1650000
b1001111 w
b1001111 s
b1111 o
b1111 p
b111 q
b1001111 4#
b111 .#
b1010011 5
1+
#1660000
0+
#1670000
b1010000 4#
b0 .#
b1010000 w
b1010000 s
b10000 o
b10000 p
b0 q
b1010100 5
1+
#1680000
0+
#1690000
b1010001 w
b1010001 s
b10001 o
b10001 p
b1 q
b1010001 4#
b1 .#
b1010101 5
1+
#1700000
0+
#1710000
b1010010 4#
b10 .#
b1010010 w
b1010010 s
b10010 o
b10010 p
b10 q
b1010110 5
1+
#1720000
0+
#1730000
b1010011 w
b1010011 s
b10011 o
b10011 p
b11 q
b1010011 4#
b11 .#
b1010111 5
1+
#1740000
0+
#1750000
b1010100 4#
b100 .#
b1010100 w
b1010100 s
b10100 o
b10100 p
b100 q
b1011000 5
1+
#1760000
0+
#1770000
b1010101 w
b1010101 s
b10101 o
b10101 p
b101 q
b1010101 4#
b101 .#
b1011001 5
1+
#1780000
0+
#1790000
b1010110 4#
b110 .#
b1010110 w
b1010110 s
b10110 o
b10110 p
b110 q
b1011010 5
1+
#1800000
0+
#1810000
b1010111 w
b1010111 s
b10111 o
b10111 p
b111 q
b1010111 4#
b111 .#
b1011011 5
1+
#1820000
0+
#1830000
b1011000 4#
b0 .#
b1011000 w
b1011000 s
b11000 o
b11000 p
b0 q
b1011100 5
1+
#1840000
0+
#1850000
b1011001 w
b1011001 s
b11001 o
b11001 p
b1 q
b1011001 4#
b1 .#
b1011101 5
1+
#1860000
0+
#1870000
b1011010 4#
b10 .#
b1011010 w
b1011010 s
b11010 o
b11010 p
b10 q
b1011110 5
1+
#1880000
0+
#1890000
b1011011 w
b1011011 s
b11011 o
b11011 p
b11 q
b1011011 4#
b11 .#
b1011111 5
1+
#1900000
0+
#1910000
b1011100 4#
b100 .#
b1011100 w
b1011100 s
b11100 o
b11100 p
b100 q
b1100000 5
1+
#1920000
0+
#1930000
b1011101 w
b1011101 s
b11101 o
b11101 p
b101 q
b1011101 4#
b101 .#
b1100001 5
1+
#1940000
0+
#1950000
b1011110 4#
b110 .#
b1011110 w
b1011110 s
b11110 o
b11110 p
b110 q
b1100010 5
1+
#1960000
0+
#1970000
b1011111 w
b1011111 s
b11111 o
b11111 p
b111 q
b1011111 4#
b111 .#
b1100011 5
1+
#1980000
0+
#1990000
b1100000 4#
b0 .#
b1100000 w
b1100000 s
b100000 o
b0 p
b0 q
b1100100 5
1+
#2000000
0+
#2010000
b1100001 w
b1100001 s
b100001 o
b1 p
b1 q
b1100001 4#
b1 .#
b1100101 5
1+
#2020000
0+
#2030000
b1100010 4#
b10 .#
b1100010 w
b1100010 s
b100010 o
b10 p
b10 q
b1100110 5
1+
#2040000
0+
#2050000
b1100011 w
b1100011 s
b100011 o
b11 p
b11 q
b1100011 4#
b11 .#
b1100111 5
1+
#2060000
0+
#2070000
b1100100 4#
b100 .#
b1100100 w
b1100100 s
b100100 o
b100 p
b100 q
b1101000 5
1+
#2080000
0+
#2090000
b1100101 w
b1100101 s
b100101 o
b101 p
b101 q
b1100101 4#
b101 .#
b1101001 5
1+
#2100000
0+
#2110000
b1100110 4#
b110 .#
b1100110 w
b1100110 s
b100110 o
b110 p
b110 q
b1101010 5
1+
#2120000
0+
#2130000
b1100111 w
b1100111 s
b100111 o
b111 p
b111 q
b1100111 4#
b111 .#
b1101011 5
1+
#2140000
0+
#2150000
b1101000 4#
b0 .#
b1101000 w
b1101000 s
b101000 o
b1000 p
b0 q
b1101100 5
1+
#2160000
0+
#2170000
b1101001 w
b1101001 s
b101001 o
b1001 p
b1 q
b1101001 4#
b1 .#
b1101101 5
1+
#2180000
0+
#2190000
b1101010 4#
b10 .#
b1101010 w
b1101010 s
b101010 o
b1010 p
b10 q
b1101110 5
1+
#2200000
0+
#2210000
b1101011 w
b1101011 s
b101011 o
b1011 p
b11 q
b1101011 4#
b11 .#
b1101111 5
1+
#2220000
0+
#2230000
b1101100 4#
b100 .#
b1101100 w
b1101100 s
b101100 o
b1100 p
b100 q
b1110000 5
1+
#2240000
0+
#2250000
b1101101 w
b1101101 s
b101101 o
b1101 p
b101 q
b1101101 4#
b101 .#
b1110001 5
1+
#2260000
0+
#2270000
b1101110 4#
b110 .#
b1101110 w
b1101110 s
b101110 o
b1110 p
b110 q
b1110010 5
1+
#2280000
0+
