nanotrade_stock.vcd
$date
	Thu Feb 19 15:26:10 2026
$end
$version
	Icarus Verilog
$end
$timescale
	1ps
$end
$scope module tb_nanotrade_stock $end
$var wire 8 ! uio_oe [7:0] $end
$var wire 8 " uo_out [7:0] $end
$var wire 8 # uio_out [7:0] $end
$var wire 1 $ ml_valid_out $end
$var wire 4 % ml_conf_nibble [3:0] $end
$var wire 3 & ml_class_out [2:0] $end
$var wire 3 ' alert_type [2:0] $end
$var wire 3 ( alert_priority [2:0] $end
$var wire 1 ) alert_flag $end
$var reg 1 * clk $end
$var reg 1 + ena $end
$var reg 8 , ml_class_seen [7:0] $end
$var reg 1 - prev_alert $end
$var reg 3 . prev_prio [2:0] $end
$var reg 3 / prev_type [2:0] $end
$var reg 1 0 rst_n $end
$var reg 8 1 rule_type_seen [7:0] $end
$var reg 4096 2 stimulus_file [4095:0] $end
$var reg 128 3 ticker_name [127:0] $end
$var reg 8 4 ui_in [7:0] $end
$var reg 8 5 uio_in [7:0] $end
$var reg 1 6 warmup_active $end
$var integer 32 7 cycle_count [31:0] $end
$var integer 32 8 flash_crashes [31:0] $end
$var integer 32 9 i [31:0] $end
$var integer 32 : ml_inferences [31:0] $end
$var integer 32 ; preset [31:0] $end
$var integer 32 < stim_idx [31:0] $end
$var integer 32 = stim_size [31:0] $end
$var integer 32 > total_alerts [31:0] $end
$var integer 32 ? warmup_end_cycle [31:0] $end
$scope function alert_name_full $end
$var reg 3 @ t [2:0] $end
$upscope $end
$scope function conf_bar $end
$var reg 4 A c [3:0] $end
$upscope $end
$scope function ml_class_name $end
$var reg 3 B c [2:0] $end
$upscope $end
$scope function prio_bar $end
$var reg 3 C p [2:0] $end
$upscope $end
$scope module dut $end
$var wire 1 * clk $end
$var wire 1 D comb_alert $end
$var wire 1 E config_strobe $end
$var wire 1 + ena $end
$var wire 1 0 rst_n $end
$var wire 1 F uart_trigger $end
$var wire 8 G ui_in [7:0] $end
$var wire 8 H uio_in [7:0] $end
$var wire 8 I uio_oe [7:0] $end
$var wire 12 J vol_data [11:0] $end
$var wire 8 K uio_out [7:0] $end
$var wire 8 L uart_payload [7:0] $end
$var wire 3 M rule_alert_type [2:0] $end
$var wire 3 N rule_alert_priority [2:0] $end
$var wire 8 O rule_alert_bitmap [7:0] $end
$var wire 1 P rule_alert_any $end
$var wire 12 Q price_data [11:0] $end
$var wire 1 R ml_valid $end
$var wire 8 S ml_confidence [7:0] $end
$var wire 3 T ml_class [2:0] $end
$var wire 1 U match_valid $end
$var wire 8 V match_price [7:0] $end
$var wire 2 W input_type [1:0] $end
$var wire 128 X features [127:0] $end
$var wire 1 Y feature_valid $end
$var wire 3 Z comb_type [2:0] $end
$var wire 3 [ comb_priority [2:0] $end
$var wire 1 \ _unused $end
$var wire 12 ] SPIKE_THRESH [11:0] $end
$var wire 12 ^ FLASH_THRESH [11:0] $end
$var parameter 32 _ BAUD_DIV $end
$var parameter 32 ` CLK_HZ $end
$var parameter 32 a HB_DIV $end
$var reg 25 b hb_cnt [24:0] $end
$var reg 1 c hb_led $end
$var reg 1 d ml_anomaly_held $end
$var reg 3 e ml_class_held [2:0] $end
$var reg 8 f ml_conf_held [7:0] $end
$var reg 3 g ml_prio_held [2:0] $end
$var reg 1 h prev_alert_r $end
$var reg 2 i thresh_sel [1:0] $end
$var reg 10 j uart_bit_cnt [9:0] $end
$var reg 4 k uart_bits [3:0] $end
$var reg 1 l uart_busy $end
$var reg 10 m uart_shift [9:0] $end
$var reg 1 n uart_tx $end
$var reg 8 o uo_out [7:0] $end
$scope module u_feat_extractor $end
$var wire 1 * clk $end
$var wire 2 p input_type [1:0] $end
$var wire 12 q price_data [11:0] $end
$var wire 1 0 rst_n $end
$var wire 12 r volume_data [11:0] $end
$var wire 1 U match_valid $end
$var wire 8 s match_price [7:0] $end
$var wire 1 t is_volume $end
$var wire 1 u is_sell $end
$var wire 1 v is_price $end
$var wire 1 w is_buy $end
$var reg 8 x buy_count [7:0] $end
$var reg 12 y cur_price [11:0] $end
$var reg 12 z cur_vol [11:0] $end
$var reg 1 Y feature_valid $end
$var reg 128 { features [127:0] $end
$var reg 12 | local_avg [11:0] $end
$var reg 12 } local_delta [11:0] $end
$var reg 8 ~ match_count [7:0] $end
$var reg 8 !" match_rate [7:0] $end
$var reg 12 "" price_avg [11:0] $end
$var reg 12 #" price_mad [11:0] $end
$var reg 12 $" price_prev1 [11:0] $end
$var reg 12 %" price_prev2 [11:0] $end
$var reg 15 &" price_sum8 [14:0] $end
$var reg 6 '" ptr_l [5:0] $end
$var reg 5 (" ptr_m [4:0] $end
$var reg 3 )" ptr_s [2:0] $end
$var reg 8 *" sell_count [7:0] $end
$var reg 16 +" trade_timer [15:0] $end
$var reg 12 ," vol_avg [11:0] $end
$var reg 3 -" vol_ptr [2:0] $end
$var reg 15 ." vol_sum8 [14:0] $end
$var reg 8 /" window_cnt [7:0] $end
$var integer 32 0" i [31:0] $end
$scope function clip8 $end
$var reg 12 1" x [11:0] $end
$upscope $end
$scope function clip8_16 $end
$var reg 16 2" x [15:0] $end
$upscope $end
$scope function imbalance_byte $end
$var reg 8 3" buys [7:0] $end
$var reg 16 4" num [15:0] $end
$var reg 8 5" sells [7:0] $end
$var reg 16 6" total [15:0] $end
$upscope $end
$scope function momentum_byte $end
$var reg 13 7" d1 [12:0] $end
$var reg 13 8" d2 [12:0] $end
$var reg 13 9" mom [12:0] $end
$var reg 12 :" p0 [11:0] $end
$var reg 12 ;" p1 [11:0] $end
$var reg 12 <" p2 [11:0] $end
$upscope $end
$scope function price_delta $end
$var reg 12 =" a [11:0] $end
$var reg 12 >" b [11:0] $end
$var reg 12 ?" d [11:0] $end
$upscope $end
$scope function spread_byte $end
$var reg 8 @" asks [7:0] $end
$var reg 8 A" bids [7:0] $end
$upscope $end
$scope function vol_ratio_byte $end
$var reg 12 B" avg [11:0] $end
$var reg 12 C" cur [11:0] $end
$var reg 20 D" num [19:0] $end
$upscope $end
$upscope $end
$scope module u_ml_engine $end
$var wire 1 * clk $end
$var wire 1 Y feature_valid $end
$var wire 128 E" features [127:0] $end
$var wire 1 0 rst_n $end
$var reg 32 F" acc2_tmp [31:0] $end
$var reg 3 G" best_class [2:0] $end
$var reg 32 H" gap [31:0] $end
$var reg 32 I" max_logit [31:0] $end
$var reg 32 J" min_logit [31:0] $end
$var reg 3 K" ml_class [2:0] $end
$var reg 8 L" ml_confidence [7:0] $end
$var reg 1 R ml_valid $end
$var reg 1 M" s0_valid $end
$var reg 1 N" s1_valid $end
$var reg 1 O" s2_valid $end
$var integer 32 P" h1 [31:0] $end
$var integer 32 Q" h2 [31:0] $end
$var integer 32 R" i1 [31:0] $end
$var integer 32 S" j3 [31:0] $end
$var integer 32 T" k [31:0] $end
$var integer 32 U" o2 [31:0] $end
$scope function rom_b1 $end
$var reg 2 V" addr [1:0] $end
$upscope $end
$scope function rom_b2 $end
$var reg 3 W" addr [2:0] $end
$upscope $end
$scope function rom_w1 $end
$var reg 6 X" addr [5:0] $end
$upscope $end
$scope function rom_w2 $end
$var reg 5 Y" addr [4:0] $end
$upscope $end
$scope begin unpack[0] $end
$var parameter 2 Z" gi $end
$upscope $end
$scope begin unpack[1] $end
$var parameter 2 [" gi $end
$upscope $end
$scope begin unpack[2] $end
$var parameter 3 \" gi $end
$upscope $end
$scope begin unpack[3] $end
$var parameter 3 ]" gi $end
$upscope $end
$scope begin unpack[4] $end
$var parameter 4 ^" gi $end
$upscope $end
$scope begin unpack[5] $end
$var parameter 4 _" gi $end
$upscope $end
$scope begin unpack[6] $end
$var parameter 4 `" gi $end
$upscope $end
$scope begin unpack[7] $end
$var parameter 4 a" gi $end
$upscope $end
$scope begin unpack[8] $end
$var parameter 5 b" gi $end
$upscope $end
$scope begin unpack[9] $end
$var parameter 5 c" gi $end
$upscope $end
$scope begin unpack[10] $end
$var parameter 5 d" gi $end
$upscope $end
$scope begin unpack[11] $end
$var parameter 5 e" gi $end
$upscope $end
$scope begin unpack[12] $end
$var parameter 5 f" gi $end
$upscope $end
$scope begin unpack[13] $end
$var parameter 5 g" gi $end
$upscope $end
$scope begin unpack[14] $end
$var parameter 5 h" gi $end
$upscope $end
$scope begin unpack[15] $end
$var parameter 5 i" gi $end
$upscope $end
$upscope $end
$scope module u_order_book $end
$var wire 1 * clk $end
$var wire 6 j" data_in [5:0] $end
$var wire 6 k" ext_data [5:0] $end
$var wire 2 l" input_type [1:0] $end
$var wire 1 m" is_order $end
$var wire 1 0 rst_n $end
$var wire 7 n" new_price [6:0] $end
$var wire 1 o" is_sell $end
$var wire 1 p" is_buy $end
$var reg 7 q" best_ask [6:0] $end
$var reg 2 r" best_ask_idx [1:0] $end
$var reg 1 s" best_ask_valid $end
$var reg 7 t" best_bid [6:0] $end
$var reg 2 u" best_bid_idx [1:0] $end
$var reg 1 v" best_bid_valid $end
$var reg 2 w" empty_ask_slot [1:0] $end
$var reg 2 x" empty_bid_slot [1:0] $end
$var reg 1 y" has_empty_ask $end
$var reg 1 z" has_empty_bid $end
$var reg 8 {" match_price [7:0] $end
$var reg 1 U match_valid $end
$var integer 32 |" i [31:0] $end
$upscope $end
$scope module u_rule_detector $end
$var wire 1 * clk $end
$var wire 1 }" det_flash $end
$var wire 1 ~" det_imbalance $end
$var wire 1 !# det_spread $end
$var wire 1 "# det_vol_dry $end
$var wire 1 ## det_vol_surge $end
$var wire 1 $# det_volatility $end
$var wire 12 %# flash_thresh [11:0] $end
$var wire 2 &# input_type [1:0] $end
$var wire 8 '# match_price [7:0] $end
$var wire 1 U match_valid $end
$var wire 12 (# price_data [11:0] $end
$var wire 1 0 rst_n $end
$var wire 12 )# spike_thresh [11:0] $end
$var wire 12 *# volume_data [11:0] $end
$var wire 13 +# vol_surge_thresh [12:0] $end
$var wire 12 ,# vol_dry_thresh [11:0] $end
$var wire 12 -# vol_deviation [11:0] $end
$var wire 12 .# price_drop [11:0] $end
$var wire 12 /# price_delta [11:0] $end
$var wire 1 0# is_volume $end
$var wire 1 1# is_sell $end
$var wire 1 2# is_price $end
$var wire 1 3# is_buy $end
$var wire 1 4# det_velocity $end
$var wire 1 5# det_spike $end
$var wire 3 6# alert_type [2:0] $end
$var wire 3 7# alert_priority [2:0] $end
$var wire 8 8# alert_bitmap [7:0] $end
$var wire 1 P alert_any $end
$var parameter 6 9# VELOCITY_THRESH $end
$var parameter 32 :# VOL_DRY_DIV $end
$var parameter 32 ;# VOL_SURGE_MULT $end
$var reg 4 <# buy_order_count [3:0] $end
$var reg 12 =# current_price [11:0] $end
$var reg 12 ># current_volume [11:0] $end
$var reg 6 ?# match_counter [5:0] $end
$var reg 6 @# match_rate [5:0] $end
$var reg 12 A# prev_price [11:0] $end
$var reg 12 B# price_avg [11:0] $end
$var reg 12 C# price_mad [11:0] $end
$var reg 3 D# price_ptr [2:0] $end
$var reg 15 E# price_sum [14:0] $end
$var reg 4 F# sell_order_count [3:0] $end
$var reg 12 G# vol_avg [11:0] $end
$var reg 3 H# vol_ptr [2:0] $end
$var reg 15 I# vol_sum [14:0] $end
$var reg 8 J# window_timer [7:0] $end
$var integer 32 K# i [31:0] $end
$upscope $end
$upscope $end
$upscope $end
$enddefinitions $end
$comment Show the parameter values. $end
$dumpall
b1 ;#
b100 :#
b11110 9#
b1111 i"
b1110 h"
b1101 g"
b1100 f"
b1011 e"
b1010 d"
b1001 c"
b1000 b"
b111 a"
b110 `"
b101 _"
b100 ^"
b11 ]"
b10 \"
b1 ["
b0 Z"
b1011111010111100001000000 a
b10111110101111000010000000 `
b110110010 _
$end
#0
$dumpvars
b1000 K#
b0 J#
b0 I#
b0 H#
b1100100 G#
b0 F#
b0 E#
b0 D#
b101 C#
b1100100 B#
b1100100 A#
b0 @#
b0 ?#
b0 >#
b1100100 =#
b0 <#
b10 8#
b1 7#
b1 6#
05#
04#
03#
12#
01#
00#
b0 /#
b0 .#
b0 -#
b110 ,#
b11001000 +#
b0 *#
b10100 )#
b0 (#
b0 '#
b0 &#
b101000 %#
0$#
0##
1"#
0!#
0~"
0}"
b11111111111111111111111111111111 |"
b0 {"
1z"
1y"
b0 x"
b0 w"
0v"
b0 u"
b0 t"
0s"
b0 r"
b1111111 q"
0p"
0o"
b0 n"
0m"
b0 l"
b0 k"
b0 j"
bx Y"
bx X"
bx W"
bx V"
bx U"
b10000 T"
bx S"
bx R"
bx Q"
bx P"
0O"
0N"
0M"
b0 L"
b0 K"
bx J"
bx I"
bx H"
bx G"
bx F"
bx E"
bx D"
bx C"
bx B"
bx A"
bx @"
bx ?"
bx >"
bx ="
bx <"
bx ;"
bx :"
bx 9"
bx 8"
bx 7"
bx 6"
bx 5"
bx 4"
bx 3"
bx 2"
bx 1"
b1000 0"
b0 /"
b1100100000 ."
b0 -"
b1100100 ,"
b0 +"
b0 *"
b0 )"
b0 ("
b0 '"
b1100100000 &"
b1100100 %"
b1100100 $"
b101 #"
b1100100 ""
b0 !"
b0 ~
bx }
bx |
bx {
b1100100 z
b1100100 y
b0 x
0w
1v
0u
0t
b0 s
b0 r
b0 q
b0 p
b10010001 o
1n
b1111111111 m
0l
b0 k
b0 j
b1 i
0h
b0 g
b0 f
b0 e
0d
0c
b0 b
b101000 ^
b10100 ]
0\
b1 [
b1 Z
0Y
bx X
b0 W
b0 V
0U
b0 T
b0 S
0R
b0 Q
1P
b10 O
b1 N
b1 M
b100100 L
b0 K
b0 J
b11111111 I
b0 H
b0 G
1F
0E
1D
bx C
bx B
bx A
bx @
b0 ?
b0 >
b1011010000 =
bx <
b1 ;
b0 :
b100000000000000 9
b0 8
b0 7
16
b0 5
b0 4
b10001110100110001000100 3
b1110011011101000110100101101101011101010110110001101001001011110100011101001100010001000101111100110010001100000011000100111001001100000011011000110000001101000101111101110011011101000110100101101101011101010110110001110101011100110010111001101101011001010110110101101000 2
b0 1
00
b0 /
b0 .
0-
b0 ,
1+
0*
1)
b1 (
b1 '
b0 &
b0 %
0$
b0 #
b10010001 "
b11111111 !
$end
#10000
b1 /
b1 .
1-
b110 T"
b1000 0"
b1000 K#
b100 |"
b1 7
1*
#20000
0*
#30000
b100 |"
b1000 K#
b1000 0"
b10000 T"
b10 7
1*
#40000
0*
#50000
b110 T"
b1000 0"
b1000 K#
b100 |"
b11 7
1*
#60000
0*
#70000
b100 |"
b1000 K#
b1000 0"
b10000 T"
b100 7
1*
#80000
0*
#90000
b110 '
b110 (
b11100110 "
b11100110 o
b110 [
b11011000 L
b110 Z
b110 N
b110 7#
b110 M
b110 6#
1$#
0F
b1010100 -#
b1000011 O
b1000011 8#
15#
b1100100 /#
b1 b
0n
1l
b1001001000 m
1h
b1 /"
b1 +"
b10000 #"
b1 '"
b1 ("
b1 )"
b1010111100 &"
b0 y
b1 J#
b10000 C#
b0 B#
b1 D#
b111111110011100 E#
b0 =#
b1100100 }
b1100100 |
b101 7
10
1*
#91000
1E
b100000 n"
b1000000 Q
b1000000 q
b1000000 (#
b1000000 J
b1000000 r
b1000000 *#
b1 k"
b10000001 5
b10000001 H
#100000
0*
#110000
b111 '
b111 (
b11110111 "
b11110111 o
b111 [
b11111100 L
b111 Z
b111 N
b111 7#
b111 M
b111 6#
0$#
b10000011 O
b10000011 8#
1}"
b101010 -#
b111110110011 .#
b1000000 /#
b10 J#
b10110 C#
b111111110011 B#
b10 D#
b111111101111000 E#
b1000000 =#
b0 A#
b10 /"
b10 +"
b10 '"
b10 ("
b1010111 ""
b10 )"
b1010011000 &"
b1000000 y
b0 $"
b1 j
b10 b
b110 /
b110 .
b10111 }
b1010111 |
b110 7
1*
#111000
0E
b0 n"
b0 Q
b0 q
b0 (#
b0 J
b0 r
b0 *#
b0 k"
b0 5
b0 H
#120000
0*
#130000
b0 -#
b111111101111 .#
b11 b
b10 j
b11 /"
b11 +"
b11000 #"
b11 '"
b11 ("
b1010011 ""
b11 )"
b1000110100 &"
b0 y
b1000000 $"
b0 %"
b11 J#
b1000010001 C#
b111111101111 B#
b11 D#
b111111100010100 E#
b0 =#
b1000000 A#
b111 /
b111 .
b1010011 }
b1010011 |
b111 7
1*
#131000
b110111 n"
b11111 k"
b11111101110 Q
b11111101110 q
b11111101110 (#
b11111101110 J
b11111101110 r
b11111101110 *#
b101110 j"
b11111 5
b11111 H
b101110 4
b101110 G
b0 <
b1000001100 ?
#140000
0*
#150000
b10100011111 -#
b11111110100 .#
b11111101110 /#
b100 J#
b1011001111 C#
b111111100010 B#
b100 D#
b11010011110 E#
b11111101110 =#
b0 A#
b100 /"
b100 +"
b100001010 #"
b100 '"
b100 ("
b1000110 ""
b100 )"
b100110111110 &"
b11111101110 y
b0 $"
b1000000 %"
b11 j
b100 b
b11110101000 }
b1000110 |
b1000 7
1*
#151000
b0 n"
b1000 k"
0v
1t
02#
10#
b1 W
b1 p
b1 l"
b1 &#
b1000000000 Q
b1000000000 q
b1000000000 (#
b1000000000 J
b1000000000 r
b1000000000 *#
b0 j"
b1000 5
b1000 H
b1000000 4
b1000000 G
b1 <
#160000
0*
#170000
b0 +#
b0 ,#
b10000001 O
b10000001 8#
0"#
b101 b
b100 j
b101 /"
b101 +"
b1 -"
b10010111100 ."
b1000000000 z
b101 J#
b0 G#
b1 H#
b110011100 I#
b1000000000 >#
b1001 7
1*
#171000
1m"
b11110 n"
b0 k"
0t
1w
1p"
00#
13#
b10 W
b10 p
b10 l"
b10 &#
b111101 Q
b111101 q
b111101 (#
b111101 J
b111101 r
b111101 *#
b111101 j"
b0 5
b0 H
b10111101 4
b10111101 G
b10 <
#180000
0*
#190000
b0 w"
b1 x"
1y"
1z"
1v"
b11110 t"
b11111111111111111111111111111111 |"
b110 J#
b1 <#
b110 /"
b110 +"
b1 x
b101 j
b110 b
b1010 7
1*
#191000
b11 <
#200000
0*
#210000
b0 w"
1y"
1z"
b10 x"
b11111111111111111111111111111111 |"
1v"
b11110 t"
b111 b
b110 j
b111 /"
b111 +"
b10 x
b111 J#
b10 <#
b1011 7
1*
#211000
b100 <
#220000
0*
#230000
b10100001 O
b10100001 8#
1!#
b0 w"
1y"
1z"
b11 x"
b11111111111111111111111111111111 |"
1v"
b11110 t"
b1000 J#
b11 <#
b1000 /"
b1000 +"
b11 x
b111 j
b1000 b
b1100 7
1*
#231000
b101 <
#240000
0*
#250000
b0 w"
1y"
0z"
b0 x"
b11111111111111111111111111111111 |"
1v"
b11110 t"
b1001 b
b1000 j
b1001 /"
b1001 +"
b100 x
b1001 J#
b100 <#
b1101 7
1*
#251000
b110 <
#260000
0*
#270000
b1010 J#
b101 <#
b1010 /"
b1010 +"
b101 x
b1001 j
b1010 b
b1110 7
1*
#271000
b111 <
#280000
0*
#290000
b1011 b
b1010 j
b1011 /"
b1011 +"
b110 x
b1011 J#
b110 <#
b1111 7
1*
#291000
b1000 <
#300000
0*
#310000
b1100 J#
b111 <#
b1100 /"
b1100 +"
b111 x
b1011 j
b1100 b
b10000 7
1*
#311000
b0 n"
0w
1u
0p"
1o"
03#
11#
b11 W
b11 p
b11 l"
b11 &#
b1 Q
b1 q
b1 (#
b1 J
b1 r
b1 *#
b1 j"
b11000001 4
b11000001 G
b1001 <
#320000
0*
#330000
0!#
b10010001 O
b10010001 8#
1~"
b1 w"
1y"
1s"
b0 q"
b11111111111111111111111111111111 |"
1v"
b11110 t"
b1101 b
b1100 j
b1101 /"
b1101 +"
b1 *"
b1101 J#
b1 F#
b10001 7
1*
#331000
b1010 <
#340000
0*
#350000
b10000001 O
b10000001 8#
0~"
b11111111 "
b11111111 o
1z"
1y"
b0 w"
b1 r"
b1 u"
b11111111111111111111111111111111 |"
1s"
b0 q"
1v"
b11110 t"
1U
b1110 J#
b10 F#
b1110 /"
b1110 +"
b10 *"
b1101 j
b1110 b
b10010 7
1*
#351000
b1011 <
#360000
0*
#370000
b0 x"
b1 w"
1y"
1z"
b11111111111111111111111111111111 |"
b0 r"
1s"
b0 q"
b10 u"
1v"
b11110 t"
b1111 b
b1110 j
b1111 /"
b0 +"
b1 ~
b11 *"
b1111 J#
b1 ?#
b11 F#
1U
b10011 7
1*
#371000
b1100 <
#380000
0*
#390000
b10010001 O
b10010001 8#
1~"
b0 x"
1y"
b0 w"
1z"
b1 r"
b11111111111111111111111111111111 |"
1s"
b0 q"
b11 u"
1v"
b11110 t"
1U
b10000 J#
b10 ?#
b100 F#
b10000 /"
b10 ~
b100 *"
b1111 j
b10000 b
b10100 7
1*
#391000
b1101 <
#400000
0*
#410000
b1 w"
b0 x"
1y"
1z"
b11111111111111111111111111111111 |"
b0 r"
1s"
b0 q"
b0 u"
0v"
b0 t"
b10001 b
b10000 j
b10001 /"
b11 ~
b101 *"
b10001 J#
b11 ?#
b101 F#
1U
b10101 7
1*
#411000
b1110 <
#420000
0*
#430000
b10000001 O
b10000001 8#
0~"
b0 x"
1y"
b10 w"
1z"
b11111111111111111111111111111111 |"
1s"
b0 q"
b11110111 "
b11110111 o
0U
b10010 J#
b100 ?#
b110 F#
b10010 /"
b100 ~
b110 *"
b10001 j
b10010 b
b10110 7
1*
#431000
b1111 <
#440000
0*
#450000
b0 x"
1y"
b11 w"
1z"
b11111111111111111111111111111111 |"
1s"
b0 q"
b10011 b
b10010 j
b10011 /"
b1 +"
b111 *"
b10011 J#
b111 F#
b10111 7
1*
#451000
0m"
b110111 n"
b11111 k"
1v
0u
0o"
12#
01#
b0 W
b0 p
b0 l"
b0 &#
b11111101110 Q
b11111101110 q
b11111101110 (#
b11111101110 J
b11111101110 r
b11111101110 *#
b101110 j"
b11111 5
b11111 H
b101110 4
b101110 G
b10000 <
#460000
0*
#470000
b0 '
b0 (
0)
b0 "
b0 o
b0 [
b0 L
b0 Z
0D
b0 N
b0 7#
b0 M
b0 6#
0P
0}"
b0 -#
b0 .#
b0 O
b0 8#
05#
b0 /#
b10100 J#
b1101110011 C#
b11010011 B#
b101 D#
b111000101000 E#
b11111101110 A#
b10100 /"
b10 +"
b110111111 #"
b101 '"
b101 ("
b100110111 ""
b101 )"
b1000101001000 &"
b11111101110 $"
b0 %"
b10011 j
b10100 b
b11010110111 }
b100110111 |
b11000 7
1*
#471000
b0 n"
b1000 k"
0v
1t
02#
10#
b1 W
b1 p
b1 l"
b1 &#
b1000000000 Q
b1000000000 q
b1000000000 (#
b1000000000 J
b1000000000 r
b1000000000 *#
b0 j"
b1000 5
b1000 H
b1000000 4
b1000000 G
b10001 <
#480000
0*
#490000
b10 '
b10 (
b10 [
b1001000 L
b10 Z
b10 N
b10 7#
b10 M
b10 6#
1F
1)
b10100010 "
b10100010 o
1D
b1100110 +#
1P
b100 O
b100 8#
1##
b11 ,#
b10101 b
b10100 j
0h
b10101 /"
b11 +"
b10010111 ,"
b10 -"
b11001011000 ."
b10101 J#
b110011 G#
b10 H#
b1100111000 I#
b0 /
b0 .
0-
b11001 7
1*
#491000
1m"
b11110 n"
b0 k"
0t
1w
1p"
00#
13#
b10 W
b10 p
b10 l"
b10 &#
b111101 Q
b111101 q
b111101 (#
b111101 J
b111101 r
b111101 *#
b111101 j"
b0 5
b0 H
b10111101 4
b10111101 G
b10010 <
#500000
0*
#510000
b100 '
b100 (
b11000100 "
b11000100 o
b100 [
b10010000 L
b100 Z
b100 N
b100 7#
b100 M
b100 6#
b10100 O
b10100 8#
1~"
0F
b1 x"
1y"
b11 w"
1z"
1v"
b11110 t"
b11111111111111111111111111111111 |"
1s"
b0 q"
b10110 J#
b1000 <#
b10110 /"
b100 +"
b1000 x
1h
b10101 j
b10110 b
b10 /
b10 .
1-
b11010 7
1*
#511000
b10011 <
#520000
0*
#530000
b11001100 "
b11001100 o
1y"
b0 w"
1z"
b0 x"
b1 r"
b1 u"
b11111111111111111111111111111111 |"
1s"
b0 q"
1v"
b11110 t"
b10111 b
b10110 j
b10111 /"
b101 +"
b1001 x
b10111 J#
b1001 <#
1U
b100 /
b100 .
b11011 7
1*
#531000
b10100 <
#540000
0*
#550000
b10 '
b10 (
b10101010 "
b10101010 o
b10 [
b1001000 L
b10 Z
b10 N
b10 7#
b10 M
b10 6#
b100 O
b100 8#
0~"
b0 w"
b1 x"
1y"
1z"
b11111111111111111111111111111111 |"
b10 r"
1s"
b0 q"
b0 u"
1v"
b11110 t"
1U
b11000 J#
b101 ?#
b1010 <#
b11000 /"
b0 +"
b101 ~
b1010 x
b10111 j
b11000 b
b11100 7
1*
#551000
b10101 <
#560000
0*
#570000
b0 w"
1y"
1z"
b0 x"
b1 u"
b11111111111111111111111111111111 |"
b0 r"
0s"
b1111111 q"
1v"
b11110 t"
b11001 b
b11000 j
b11001 /"
b110 ~
b1011 x
b11001 J#
b110 ?#
b1011 <#
1U
b10 /
b10 .
b11101 7
1*
#571000
b10110 <
#580000
0*
#590000
b100 '
b100 (
b100 [
b10010000 L
b100 Z
b100 N
b100 7#
b100 M
b100 6#
b10100 O
b10100 8#
1~"
b0 w"
b10 x"
1y"
1z"
b11111111111111111111111111111111 |"
b0 u"
1v"
b11110 t"
b11000100 "
b11000100 o
0U
b11010 J#
b111 ?#
b1100 <#
b11010 /"
b111 ~
b1100 x
b11001 j
b11010 b
b11110 7
1*
#591000
b10111 <
#600000
0*
#610000
b0 w"
1y"
1z"
b11 x"
b11111111111111111111111111111111 |"
1v"
b11110 t"
b11011 b
b11010 j
b11011 /"
b1 +"
b1101 x
b11011 J#
b1101 <#
b100 /
b100 .
b11111 7
1*
#611000
b11000 <
#620000
0*
#630000
b0 w"
1y"
0z"
b0 x"
b11111111111111111111111111111111 |"
1v"
b11110 t"
b11100 J#
b1110 <#
b11100 /"
b10 +"
b1110 x
b11011 j
b11100 b
b100000 7
1*
#631000
b0 n"
0w
1u
0p"
1o"
03#
11#
b11 W
b11 p
b11 l"
b11 &#
b1 Q
b1 q
b1 (#
b1 J
b1 r
b1 *#
b1 j"
b11000001 4
b11000001 G
b11001 <
#640000
0*
#650000
b1 w"
1y"
1s"
b0 q"
b11111111111111111111111111111111 |"
1v"
b11110 t"
b11101 b
b11100 j
b11101 /"
b11 +"
b1000 *"
b11101 J#
b1000 F#
b100001 7
1*
#651000
b11010 <
#660000
0*
#670000
b11001100 "
b11001100 o
1z"
1y"
b0 w"
b1 r"
b1 u"
b11111111111111111111111111111111 |"
1s"
b0 q"
1v"
b11110 t"
1U
b11110 J#
b1001 F#
b11110 /"
b100 +"
b1001 *"
b11101 j
b11110 b
b100010 7
1*
#671000
b11011 <
#680000
0*
#690000
b0 x"
b1 w"
1y"
1z"
b11111111111111111111111111111111 |"
b0 r"
1s"
b0 q"
b10 u"
1v"
b11110 t"
b11111 b
b11110 j
b11111 /"
b0 +"
b1000 ~
b1010 *"
b11111 J#
b1000 ?#
b1010 F#
1U
b100011 7
1*
#691000
b11100 <
#700000
0*
#710000
b0 x"
1y"
b0 w"
1z"
b1 r"
b11111111111111111111111111111111 |"
1s"
b0 q"
b11 u"
1v"
b11110 t"
1U
b100000 J#
b1001 ?#
b1011 F#
b100000 /"
b1001 ~
b1011 *"
b11111 j
b100000 b
b100100 7
1*
#711000
b11101 <
#720000
0*
#730000
b1 w"
b0 x"
1y"
1z"
b11111111111111111111111111111111 |"
b0 r"
1s"
b0 q"
b0 u"
0v"
b0 t"
b100001 b
b100000 j
b100001 /"
b1010 ~
b1100 *"
b100001 J#
b1010 ?#
b1100 F#
1U
b100101 7
1*
#731000
b11110 <
#740000
0*
#750000
b0 x"
1y"
b10 w"
1z"
b11111111111111111111111111111111 |"
1s"
b0 q"
b11000100 "
b11000100 o
0U
b100010 J#
b1011 ?#
b1101 F#
b100010 /"
b1011 ~
b1101 *"
b100001 j
b100010 b
b100110 7
1*
#751000
b11111 <
#760000
0*
#770000
b0 x"
1y"
b11 w"
1z"
b11111111111111111111111111111111 |"
1s"
b0 q"
b100011 b
b100010 j
b100011 /"
b1 +"
b1110 *"
b100011 J#
b1110 F#
b100111 7
1*
#771000
0m"
b110111 n"
b11111 k"
1v
0u
0o"
12#
01#
b0 W
b0 p
b0 l"
b0 &#
b11111101110 Q
b11111101110 q
b11111101110 (#
b11111101110 J
b11111101110 r
b11111101110 *#
b101110 j"
b11111 5
b11111 H
b101110 4
b101110 G
b100000 <
#780000
0*
#790000
b100100 J#
b1111101000 C#
b111000101 B#
b110 D#
b1010110110010 E#
b100100 /"
b10 +"
b1000111111 #"
b110 '"
b110 ("
b1000101001 ""
b110 )"
b1100011010010 &"
b11111101110 %"
b100011 j
b100100 b
b10111000101 }
b1000101001 |
b101000 7
1*
#791000
b0 n"
b1000 k"
0v
1t
02#
10#
b1 W
b1 p
b1 l"
b1 &#
b1000000000 Q
b1000000000 q
b1000000000 (#
b1000000000 J
b1000000000 r
b1000000000 *#
b0 j"
b1000 5
b1000 H
b1000000 4
b1000000 G
b100001 <
#800000
0*
#810000
b11001110 +#
b110 ,#
b100101 b
b100100 j
b100101 /"
b11 +"
b11001011 ,"
b11 -"
b11111110100 ."
b100101 J#
b1100111 G#
b11 H#
b10011010100 I#
b101001 7
1*
#811000
1m"
b11110 n"
b0 k"
0t
1w
1p"
00#
13#
b10 W
b10 p
b10 l"
b10 &#
b111101 Q
b111101 q
b111101 (#
b111101 J
b111101 r
b111101 *#
b111101 j"
b0 5
b0 H
b10111101 4
b10111101 G
b100010 <
#820000
0*
#830000
b1 x"
1y"
b11 w"
1z"
1v"
b11110 t"
b11111111111111111111111111111111 |"
1s"
b0 q"
b100110 J#
b1111 <#
b100110 /"
b100 +"
b1111 x
b100101 j
b100110 b
b101010 7
1*
#831000
b100011 <
#840000
0*
#850000
b11001100 "
b11001100 o
1y"
b0 w"
1z"
b0 x"
b1 r"
b1 u"
b11111111111111111111111111111111 |"
1s"
b0 q"
1v"
b11110 t"
b100111 b
b100110 j
b100111 /"
b101 +"
b10000 x
b100111 J#
1U
b101011 7
1*
