nanotrade.vcd
$date
	Sat Feb 21 15:38:56 2026
$end
$version
	Icarus Verilog
$end
$timescale
	1ps
$end
$scope module tb_nanotrade $end
$var wire 8 ! uio_oe [7:0] $end
$var wire 8 " uo_out [7:0] $end
$var wire 8 # uio_out [7:0] $end
$var wire 1 $ ml_valid_out $end
$var wire 4 % ml_conf_nibble [3:0] $end
$var wire 3 & ml_class_out [2:0] $end
$var wire 1 ' match_valid $end
$var wire 3 ( alert_type [2:0] $end
$var wire 3 ) alert_priority [2:0] $end
$var wire 1 * alert_flag $end
$var reg 1 + clk $end
$var reg 1 , ena $end
$var reg 1 - prev_alert $end
$var reg 3 . prev_prio [2:0] $end
$var reg 3 / prev_type [2:0] $end
$var reg 1 0 rst_n $end
$var reg 8 1 ui_in [7:0] $end
$var reg 8 2 uio_in [7:0] $end
$var integer 32 3 cycle_count [31:0] $end
$var integer 32 4 flash_crashes [31:0] $end
$var integer 32 5 ml_inferences [31:0] $end
$var integer 32 6 total_alerts [31:0] $end
$var integer 32 7 total_matches [31:0] $end
$scope function alert_name_full $end
$var reg 3 8 t [2:0] $end
$upscope $end
$scope function conf_bar $end
$var reg 4 9 c [3:0] $end
$upscope $end
$scope function ml_class_name $end
$var reg 3 : c [2:0] $end
$upscope $end
$scope function prio_bar $end
$var reg 3 ; p [2:0] $end
$upscope $end
$scope module dut $end
$var wire 1 < cb_load_final $end
$var wire 1 + clk $end
$var wire 1 = comb_alert $end
$var wire 1 > config_strobe $end
$var wire 1 , ena $end
$var wire 1 0 rst_n $end
$var wire 1 ? uart_trigger $end
$var wire 8 @ ui_in [7:0] $end
$var wire 8 A uio_in [7:0] $end
$var wire 8 B uio_oe [7:0] $end
$var wire 12 C vol_data [11:0] $end
$var wire 8 D uio_out [7:0] $end
$var wire 8 E uart_payload [7:0] $end
$var wire 3 F rule_alert_type [2:0] $end
$var wire 3 G rule_alert_priority [2:0] $end
$var wire 8 H rule_alert_bitmap [7:0] $end
$var wire 1 I rule_alert_any $end
$var wire 12 J price_data [11:0] $end
$var wire 1 K ml_valid $end
$var wire 8 L ml_confidence [7:0] $end
$var wire 3 M ml_class [2:0] $end
$var wire 1 N match_valid $end
$var wire 8 O match_price [7:0] $end
$var wire 2 P input_type [1:0] $end
$var wire 128 Q features [127:0] $end
$var wire 1 R feature_valid $end
$var wire 3 S comb_type [2:0] $end
$var wire 3 T comb_priority [2:0] $end
$var wire 2 U cb_state [1:0] $end
$var wire 8 V cb_param_final [7:0] $end
$var wire 2 W cb_mode_final [1:0] $end
$var wire 1 X cb_active $end
$var wire 2 Y cascade_type [1:0] $end
$var wire 8 Z cascade_cb_param [7:0] $end
$var wire 1 [ cascade_cb_load $end
$var wire 1 \ cascade_alert $end
$var wire 1 ] _unused $end
$var wire 1 ^ _cascade_type_unused $end
$var wire 12 _ SPIKE_THRESH [11:0] $end
$var wire 12 ` FLASH_THRESH [11:0] $end
$var parameter 32 a BAUD_DIV $end
$var parameter 32 b CLK_HZ $end
$var parameter 32 c HB_DIV $end
$var reg 1 d cb_load_r $end
$var reg 2 e cb_mode_cmd [1:0] $end
$var reg 2 f cb_mode_next [1:0] $end
$var reg 8 g cb_param_cmd [7:0] $end
$var reg 8 h cb_param_next [7:0] $end
$var reg 25 i hb_cnt [24:0] $end
$var reg 1 j hb_led $end
$var reg 1 k ml_anomaly_held $end
$var reg 3 l ml_class_held [2:0] $end
$var reg 3 m ml_prio_held [2:0] $end
$var reg 1 n prev_alert_r $end
$var reg 2 o thresh_sel [1:0] $end
$var reg 10 p uart_bit_cnt [9:0] $end
$var reg 4 q uart_bits [3:0] $end
$var reg 1 r uart_busy $end
$var reg 10 s uart_shift [9:0] $end
$var reg 1 t uart_tx $end
$var reg 8 u uo_out [7:0] $end
$scope module u_cascade $end
$var wire 1 v cascade_fire $end
$var wire 1 + clk $end
$var wire 1 w event_any $end
$var wire 1 x is_spike_crash $end
$var wire 1 y is_stuff_crash $end
$var wire 1 z is_triple $end
$var wire 1 { is_vol_crash $end
$var wire 1 | ml_evt $end
$var wire 1 } new_is_flash $end
$var wire 1 0 rst_n $end
$var wire 1 ~ rule_evt $end
$var wire 1 !" test_flush $end
$var wire 3 "" rule_alert_type [2:0] $end
$var wire 1 I rule_alert_any $end
$var wire 1 K ml_valid $end
$var wire 8 #" ml_confidence [7:0] $end
$var wire 3 $" ml_class [2:0] $end
$var wire 3 %" h2_next [2:0] $end
$var wire 3 &" h1_next [2:0] $end
$var wire 3 '" event_code [2:0] $end
$var wire 9 (" conf_x2_wide [8:0] $end
$var wire 8 )" conf_x2_sat [7:0] $end
$var wire 2 *" cascade_type_next [1:0] $end
$var parameter 32 +" CASCADE_HOLD $end
$var parameter 32 ," CASCADE_WINDOW $end
$var parameter 2 -" CT_SPIKE_CRASH $end
$var parameter 2 ." CT_STUFF_CRASH $end
$var parameter 2 /" CT_TRIPLE $end
$var parameter 2 0" CT_VOL_CRASH $end
$var reg 7 1" age_cnt [6:0] $end
$var reg 1 \ cascade_alert $end
$var reg 1 [ cascade_cb_load $end
$var reg 8 2" cascade_cb_param [7:0] $end
$var reg 2 3" cascade_type [1:0] $end
$var reg 6 4" hold_cnt [5:0] $end
$upscope $end
$scope module u_feat_extractor $end
$var wire 1 + clk $end
$var wire 2 5" input_type [1:0] $end
$var wire 12 6" price_data [11:0] $end
$var wire 1 0 rst_n $end
$var wire 12 7" volume_data [11:0] $end
$var wire 1 N match_valid $end
$var wire 8 8" match_price [7:0] $end
$var wire 1 9" is_volume $end
$var wire 1 :" is_sell $end
$var wire 1 ;" is_price $end
$var wire 1 <" is_buy $end
$var reg 8 =" buy_count [7:0] $end
$var reg 12 >" cur_vol [11:0] $end
$var reg 8 ?" feat1_acc [7:0] $end
$var reg 1 R feature_valid $end
$var reg 128 @" features [127:0] $end
$var reg 12 A" price_mad [11:0] $end
$var reg 14 B" price_sum4 [13:0] $end
$var reg 2 C" ptr_s [1:0] $end
$var reg 8 D" sell_count [7:0] $end
$var reg 2 E" vol_ptr [1:0] $end
$var reg 14 F" vol_sum4 [13:0] $end
$var reg 8 G" window_cnt [7:0] $end
$var integer 32 H" i [31:0] $end
$scope begin seq_main $end
$scope begin emit $end
$var reg 16 I" arr_tmp [15:0] $end
$var reg 12 J" delta_s [11:0] $end
$var reg 8 K" vol_avg8 [7:0] $end
$var reg 16 L" vr_tmp [15:0] $end
$upscope $end
$scope begin price_upd $end
$var reg 8 M" delta8 [7:0] $end
$var reg 12 N" pavg [11:0] $end
$var reg 12 O" pdelta [11:0] $end
$upscope $end
$upscope $end
$upscope $end
$scope module u_ml_engine $end
$var wire 1 + clk $end
$var wire 1 R feature_valid $end
$var wire 128 P" features [127:0] $end
$var wire 1 0 rst_n $end
$var wire 8 Q" f_volrat [7:0] $end
$var wire 8 R" f_volat [7:0] $end
$var wire 8 S" f_price10 [7:0] $end
$var wire 8 T" f_price1 [7:0] $end
$var wire 8 U" f_imbal [7:0] $end
$var wire 8 V" f_arriv [7:0] $end
$var reg 3 W" c_class [2:0] $end
$var reg 8 X" c_conf [7:0] $end
$var reg 3 Y" ml_class [2:0] $end
$var reg 8 Z" ml_confidence [7:0] $end
$var reg 1 K ml_valid $end
$scope begin classify $end
$upscope $end
$upscope $end
$scope module u_order_book $end
$var wire 1 < cb_load $end
$var wire 2 [" cb_mode [1:0] $end
$var wire 8 \" cb_param [7:0] $end
$var wire 2 ]" cb_state [1:0] $end
$var wire 1 + clk $end
$var wire 1 ^" crossing $end
$var wire 6 _" data_in [5:0] $end
$var wire 6 `" ext_data [5:0] $end
$var wire 2 a" input_type [1:0] $end
$var wire 1 0 rst_n $end
$var wire 4 b" throttle_div [3:0] $end
$var wire 1 c" throttle_allow $end
$var wire 3 d" spread_guard [2:0] $end
$var wire 1 e" order_gate $end
$var wire 7 f" new_price [6:0] $end
$var wire 1 g" match_gate $end
$var wire 1 h" is_sell $end
$var wire 1 i" is_buy $end
$var wire 7 j" cross_threshold [6:0] $end
$var wire 1 X cb_active $end
$var wire 3 k" active_guard [2:0] $end
$var reg 7 l" best_ask [6:0] $end
$var reg 2 m" best_ask_idx [1:0] $end
$var reg 1 n" best_ask_valid $end
$var reg 7 o" best_bid [6:0] $end
$var reg 2 p" best_bid_idx [1:0] $end
$var reg 1 q" best_bid_valid $end
$var reg 9 r" cb_countdown [8:0] $end
$var reg 2 s" cb_mode_r [1:0] $end
$var reg 8 t" cb_param_r [7:0] $end
$var reg 2 u" empty_ask_slot [1:0] $end
$var reg 2 v" empty_bid_slot [1:0] $end
$var reg 1 w" has_empty_ask $end
$var reg 1 x" has_empty_bid $end
$var reg 8 y" match_price [7:0] $end
$var reg 1 N match_valid $end
$var reg 4 z" throttle_cnt [3:0] $end
$var integer 32 {" i3 [31:0] $end
$scope begin best_finder $end
$var reg 3 |" i [2:0] $end
$upscope $end
$scope begin slot_finder $end
$upscope $end
$upscope $end
$scope module u_rule_detector $end
$var wire 1 + clk $end
$var wire 1 }" det_flash $end
$var wire 1 ~" det_imbalance $end
$var wire 1 !# det_spread $end
$var wire 1 "# det_vol_dry $end
$var wire 1 ## det_vol_surge $end
$var wire 1 $# det_volatility $end
$var wire 12 %# flash_thresh [11:0] $end
$var wire 2 &# input_type [1:0] $end
$var wire 8 '# match_price [7:0] $end
$var wire 1 N match_valid $end
$var wire 12 (# price_data [11:0] $end
$var wire 1 0 rst_n $end
$var wire 12 )# spike_thresh [11:0] $end
$var wire 12 *# volume_data [11:0] $end
$var wire 13 +# vol_surge_thresh [12:0] $end
$var wire 12 ,# vol_dry_thresh [11:0] $end
$var wire 12 -# vol_deviation [11:0] $end
$var wire 12 .# price_drop [11:0] $end
$var wire 12 /# price_delta [11:0] $end
$var wire 1 0# is_volume $end
$var wire 1 1# is_sell $end
$var wire 1 2# is_price $end
$var wire 1 3# is_buy $end
$var wire 1 4# det_velocity $end
$var wire 1 5# det_spike $end
$var wire 3 6# alert_type [2:0] $end
$var wire 3 7# alert_priority [2:0] $end
$var wire 8 8# alert_bitmap [7:0] $end
$var wire 1 I alert_any $end
$var parameter 5 9# VELOCITY_THRESH $end
$var parameter 32 :# VOL_DRY_DIV $end
$var parameter 32 ;# VOL_SURGE_MULT $end
$var reg 3 <# buy_order_count [2:0] $end
$var reg 12 =# current_price [11:0] $end
$var reg 12 ># current_volume [11:0] $end
$var reg 5 ?# match_counter [4:0] $end
$var reg 5 @# match_rate [4:0] $end
$var reg 12 A# prev_price [11:0] $end
$var reg 12 B# price_avg [11:0] $end
$var reg 12 C# price_mad [11:0] $end
$var reg 2 D# price_ptr [1:0] $end
$var reg 14 E# price_sum [13:0] $end
$var reg 3 F# sell_order_count [2:0] $end
$var reg 12 G# vol_avg [11:0] $end
$var reg 2 H# vol_ptr [1:0] $end
$var reg 14 I# vol_sum [13:0] $end
$var reg 8 J# window_timer [7:0] $end
$var integer 32 K# i [31:0] $end
$upscope $end
$upscope $end
$scope task idle $end
$var integer 32 L# n [31:0] $end
$upscope $end
$scope task scenario_banner $end
$var reg 352 M# title [351:0] $end
$var integer 32 N# num [31:0] $end
$upscope $end
$scope task send_buy $end
$var reg 6 O# qty [5:0] $end
$upscope $end
$scope task send_price $end
$var reg 12 P# price [11:0] $end
$upscope $end
$scope task send_sell $end
$var reg 6 Q# qty [5:0] $end
$upscope $end
$scope task send_volume $end
$var reg 12 R# vol [11:0] $end
$upscope $end
$scope task set_threshold_preset $end
$var reg 2 S# preset [1:0] $end
$upscope $end
$upscope $end
$enddefinitions $end
$comment Show the parameter values. $end
$dumpall
b10 ;#
b100 :#
b11110 9#
b0 0"
b11 /"
b10 ."
b1 -"
b1000000 ,"
b100000 +"
b1011111010111100001000000 c
b10111110101111000010000000 b
b110110010 a
$end
#0
$dumpvars
bx S#
bx R#
bx Q#
bx P#
bx O#
bx N#
bx M#
bx L#
b100 K#
b0 J#
b0 I#
b0 H#
b1100100 G#
b0 F#
b0 E#
b0 D#
b101 C#
b1100100 B#
b1100100 A#
b0 @#
b0 ?#
b0 >#
b1100100 =#
b0 <#
b10 8#
b1 7#
b1 6#
05#
04#
03#
12#
01#
00#
b0 /#
b0 .#
b0 -#
b110 ,#
b110010000 +#
b0 *#
b10100 )#
b0 (#
b0 '#
b0 &#
b101000 %#
0$#
0##
1"#
0!#
0~"
0}"
b100 |"
b100 {"
b0 z"
b0 y"
1x"
1w"
b0 v"
b0 u"
b0 t"
b0 s"
b0 r"
0q"
b0 p"
b0 o"
0n"
b0 m"
b1111111 l"
b0 k"
b1111111 j"
0i"
0h"
1g"
b0 f"
1e"
b0 d"
1c"
b0 b"
b0 a"
b0 `"
b0 _"
0^"
b0 ]"
b0 \"
b0 ["
b0 Z"
b0 Y"
bx X"
bx W"
bx V"
bx U"
bx T"
bx S"
bx R"
bx Q"
bx P"
bx O"
bx N"
bx M"
bx L"
bx K"
bx J"
bx I"
b100 H"
b0 G"
b110010000 F"
b0 E"
b0 D"
b0 C"
b110010000 B"
b101 A"
bx @"
b0 ?"
b1100100 >"
b0 ="
0<"
1;"
0:"
09"
b0 8"
b0 7"
b0 6"
b0 5"
b0 4"
b0 3"
b0 2"
b0 1"
b0 *"
b0 )"
b0 ("
b1 '"
b0 &"
b0 %"
b0 $"
b0 #"
b1 ""
0!"
1~
0}
0|
0{
0z
0y
0x
1w
0v
b10010001 u
1t
b1111111111 s
0r
b0 q
b0 p
b1 o
0n
b0 m
b0 l
0k
0j
b0 i
b0 h
b0 g
b0 f
b0 e
0d
b101000 `
b10100 _
0^
0]
0\
0[
b0 Z
b0 Y
0X
b0 W
b0 V
b0 U
b1 T
b1 S
0R
bx Q
b0 P
b0 O
0N
b0 M
b0 L
0K
b0 J
1I
b10 H
b1 G
b1 F
b100100 E
b0 D
b0 C
b11111111 B
b0 A
b0 @
1?
0>
1=
0<
bx ;
bx :
bx 9
bx 8
b0 7
b0 6
b0 5
b0 4
b0 3
b0 2
b0 1
00
b0 /
b0 .
0-
1,
0+
1*
b1 )
b1 (
0'
b0 &
b0 %
0$
b0 #
b10010001 "
b11111111 !
$end
#10000
b1 /
b1 .
1-
b100 H"
b100 K#
b100 {"
b1 3
b1 ;
b1 8
b1 6
1+
#20000
0+
#30000
b100 H"
b100 {"
b100 K#
b10 3
1+
#40000
0+
#50000
b100 H"
b100 K#
b100 {"
b11 3
1+
#60000
0+
#70000
b100 H"
b100 {"
b100 K#
b100 3
1+
#80000
0+
#90000
b110 (
b110 )
b11100110 "
b11100110 u
b110 T
b110 '"
b11011000 E
b110 S
b110 G
b110 7#
b110 F
b110 ""
b110 6#
0?
1$#
b1010100 -#
b1 &"
b1000011 H
b1000011 8#
15#
b1100100 /#
b1 G"
b1100 ?"
b1 C"
b100101100 B"
b1 i
0t
1r
b1001001000 s
1n
b1 J#
b10000 C#
b0 B#
b1 D#
b11111110011100 E#
b0 =#
b1100100 M"
b1100100 O"
b1100100 N"
b101 3
10
1+
#91000
b110010 f"
b1 `"
b1100100 J
b1100100 6"
b1100100 (#
b1100100 C
b1100100 7"
b1100100 *#
b100100 _"
b1 2
b1 A
b100100 1
b100100 @
b1100100 P#
b1 N#
b1001110011011110111001001101101011000010110110000100000010011010110000101110010011010110110010101110100001000000101011101100001011100100110110100101101011101010111000000100000001000000010100001110000011100100110100101100011011001010011110100110001001100000011000000101001 M#
#100000
0+
#110000
b111 (
b111 )
b11110111 "
b11110111 u
b111 T
b111 '"
b11111100 E
b111 S
b111 G
b111 7#
b111 F
b111 ""
b111 6#
0$#
b10000011 H
b10000011 8#
1}"
b1001010 -#
b111110000011 .#
b110 &"
b1 %"
b10 G"
b1110 ?"
b100 A"
b10 C"
b10 J#
b11010 C#
b111111100111 B#
b10 D#
b1100100 =#
b0 A#
b1 p
b10 i
b110 /
b110 .
b11001 M"
b11001 O"
b1001011 N"
b110 ;
b110 8
b10 6
b110 3
1+
#111000
0;"
19"
02#
10#
b1 P
b1 5"
b1 a"
b1 &#
b1100100 1
b1100100 @
b1100100 R#
#120000
0+
#130000
b111 &"
b110 %"
b0 +#
b0 ,#
b10000001 H
b10000001 8#
0"#
b11 G"
b1 E"
b11 i
b10 p
b11 J#
b0 G#
b1 H#
b1100100 >#
b111 /
b111 .
b111 3
b111 ;
b111 8
b1 4
b11 6
1+
#131000
b10 f"
b0 `"
09"
1<"
1i"
00#
13#
b10 P
b10 5"
b10 a"
b10 &#
b101 J
b101 6"
b101 (#
b101 C
b101 7"
b101 *#
b101 _"
b0 2
b0 A
b10000101 1
b10000101 @
b101 O#
#140000
0+
#150000
b0 u"
b1 v"
1w"
1x"
1q"
b10 o"
b100 |"
b111 %"
b100 G"
b1 ="
b100 J#
b1 <#
b11 p
b100 i
b1000 3
1+
#151000
0<"
1:"
0i"
1h"
03#
11#
b11 P
b11 5"
b11 a"
b11 &#
b11000101 1
b11000101 @
b101 Q#
#160000
0+
#170000
1^"
b1 u"
1w"
1x"
b1 v"
1n"
b10 j"
b10 l"
b100 |"
1q"
b10 o"
b101 G"
b1 D"
b101 i
b100 p
b101 J#
b1 F#
b1001 3
1+
#171000
b110010 f"
b1 `"
1;"
0:"
0h"
12#
01#
b0 P
b0 5"
b0 a"
b0 &#
b1100100 J
b1100100 6"
b1100100 (#
b1100100 C
b1100100 7"
b1100100 *#
b100100 _"
b1 2
b1 A
b100100 1
b100100 @
#180000
0+
#190000
0^"
b10 %
1'
1w"
b0 u"
1x"
b0 v"
b100 |"
0n"
b1111111 j"
b1111111 l"
0q"
b0 o"
b10 #
b10 D
b11111111 "
b11111111 u
b0 -#
b10000000 H
b10000000 8#
05#
b0 /#
b110 G"
b10000 ?"
b11 A"
b11 C"
b10 O
b10 8"
b10 y"
b10 '#
1N
b110 J#
b1000000111 C#
b11 D#
b1100100 A#
b101 p
b110 i
b1010 3
1+
#191000
0;"
19"
02#
10#
b1 P
b1 5"
b1 a"
b1 &#
b1100100 1
b1100100 @
#200000
0+
#210000
b0 %
0'
b0 #
b0 D
b11110111 "
b11110111 u
b111 G"
b10 E"
b111 i
b110 p
b111 J#
b1 ?#
b10 H#
0N
b1011 3
b1 7
1+
#211000
b10 f"
b0 `"
09"
1<"
1i"
00#
13#
b10 P
b10 5"
b10 a"
b10 &#
b101 J
b101 6"
b101 (#
b101 C
b101 7"
b101 *#
b101 _"
b0 2
b0 A
b10000101 1
b10000101 @
#220000
0+
#230000
b10010000 H
b10010000 8#
1~"
b0 u"
b1 v"
1w"
1x"
1q"
b10 o"
b100 |"
b1000 G"
b10 ="
b1000 J#
b10 <#
b111 p
b1000 i
b1100 3
1+
#231000
0<"
1:"
0i"
1h"
03#
11#
b11 P
b11 5"
b11 a"
b11 &#
b11000101 1
b11000101 @
#240000
0+
#250000
1^"
b1 u"
1w"
1x"
b1 v"
1n"
b10 j"
b10 l"
b100 |"
1q"
b10 o"
b1001 G"
b10 D"
b1001 i
b1000 p
b1001 J#
b10 F#
b1101 3
1+
#251000
b110010 f"
b1 `"
1;"
0:"
0h"
12#
01#
b0 P
b0 5"
b0 a"
b0 &#
b1100100 J
b1100100 6"
b1100100 (#
b1100100 C
b1100100 7"
b1100100 *#
b100100 _"
b1 2
b1 A
b100100 1
b100100 @
#260000
0+
#270000
0^"
b10 %
1'
1w"
b0 u"
1x"
b0 v"
b100 |"
0n"
b1111111 j"
b1111111 l"
0q"
b0 o"
b10 #
b10 D
b11111111 "
b11111111 u
b1010 G"
b10001 ?"
b10 A"
b0 C"
1N
b1010 J#
b1110110110 C#
b0 D#
b1001 p
b1010 i
b1110 3
1+
#271000
0;"
19"
02#
10#
b1 P
b1 5"
b1 a"
b1 &#
b1100100 1
b1100100 @
#280000
0+
#290000
b0 %
0'
b0 #
b0 D
b11110111 "
b11110111 u
b1011 G"
b11 E"
b1011 i
b1010 p
b1011 J#
b10 ?#
b11 H#
0N
b1111 3
b10 7
1+
#291000
b10 f"
b0 `"
09"
1<"
1i"
00#
13#
b10 P
b10 5"
b10 a"
b10 &#
b101 J
b101 6"
b101 (#
b101 C
b101 7"
b101 *#
b101 _"
b0 2
b0 A
b10000101 1
b10000101 @
#300000
0+
#310000
b0 u"
b1 v"
1w"
1x"
1q"
b10 o"
b100 |"
b1100 G"
b11 ="
b1100 J#
b11 <#
b1011 p
b1100 i
b10000 3
1+
#311000
0<"
1:"
0i"
1h"
03#
11#
b11 P
b11 5"
b11 a"
b11 &#
b11000101 1
b11000101 @
#320000
0+
#330000
b10000000 H
b10000000 8#
0~"
1^"
b1 u"
1w"
1x"
b1 v"
1n"
b10 j"
b10 l"
b100 |"
1q"
b10 o"
b1101 G"
b11 D"
b1101 i
b1100 p
b1101 J#
b11 F#
b10001 3
1+
#331000
b110010 f"
b1 `"
1;"
0:"
0h"
12#
01#
b0 P
b0 5"
b0 a"
b0 &#
b1100100 J
b1100100 6"
b1100100 (#
b1100100 C
b1100100 7"
b1100100 *#
b100100 _"
b1 2
b1 A
b100100 1
b100100 @
#340000
0+
#350000
0^"
b10 %
1'
1w"
b0 u"
1x"
b0 v"
b100 |"
0n"
b1111111 j"
b1111111 l"
0q"
b0 o"
b10 #
b10 D
b11111111 "
b11111111 u
b1110 G"
b10010 ?"
b1 A"
b1 C"
b110010000 B"
1N
b1110 J#
b10100101111 C#
b1 D#
b0 E#
b1101 p
b1110 i
b10010 3
1+
#351000
0;"
19"
02#
10#
b1 P
b1 5"
b1 a"
b1 &#
b1100100 1
b1100100 @
#360000
0+
#370000
b0 %
0'
b0 #
b0 D
b11110111 "
b11110111 u
b1111 G"
b0 E"
b1111 i
b1110 p
b1111 J#
b11 ?#
b0 H#
0N
b10011 3
b11 7
1+
#371000
b10 f"
b0 `"
09"
1<"
1i"
00#
13#
b10 P
b10 5"
b10 a"
b10 &#
b101 J
b101 6"
b101 (#
b101 C
b101 7"
b101 *#
b101 _"
b0 2
b0 A
b10000101 1
b10000101 @
#380000
0+
#390000
b10010000 H
b10010000 8#
1~"
b0 u"
b1 v"
1w"
1x"
1q"
b10 o"
b100 |"
b10000 G"
b100 ="
b10000 J#
b100 <#
b1111 p
b10000 i
b10100 3
1+
#391000
0<"
1:"
0i"
1h"
03#
11#
b11 P
b11 5"
b11 a"
b11 &#
b11000101 1
b11000101 @
#400000
0+
#410000
1^"
b1 u"
1w"
1x"
b1 v"
1n"
b10 j"
b10 l"
b100 |"
1q"
b10 o"
b10001 G"
b100 D"
b10001 i
b10000 p
b10001 J#
b100 F#
b10101 3
1+
#411000
b110010 f"
b1 `"
1;"
0:"
0h"
12#
01#
b0 P
b0 5"
b0 a"
b0 &#
b1100100 J
b1100100 6"
b1100100 (#
b1100100 C
b1100100 7"
b1100100 *#
b100100 _"
b1 2
b1 A
b100100 1
b100100 @
#420000
0+
#430000
b100 (
b100 )
b100 T
b100 '"
b10010000 E
b100 S
0^"
b10 %
1'
b100 G
b100 7#
b100 F
b100 ""
b100 6#
1w"
b0 u"
1x"
b0 v"
b100 |"
0n"
b1111111 j"
b1111111 l"
0q"
b0 o"
b10 #
b10 D
b11001100 "
b11001100 u
b0 .#
b10000 H
b10000 8#
0}"
b10010 G"
b10000 ?"
b0 A"
b10 C"
1N
b10010 J#
b11001111001 C#
b0 B#
b10 D#
b10001 p
b10010 i
b0 M"
b0 O"
b1100100 N"
b10110 3
1+
#431000
0;"
19"
02#
10#
b1 P
b1 5"
b1 a"
b1 &#
b1100100 1
b1100100 @
#440000
0+
#450000
b0 %
0'
b100 &"
b0 #
b0 D
b11000100 "
b11000100 u
b10011 G"
b1 E"
b10011 i
b10010 p
b10011 J#
b100 ?#
b1 H#
0N
b100 /
b100 .
b10111 3
b100 7
b100 ;
b100 8
b100 6
1+
#451000
b10 f"
b0 `"
09"
1<"
1i"
00#
13#
b10 P
b10 5"
b10 a"
b10 &#
b101 J
b101 6"
b101 (#
b101 C
b101 7"
b101 *#
b101 _"
b0 2
b0 A
b10000101 1
b10000101 @
#460000
0+
#470000
b0 u"
b1 v"
1w"
1x"
1q"
b10 o"
b100 |"
b100 %"
b10100 G"
b101 ="
b10100 J#
b101 <#
b10011 p
b10100 i
b11000 3
1+
#471000
0<"
1:"
0i"
1h"
03#
11#
b11 P
b11 5"
b11 a"
b11 &#
b11000101 1
b11000101 @
#480000
0+
#490000
1^"
b1 u"
1w"
1x"
b1 v"
1n"
b10 j"
b10 l"
b100 |"
1q"
b10 o"
b10101 G"
b101 D"
b10101 i
b10100 p
b10101 J#
b101 F#
b11001 3
1+
#491000
b110010 f"
b1 `"
1;"
0:"
0h"
12#
01#
b0 P
b0 5"
b0 a"
b0 &#
b1100100 J
b1100100 6"
b1100100 (#
b1100100 C
b1100100 7"
b1100100 *#
b100100 _"
b1 2
b1 A
b100100 1
b100100 @
#500000
0+
#510000
0^"
b10 %
1'
1w"
b0 u"
1x"
b0 v"
b100 |"
0n"
b1111111 j"
b1111111 l"
0q"
b0 o"
b10 #
b10 D
b11001100 "
b11001100 u
b10110 G"
b1110 ?"
b11 C"
1N
b10110 J#
b10110110110 C#
b11 D#
b10101 p
b10110 i
b11010 3
1+
#511000
0;"
19"
02#
10#
b1 P
b1 5"
b1 a"
b1 &#
b1100100 1
b1100100 @
#520000
0+
#530000
b0 %
0'
b0 #
b0 D
b11000100 "
b11000100 u
b10111 G"
b10 E"
b10111 i
b10110 p
b10111 J#
b101 ?#
b10 H#
0N
b11011 3
b101 7
1+
#531000
b10 f"
b0 `"
09"
1<"
1i"
00#
13#
b10 P
b10 5"
b10 a"
b10 &#
b101 J
b101 6"
b101 (#
b101 C
b101 7"
b101 *#
b101 _"
b0 2
b0 A
b10000101 1
b10000101 @
#540000
0+
#550000
b0 u"
b1 v"
1w"
1x"
1q"
b10 o"
b100 |"
b11000 G"
b110 ="
b11000 J#
b110 <#
b10111 p
b11000 i
b11100 3
1+
#551000
0<"
1:"
0i"
1h"
03#
11#
b11 P
b11 5"
b11 a"
b11 &#
b11000101 1
b11000101 @
#560000
0+
#570000
1^"
b1 u"
1w"
1x"
b1 v"
1n"
b10 j"
b10 l"
b100 |"
1q"
b10 o"
b11001 G"
b110 D"
b11001 i
b11000 p
b11001 J#
b110 F#
b11101 3
1+
#571000
b110010 f"
b1 `"
1;"
0:"
0h"
12#
01#
b0 P
b0 5"
b0 a"
b0 &#
b1100100 J
b1100100 6"
b1100100 (#
b1100100 C
b1100100 7"
b1100100 *#
b100100 _"
b1 2
b1 A
b100100 1
b100100 @
#580000
0+
#590000
0^"
b10 %
1'
1w"
b0 u"
1x"
b0 v"
b100 |"
0n"
b1111111 j"
b1111111 l"
0q"
b0 o"
b10 #
b10 D
b11001100 "
b11001100 u
b11010 G"
b1101 ?"
b0 C"
1N
b11010 J#
b10100001011 C#
b0 D#
b11001 p
b11010 i
b11110 3
1+
#591000
0;"
19"
02#
10#
b1 P
b1 5"
b1 a"
b1 &#
b1100100 1
b1100100 @
#600000
0+
#610000
b0 %
0'
b0 #
b0 D
b11000100 "
b11000100 u
b11011 G"
b11 E"
b11011 i
b11010 p
b11011 J#
b110 ?#
b11 H#
0N
b11111 3
b110 7
1+
#611000
b10 f"
b0 `"
09"
1<"
1i"
00#
13#
b10 P
b10 5"
b10 a"
b10 &#
b101 J
b101 6"
b101 (#
b101 C
b101 7"
b101 *#
b101 _"
b0 2
b0 A
b10000101 1
b10000101 @
#620000
0+
#630000
b0 u"
b1 v"
1w"
1x"
1q"
b10 o"
b100 |"
b11100 G"
b111 ="
b11100 J#
b111 <#
b11011 p
b11100 i
b100000 3
1+
#631000
0<"
1:"
0i"
1h"
03#
11#
b11 P
b11 5"
b11 a"
b11 &#
b11000101 1
b11000101 @
#640000
0+
#650000
1^"
b1 u"
1w"
1x"
b1 v"
1n"
b10 j"
b10 l"
b100 |"
1q"
b10 o"
b11101 G"
b111 D"
b11101 i
b11100 p
b11101 J#
b111 F#
b100001 3
1+
#651000
b110010 f"
b1 `"
1;"
0:"
0h"
12#
01#
b0 P
b0 5"
b0 a"
b0 &#
b1100100 J
b1100100 6"
b1100100 (#
b1100100 C
b1100100 7"
b1100100 *#
b100100 _"
b1 2
b1 A
b100100 1
b100100 @
#660000
0+
#670000
0^"
b10 %
1'
1w"
b0 u"
1x"
b0 v"
b100 |"
0n"
b1111111 j"
b1111111 l"
0q"
b0 o"
b10 #
b10 D
b11001100 "
b11001100 u
b11110 G"
b1100 ?"
b1 C"
1N
b11110 J#
b10001110110 C#
b1 D#
b11101 p
b11110 i
b100010 3
1+
#671000
0;"
19"
02#
10#
b1 P
b1 5"
b1 a"
b1 &#
b1100100 1
b1100100 @
#680000
0+
#690000
b0 %
0'
b0 #
b0 D
b11000100 "
b11000100 u
b11111 G"
b0 E"
b11111 i
b11110 p
b11111 J#
b111 ?#
b0 H#
0N
b100011 3
b111 7
1+
#691000
b10 f"
b0 `"
09"
1<"
1i"
00#
13#
b10 P
b10 5"
b10 a"
b10 &#
b101 J
b101 6"
b101 (#
b101 C
b101 7"
b101 *#
b101 _"
b0 2
b0 A
b10000101 1
b10000101 @
#700000
0+
#710000
b0 u"
b1 v"
1w"
1x"
1q"
b10 o"
b100 |"
b100000 G"
b1000 ="
b100000 J#
b11111 p
b100000 i
b100100 3
1+
#711000
0<"
1:"
0i"
1h"
03#
11#
b11 P
b11 5"
b11 a"
b11 &#
b11000101 1
b11000101 @
#720000
0+
#730000
1^"
b1 u"
1w"
1x"
b1 v"
1n"
b10 j"
b10 l"
b100 |"
1q"
b10 o"
b100001 G"
b1000 D"
b100001 i
b100000 p
b100001 J#
b100101 3
1+
#731000
b110010 f"
b1 `"
1;"
0:"
0h"
12#
01#
b0 P
b0 5"
b0 a"
b0 &#
b1100100 J
b1100100 6"
b1100100 (#
b1100100 C
b1100100 7"
b1100100 *#
b100100 _"
b1 2
b1 A
b100100 1
b100100 @
#740000
0+
