nanotrade.vcd
$date
	Tue Feb 17 14:27:47 2026
$end
$version
	Icarus Verilog
$end
$timescale
	1ps
$end
$scope module tb_nanotrade $end
$var wire 8 ! uio_oe [7:0] $end
$var wire 8 " uo_out [7:0] $end
$var wire 8 # uio_out [7:0] $end
$var wire 1 $ ml_valid_out $end
$var wire 4 % ml_conf_out [3:0] $end
$var wire 3 & ml_class_out [2:0] $end
$var wire 1 ' match_valid $end
$var wire 3 ( alert_type [2:0] $end
$var wire 3 ) alert_priority [2:0] $end
$var wire 1 * alert_flag $end
$var reg 1 + clk $end
$var reg 1 , ena $end
$var reg 1 - prev_alert $end
$var reg 3 . prev_prio [2:0] $end
$var reg 3 / prev_type [2:0] $end
$var reg 1 0 rst_n $end
$var reg 8 1 ui_in [7:0] $end
$var reg 8 2 uio_in [7:0] $end
$var integer 32 3 cycle_count [31:0] $end
$scope function alert_name $end
$var reg 3 4 t [2:0] $end
$upscope $end
$scope function ml_name $end
$var reg 3 5 c [2:0] $end
$upscope $end
$scope module dut $end
$var wire 1 + clk $end
$var wire 1 6 comb_alert $end
$var wire 1 , ena $end
$var wire 1 0 rst_n $end
$var wire 8 7 ui_in [7:0] $end
$var wire 8 8 uio_in [7:0] $end
$var wire 8 9 uio_oe [7:0] $end
$var wire 12 : vol_data [11:0] $end
$var wire 8 ; uo_out [7:0] $end
$var wire 8 < uio_out [7:0] $end
$var wire 3 = rule_alert_type [2:0] $end
$var wire 3 > rule_alert_priority [2:0] $end
$var wire 8 ? rule_alert_bitmap [7:0] $end
$var wire 1 @ rule_alert_any $end
$var wire 12 A price_data [11:0] $end
$var wire 1 B ml_valid $end
$var wire 8 C ml_confidence [7:0] $end
$var wire 3 D ml_class [2:0] $end
$var wire 1 E match_valid $end
$var wire 8 F match_price [7:0] $end
$var wire 2 G input_type [1:0] $end
$var wire 128 H features [127:0] $end
$var wire 1 I feature_valid $end
$var wire 3 J comb_type [2:0] $end
$var wire 3 K comb_priority [2:0] $end
$var wire 1 L _unused $end
$var reg 1 M ml_anomaly_held $end
$var reg 3 N ml_class_held [2:0] $end
$var reg 8 O ml_conf_held [7:0] $end
$var reg 3 P ml_prio_held [2:0] $end
$scope module u_feat_extractor $end
$var wire 1 + clk $end
$var wire 2 Q input_type [1:0] $end
$var wire 12 R price_data [11:0] $end
$var wire 1 0 rst_n $end
$var wire 12 S volume_data [11:0] $end
$var wire 1 E match_valid $end
$var wire 8 T match_price [7:0] $end
$var wire 1 U is_volume $end
$var wire 1 V is_sell $end
$var wire 1 W is_price $end
$var wire 1 X is_buy $end
$var reg 8 Y buy_count [7:0] $end
$var reg 12 Z cur_price [11:0] $end
$var reg 12 [ cur_vol [11:0] $end
$var reg 1 I feature_valid $end
$var reg 128 \ features [127:0] $end
$var reg 12 ] local_avg [11:0] $end
$var reg 12 ^ local_delta [11:0] $end
$var reg 8 _ match_count [7:0] $end
$var reg 8 ` match_rate [7:0] $end
$var reg 12 a price_avg [11:0] $end
$var reg 12 b price_mad [11:0] $end
$var reg 12 c price_prev1 [11:0] $end
$var reg 12 d price_prev2 [11:0] $end
$var reg 15 e price_sum8 [14:0] $end
$var reg 6 f ptr_l [5:0] $end
$var reg 5 g ptr_m [4:0] $end
$var reg 3 h ptr_s [2:0] $end
$var reg 8 i sell_count [7:0] $end
$var reg 16 j trade_timer [15:0] $end
$var reg 12 k vol_avg [11:0] $end
$var reg 3 l vol_ptr [2:0] $end
$var reg 15 m vol_sum8 [14:0] $end
$var reg 8 n window_cnt [7:0] $end
$var integer 32 o i [31:0] $end
$scope function clip8 $end
$var reg 12 p x [11:0] $end
$upscope $end
$scope function clip8_16 $end
$var reg 16 q x [15:0] $end
$upscope $end
$scope function imbalance_byte $end
$var reg 8 r buys [7:0] $end
$var reg 16 s num [15:0] $end
$var reg 8 t sells [7:0] $end
$var reg 16 u total [15:0] $end
$upscope $end
$scope function momentum_byte $end
$var reg 13 v d1 [12:0] $end
$var reg 13 w d2 [12:0] $end
$var reg 13 x mom [12:0] $end
$var reg 12 y p0 [11:0] $end
$var reg 12 z p1 [11:0] $end
$var reg 12 { p2 [11:0] $end
$upscope $end
$scope function price_delta $end
$var reg 12 | a [11:0] $end
$var reg 12 } b [11:0] $end
$var reg 12 ~ d [11:0] $end
$upscope $end
$scope function spread_byte $end
$var reg 8 !" asks [7:0] $end
$var reg 8 "" bids [7:0] $end
$upscope $end
$scope function vol_ratio_byte $end
$var reg 12 #" avg [11:0] $end
$var reg 12 $" cur [11:0] $end
$var reg 20 %" num [19:0] $end
$upscope $end
$upscope $end
$scope module u_ml_engine $end
$var wire 1 + clk $end
$var wire 1 I feature_valid $end
$var wire 128 &" features [127:0] $end
$var wire 1 0 rst_n $end
$var parameter 80 '" B1_HEX $end
$var parameter 80 (" B2_HEX $end
$var parameter 80 )" W1_HEX $end
$var parameter 80 *" W2_HEX $end
$var reg 32 +" acc2_tmp [31:0] $end
$var reg 3 ," best_class [2:0] $end
$var reg 32 -" gap [31:0] $end
$var reg 32 ." max_logit [31:0] $end
$var reg 32 /" min_logit [31:0] $end
$var reg 3 0" ml_class [2:0] $end
$var reg 8 1" ml_confidence [7:0] $end
$var reg 1 B ml_valid $end
$var reg 1 2" s0_valid $end
$var reg 1 3" s1_valid $end
$var reg 1 4" s2_valid $end
$var integer 32 5" h1 [31:0] $end
$var integer 32 6" h2 [31:0] $end
$var integer 32 7" i1 [31:0] $end
$var integer 32 8" j3 [31:0] $end
$var integer 32 9" k [31:0] $end
$var integer 32 :" o2 [31:0] $end
$scope begin unpack[0] $end
$var parameter 2 ;" gi $end
$upscope $end
$scope begin unpack[1] $end
$var parameter 2 <" gi $end
$upscope $end
$scope begin unpack[2] $end
$var parameter 3 =" gi $end
$upscope $end
$scope begin unpack[3] $end
$var parameter 3 >" gi $end
$upscope $end
$scope begin unpack[4] $end
$var parameter 4 ?" gi $end
$upscope $end
$scope begin unpack[5] $end
$var parameter 4 @" gi $end
$upscope $end
$scope begin unpack[6] $end
$var parameter 4 A" gi $end
$upscope $end
$scope begin unpack[7] $end
$var parameter 4 B" gi $end
$upscope $end
$scope begin unpack[8] $end
$var parameter 5 C" gi $end
$upscope $end
$scope begin unpack[9] $end
$var parameter 5 D" gi $end
$upscope $end
$scope begin unpack[10] $end
$var parameter 5 E" gi $end
$upscope $end
$scope begin unpack[11] $end
$var parameter 5 F" gi $end
$upscope $end
$scope begin unpack[12] $end
$var parameter 5 G" gi $end
$upscope $end
$scope begin unpack[13] $end
$var parameter 5 H" gi $end
$upscope $end
$scope begin unpack[14] $end
$var parameter 5 I" gi $end
$upscope $end
$scope begin unpack[15] $end
$var parameter 5 J" gi $end
$upscope $end
$upscope $end
$scope module u_order_book $end
$var wire 1 + clk $end
$var wire 6 K" data_in [5:0] $end
$var wire 6 L" ext_data [5:0] $end
$var wire 2 M" input_type [1:0] $end
$var wire 1 N" is_order $end
$var wire 1 0 rst_n $end
$var wire 7 O" new_price [6:0] $end
$var wire 1 P" is_sell $end
$var wire 1 Q" is_buy $end
$var reg 7 R" best_ask [6:0] $end
$var reg 2 S" best_ask_idx [1:0] $end
$var reg 1 T" best_ask_valid $end
$var reg 7 U" best_bid [6:0] $end
$var reg 2 V" best_bid_idx [1:0] $end
$var reg 1 W" best_bid_valid $end
$var reg 2 X" empty_ask_slot [1:0] $end
$var reg 2 Y" empty_bid_slot [1:0] $end
$var reg 1 Z" has_empty_ask $end
$var reg 1 [" has_empty_bid $end
$var reg 8 \" match_price [7:0] $end
$var reg 1 E match_valid $end
$var integer 32 ]" i [31:0] $end
$upscope $end
$scope module u_rule_detector $end
$var wire 1 + clk $end
$var wire 1 ^" det_flash $end
$var wire 1 _" det_imbalance $end
$var wire 1 `" det_spread $end
$var wire 1 a" det_vol_dry $end
$var wire 1 b" det_vol_surge $end
$var wire 1 c" det_volatility $end
$var wire 2 d" input_type [1:0] $end
$var wire 8 e" match_price [7:0] $end
$var wire 1 E match_valid $end
$var wire 12 f" price_data [11:0] $end
$var wire 1 0 rst_n $end
$var wire 12 g" volume_data [11:0] $end
$var wire 13 h" vol_surge_thresh [12:0] $end
$var wire 12 i" vol_dry_thresh [11:0] $end
$var wire 12 j" vol_deviation [11:0] $end
$var wire 12 k" price_drop [11:0] $end
$var wire 12 l" price_delta [11:0] $end
$var wire 1 m" is_volume $end
$var wire 1 n" is_sell $end
$var wire 1 o" is_price $end
$var wire 1 p" is_buy $end
$var wire 1 q" det_velocity $end
$var wire 1 r" det_spike $end
$var wire 3 s" alert_type [2:0] $end
$var wire 3 t" alert_priority [2:0] $end
$var wire 8 u" alert_bitmap [7:0] $end
$var wire 1 @ alert_any $end
$var parameter 12 v" FLASH_THRESH $end
$var parameter 12 w" SPIKE_THRESH $end
$var parameter 6 x" VELOCITY_THRESH $end
$var parameter 32 y" VOL_DRY_DIV $end
$var parameter 32 z" VOL_SURGE_MULT $end
$var reg 4 {" buy_order_count [3:0] $end
$var reg 12 |" current_price [11:0] $end
$var reg 12 }" current_volume [11:0] $end
$var reg 6 ~" match_counter [5:0] $end
$var reg 6 !# match_rate [5:0] $end
$var reg 12 "# prev_price [11:0] $end
$var reg 12 ## price_avg [11:0] $end
$var reg 12 $# price_mad [11:0] $end
$var reg 3 %# price_ptr [2:0] $end
$var reg 15 &# price_sum [14:0] $end
$var reg 4 '# sell_order_count [3:0] $end
$var reg 12 (# vol_avg [11:0] $end
$var reg 3 )# vol_ptr [2:0] $end
$var reg 15 *# vol_sum [14:0] $end
$var reg 8 +# window_timer [7:0] $end
$var integer 32 ,# i [31:0] $end
$upscope $end
$upscope $end
$scope task idle $end
$var integer 32 -# n [31:0] $end
$upscope $end
$scope task send_buy $end
$var reg 6 .# qty [5:0] $end
$upscope $end
$scope task send_price $end
$var reg 12 /# price [11:0] $end
$upscope $end
$scope task send_sell $end
$var reg 6 0# qty [5:0] $end
$upscope $end
$scope task send_volume $end
$var reg 12 1# vol [11:0] $end
$upscope $end
$upscope $end
$enddefinitions $end
$comment Show the parameter values. $end
$dumpall
b10 z"
b100 y"
b11110 x"
b10100 w"
b101000 v"
b1111 J"
b1110 I"
b1101 H"
b1100 G"
b1011 F"
b1010 E"
b1001 D"
b1000 C"
b111 B"
b110 A"
b101 @"
b100 ?"
b11 >"
b10 ="
b1 <"
b0 ;"
b1110010011011110110110100101111011101110011001000101110011010000110010101111000 *"
b1110010011011110110110100101111011101110011000100101110011010000110010101111000 )"
b1110010011011110110110100101111011000100011001000101110011010000110010101111000 ("
b1110010011011110110110100101111011000100011000100101110011010000110010101111000 '"
$end
#0
$dumpvars
bx 1#
bx 0#
bx /#
bx .#
bx -#
b1000 ,#
b0 +#
b0 *#
b0 )#
b1100100 (#
b0 '#
b0 &#
b0 %#
b101 $#
b1100100 ##
b1100100 "#
b0 !#
b0 ~"
b0 }"
b1100100 |"
b0 {"
b10 u"
b1 t"
b1 s"
0r"
0q"
0p"
1o"
0n"
0m"
b0 l"
b0 k"
b0 j"
b110 i"
b110010000 h"
b0 g"
b0 f"
b0 e"
b0 d"
0c"
0b"
1a"
0`"
0_"
0^"
b11111111111111111111111111111111 ]"
b0 \"
1["
1Z"
b0 Y"
b0 X"
0W"
b0 V"
b0 U"
0T"
b0 S"
b1111111 R"
0Q"
0P"
b0 O"
0N"
b0 M"
b0 L"
b0 K"
bx :"
b10000 9"
bx 8"
bx 7"
bx 6"
bx 5"
04"
03"
02"
b0 1"
b0 0"
bx /"
bx ."
bx -"
bx ,"
bx +"
bx &"
bx %"
bx $"
bx #"
bx ""
bx !"
bx ~
bx }
bx |
bx {
bx z
bx y
bx x
bx w
bx v
bx u
bx t
bx s
bx r
bx q
bx p
b1000 o
b0 n
b1100100000 m
b0 l
b1100100 k
b0 j
b0 i
b0 h
b0 g
b0 f
b1100100000 e
b1100100 d
b1100100 c
b101 b
b1100100 a
b0 `
b0 _
bx ^
bx ]
bx \
b1100100 [
b1100100 Z
b0 Y
0X
1W
0V
0U
b0 T
b0 S
b0 R
b0 Q
b0 P
b0 O
b0 N
0M
0L
b1 K
b1 J
0I
bx H
b0 G
b0 F
0E
b0 D
b0 C
0B
b0 A
1@
b10 ?
b1 >
b1 =
b0 <
b10010001 ;
b0 :
b11111111 9
b0 8
b0 7
16
bx 5
bx 4
b0 3
b0 2
b0 1
00
b0 /
b0 .
0-
1,
0+
1*
b1 )
b1 (
0'
b0 &
b0 %
0$
b0 #
b10010001 "
b11111111 !
$end
#10000
b1 /
b1 .
1-
b110 9"
b1000 o
b1000 ,#
b100 ]"
b1 3
b1 4
1+
#20000
0+
#30000
b100 ]"
b1000 ,#
b1000 o
b10000 9"
b10 3
1+
#40000
0+
#50000
b110 9"
b1000 o
b1000 ,#
b100 ]"
b11 3
1+
#60000
0+
#70000
b100 ]"
b1000 ,#
b1000 o
b10000 9"
b100 3
1+
#80000
0+
#90000
b110 )
b110 (
b110 K
b11100110 "
b11100110 ;
b110 J
b110 >
b110 t"
b110 =
b110 s"
1c"
b1010100 j"
b1000011 ?
b1000011 u"
1r"
b1100100 l"
b1 n
b1 j
b10000 b
b1 f
b1 g
b1 h
b1010111100 e
b0 Z
b1 +#
b10000 $#
b0 ##
b1 %#
b111111110011100 &#
b0 |"
b1100100 ^
b1100100 ]
b101 3
10
1+
#91000
b110010 O"
b1 L"
b1100100 A
b1100100 R
b1100100 f"
b1100100 :
b1100100 S
b1100100 g"
b100100 K"
b1 2
b1 8
b100100 1
b100100 7
b1100100 /#
#100000
0+
#110000
b111 )
b111 (
b111 K
b11110111 "
b11110111 ;
b111 J
b111 >
b111 t"
b111 =
b111 s"
0c"
b10000011 ?
b10000011 u"
1^"
b1001010 j"
b111110001111 k"
b10 +#
b11010 $#
b111111110011 ##
b10 %#
b1100100 |"
b0 "#
b10 n
b10 j
b1111 b
b10 f
b10 g
b1010111 a
b10 h
b1100100 Z
b0 c
b110 /
b110 .
b1101 ^
b1010111 ]
b110 4
b110 3
1+
#111000
0W
1U
0o"
1m"
b1 G
b1 Q
b1 M"
b1 d"
b1100100 1
b1100100 7
b1100100 1#
#120000
0+
#130000
b0 h"
b0 i"
b10000001 ?
b10000001 u"
0a"
b11 n
b11 j
b1 l
b11 +#
b0 (#
b1 )#
b1100100 }"
b111 /
b111 .
b111 3
b111 4
1+
#131000
1N"
b10 O"
b0 L"
0U
1X
1Q"
0m"
1p"
b10 G
b10 Q
b10 M"
b10 d"
b101 A
b101 R
b101 f"
b101 :
b101 S
b101 g"
b101 K"
b0 2
b0 8
b10000101 1
b10000101 7
b101 .#
#140000
0+
#150000
b0 X"
b1 Y"
1Z"
1["
1W"
b10 U"
b11111111111111111111111111111111 ]"
b100 +#
b1 {"
b100 n
b100 j
b1 Y
b1000 3
1+
#151000
0X
1V
0Q"
1P"
0p"
1n"
b11 G
b11 Q
b11 M"
b11 d"
b11000101 1
b11000101 7
b101 0#
#160000
0+
#170000
b1 X"
1Z"
1["
b1 Y"
1T"
b10 R"
b11111111111111111111111111111111 ]"
1W"
b10 U"
b101 n
b101 j
b1 i
b101 +#
b1 '#
b1001 3
1+
#171000
0N"
b110010 O"
b1 L"
1W
0V
0P"
1o"
0n"
b0 G
b0 Q
b0 M"
b0 d"
b1100100 A
b1100100 R
b1100100 f"
b1100100 :
b1100100 S
b1100100 g"
b100100 K"
b1 2
b1 8
b100100 1
b100100 7
#180000
0+
#190000
b10 %
1Z"
b0 X"
1["
b0 Y"
b11111111111111111111111111111111 ]"
0T"
b1111111 R"
0W"
b0 U"
b10 #
b10 <
1'
b0 j"
b10000000 ?
b10000000 u"
0r"
b0 l"
b10 F
b10 T
b10 \"
b10 e"
b11111111 "
b11111111 ;
1E
b110 +#
b1000001000 $#
b11 %#
b1100100 "#
b110 n
b110 j
b1110 b
b11 f
b11 g
b11 h
b1100100 c
b0 d
b1010 3
1+
#191000
0W
1U
0o"
1m"
b1 G
b1 Q
b1 M"
b1 d"
b1100100 1
b1100100 7
#200000
0+
#210000
b0 %
b0 #
b0 <
0'
b111 n
b0 j
b1 _
b10 l
b111 +#
b1 ~"
b10 )#
b11110111 "
b11110111 ;
0E
b1011 3
1+
#211000
1N"
b10 O"
b0 L"
0U
1X
1Q"
0m"
1p"
b10 G
b10 Q
b10 M"
b10 d"
b101 A
b101 R
b101 f"
b101 :
b101 S
b101 g"
b101 K"
b0 2
b0 8
b10000101 1
b10000101 7
#220000
0+
#230000
b0 X"
b1 Y"
1Z"
1["
1W"
b10 U"
b11111111111111111111111111111111 ]"
b1000 +#
b10 {"
b1000 n
b1 j
b10 Y
b1100 3
1+
#231000
0X
1V
0Q"
1P"
0p"
1n"
b11 G
b11 Q
b11 M"
b11 d"
b11000101 1
b11000101 7
#240000
0+
#250000
b1 X"
1Z"
1["
b1 Y"
1T"
b10 R"
b11111111111111111111111111111111 ]"
1W"
b10 U"
b1001 n
b10 j
b10 i
b1001 +#
b10 '#
b1101 3
1+
#251000
0N"
b110010 O"
b1 L"
1W
0V
0P"
1o"
0n"
b0 G
b0 Q
b0 M"
b0 d"
b1100100 A
b1100100 R
b1100100 f"
b1100100 :
b1100100 S
b1100100 g"
b100100 K"
b1 2
b1 8
b100100 1
b100100 7
#260000
0+
#270000
b10 %
1Z"
b0 X"
1["
b0 Y"
b11111111111111111111111111111111 ]"
0T"
b1111111 R"
0W"
b0 U"
b10 #
b10 <
1'
b11111111 "
b11111111 ;
1E
b1010 +#
b1110111000 $#
b100 %#
b1010 n
b11 j
b1101 b
b100 f
b100 g
b100 h
b1100100 d
b1110 3
1+
#271000
0W
1U
0o"
1m"
b1 G
b1 Q
b1 M"
b1 d"
b1100100 1
b1100100 7
#280000
0+
#290000
b0 %
b0 #
b0 <
0'
b1011 n
b0 j
b10 _
b11 l
b1011 +#
b10 ~"
b11 )#
b11110111 "
b11110111 ;
0E
b1111 3
1+
#291000
1N"
b10 O"
b0 L"
0U
1X
1Q"
0m"
1p"
b10 G
b10 Q
b10 M"
b10 d"
b101 A
b101 R
b101 f"
b101 :
b101 S
b101 g"
b101 K"
b0 2
b0 8
b10000101 1
b10000101 7
#300000
0+
#310000
b0 X"
b1 Y"
1Z"
1["
1W"
b10 U"
b11111111111111111111111111111111 ]"
b1100 +#
b11 {"
b1100 n
b1 j
b11 Y
b10000 3
1+
#311000
0X
1V
0Q"
1P"
0p"
1n"
b11 G
b11 Q
b11 M"
b11 d"
b11000101 1
b11000101 7
#320000
0+
#330000
b1 X"
1Z"
1["
b1 Y"
1T"
b10 R"
b11111111111111111111111111111111 ]"
1W"
b10 U"
b1101 n
b10 j
b11 i
b1101 +#
b11 '#
b10001 3
1+
#331000
0N"
b110010 O"
b1 L"
1W
0V
0P"
1o"
0n"
b0 G
b0 Q
b0 M"
b0 d"
b1100100 A
b1100100 R
b1100100 f"
b1100100 :
b1100100 S
b1100100 g"
b100100 K"
b1 2
b1 8
b100100 1
b100100 7
#340000
0+
#350000
b10 %
1Z"
b0 X"
1["
b0 Y"
b11111111111111111111111111111111 ]"
0T"
b1111111 R"
0W"
b0 U"
b10 #
b10 <
1'
b11111111 "
b11111111 ;
1E
b1110 +#
b10100110010 $#
b101 %#
b1110 n
b11 j
b101 f
b101 g
b101 h
b10010 3
1+
#351000
0W
1U
0o"
1m"
b1 G
b1 Q
b1 M"
b1 d"
b1100100 1
b1100100 7
#360000
0+
#370000
b0 %
b0 #
b0 <
0'
b1111 n
b0 j
b11 _
b100 l
b1111 +#
b11 ~"
b100 )#
b11110111 "
b11110111 ;
0E
b10011 3
1+
#371000
1N"
b10 O"
b0 L"
0U
1X
1Q"
0m"
1p"
b10 G
b10 Q
b10 M"
b10 d"
b101 A
b101 R
b101 f"
b101 :
b101 S
b101 g"
b101 K"
b0 2
b0 8
b10000101 1
b10000101 7
#380000
0+
#390000
b10010000 ?
b10010000 u"
1_"
b0 X"
b1 Y"
1Z"
1["
1W"
b10 U"
b11111111111111111111111111111111 ]"
b10000 +#
b100 {"
b10000 n
b1 j
b100 Y
b10100 3
1+
#391000
0X
1V
0Q"
1P"
0p"
1n"
b11 G
b11 Q
b11 M"
b11 d"
b11000101 1
b11000101 7
#400000
0+
#410000
b1 X"
1Z"
1["
b1 Y"
1T"
b10 R"
b11111111111111111111111111111111 ]"
1W"
b10 U"
b10001 n
b10 j
b100 i
b10001 +#
b100 '#
b10101 3
1+
#411000
0N"
b110010 O"
b1 L"
1W
0V
0P"
1o"
0n"
b0 G
b0 Q
b0 M"
b0 d"
b1100100 A
b1100100 R
b1100100 f"
b1100100 :
b1100100 S
b1100100 g"
b100100 K"
b1 2
b1 8
b100100 1
b100100 7
#420000
0+
#430000
b10 %
1Z"
b0 X"
1["
b0 Y"
b11111111111111111111111111111111 ]"
0T"
b1111111 R"
0W"
b0 U"
b10 #
b10 <
1'
b11111111 "
b11111111 ;
1E
b10010 +#
b11001111101 $#
b110 %#
b10010 n
b11 j
b110 f
b110 g
b110 h
b10110 3
1+
#431000
0W
1U
0o"
1m"
b1 G
b1 Q
b1 M"
b1 d"
b1100100 1
b1100100 7
#440000
0+
#450000
b0 %
b0 #
b0 <
0'
b10011 n
b0 j
b100 _
b101 l
b10011 +#
b100 ~"
b101 )#
b11110111 "
b11110111 ;
0E
b10111 3
1+
#451000
1N"
b10 O"
b0 L"
0U
1X
1Q"
0m"
1p"
b10 G
b10 Q
b10 M"
b10 d"
b101 A
b101 R
b101 f"
b101 :
b101 S
b101 g"
b101 K"
b0 2
b0 8
b10000101 1
b10000101 7
#460000
0+
#470000
b0 X"
b1 Y"
1Z"
1["
1W"
b10 U"
b11111111111111111111111111111111 ]"
b10100 +#
b101 {"
b10100 n
b1 j
b101 Y
b11000 3
1+
#471000
0X
1V
0Q"
1P"
0p"
1n"
b11 G
b11 Q
b11 M"
b11 d"
b11000101 1
b11000101 7
#480000
0+
#490000
b1 X"
1Z"
1["
b1 Y"
1T"
b10 R"
b11111111111111111111111111111111 ]"
1W"
b10 U"
b10101 n
b10 j
b101 i
b10101 +#
b101 '#
b11001 3
1+
#491000
0N"
b110010 O"
b1 L"
1W
0V
0P"
1o"
0n"
b0 G
b0 Q
b0 M"
b0 d"
b1100100 A
b1100100 R
b1100100 f"
b1100100 :
b1100100 S
b1100100 g"
b100100 K"
b1 2
b1 8
b100100 1
b100100 7
#500000
0+
#510000
b10 %
1Z"
b0 X"
1["
b0 Y"
b11111111111111111111111111111111 ]"
0T"
b1111111 R"
0W"
b0 U"
b10 #
b10 <
1'
b11111111 "
b11111111 ;
1E
b10110 +#
b11110011111 $#
b111 %#
b10110 n
b11 j
b111 f
b111 g
b111 h
b11010 3
1+
#511000
0W
1U
0o"
1m"
b1 G
b1 Q
b1 M"
b1 d"
b1100100 1
b1100100 7
#520000
0+
#530000
b0 %
b0 #
b0 <
0'
b10111 n
b0 j
b101 _
b110 l
b10111 +#
b101 ~"
b110 )#
b11110111 "
b11110111 ;
0E
b11011 3
1+
#531000
1N"
b10 O"
b0 L"
0U
1X
1Q"
0m"
1p"
b10 G
b10 Q
b10 M"
b10 d"
b101 A
b101 R
b101 f"
b101 :
b101 S
b101 g"
b101 K"
b0 2
b0 8
b10000101 1
b10000101 7
#540000
0+
#550000
b0 X"
b1 Y"
1Z"
1["
1W"
b10 U"
b11111111111111111111111111111111 ]"
b11000 +#
b110 {"
b11000 n
b1 j
b110 Y
b11100 3
1+
#551000
0X
1V
0Q"
1P"
0p"
1n"
b11 G
b11 Q
b11 M"
b11 d"
b11000101 1
b11000101 7
#560000
0+
#570000
b10000000 ?
b10000000 u"
0_"
b1 X"
1Z"
1["
b1 Y"
1T"
b10 R"
b11111111111111111111111111111111 ]"
1W"
b10 U"
b11001 n
b10 j
b110 i
b11001 +#
b110 '#
b11101 3
1+
#571000
0N"
b110010 O"
b1 L"
1W
0V
0P"
1o"
0n"
b0 G
b0 Q
b0 M"
b0 d"
b1100100 A
b1100100 R
b1100100 f"
b1100100 :
b1100100 S
b1100100 g"
b100100 K"
b1 2
b1 8
b100100 1
b100100 7
#580000
0+
#590000
b10 %
1Z"
b0 X"
1["
b0 Y"
b11111111111111111111111111111111 ]"
0T"
b1111111 R"
0W"
b0 U"
b10 #
b10 <
1'
b11111111 "
b11111111 ;
1E
b11010 +#
b100010011101 $#
b0 %#
b11010 n
b11 j
b1000 f
b1000 g
b0 h
b11110 3
1+
#591000
0W
1U
0o"
1m"
b1 G
b1 Q
b1 M"
b1 d"
b1100100 1
b1100100 7
#600000
0+
#610000
b0 %
b0 #
b0 <
0'
b11011 n
b0 j
b110 _
b111 l
b11011 +#
b110 ~"
b111 )#
b11110111 "
b11110111 ;
0E
b11111 3
1+
#611000
1N"
b10 O"
b0 L"
0U
1X
1Q"
0m"
1p"
b10 G
b10 Q
b10 M"
b10 d"
b101 A
b101 R
b101 f"
b101 :
b101 S
b101 g"
b101 K"
b0 2
b0 8
b10000101 1
b10000101 7
#620000
0+
#630000
b0 X"
b1 Y"
1Z"
1["
1W"
b10 U"
b11111111111111111111111111111111 ]"
b11100 +#
b111 {"
b11100 n
b1 j
b111 Y
b100000 3
1+
#631000
0X
1V
0Q"
1P"
0p"
1n"
b11 G
b11 Q
b11 M"
b11 d"
b11000101 1
b11000101 7
#640000
0+
#650000
b1 X"
1Z"
1["
b1 Y"
1T"
b10 R"
b11111111111111111111111111111111 ]"
1W"
b10 U"
b11101 n
b10 j
b111 i
b11101 +#
b111 '#
b100001 3
1+
#651000
0N"
b110010 O"
b1 L"
1W
0V
0P"
1o"
0n"
b0 G
b0 Q
b0 M"
b0 d"
b1100100 A
b1100100 R
b1100100 f"
b1100100 :
b1100100 S
b1100100 g"
b100100 K"
b1 2
b1 8
b100100 1
b100100 7
#660000
0+
#670000
b10 %
1Z"
b0 X"
1["
b0 Y"
b11111111111111111111111111111111 ]"
0T"
b1111111 R"
0W"
b0 U"
b10 #
b10 <
1'
b11111111 "
b11111111 ;
1E
b11110 +#
b100101111011 $#
b1 %#
b0 &#
b11110 n
b11 j
b1001 f
b1001 g
b1 h
b1100100000 e
b100010 3
1+
#671000
0W
1U
0o"
1m"
b1 G
b1 Q
b1 M"
b1 d"
b1100100 1
b1100100 7
#680000
0+
#690000
b0 %
b0 #
b0 <
0'
b11111 n
b0 j
b111 _
b0 l
b11111 +#
b111 ~"
b0 )#
b11110111 "
b11110111 ;
0E
b100011 3
1+
#691000
1N"
b10 O"
b0 L"
0U
1X
1Q"
0m"
1p"
b10 G
b10 Q
b10 M"
b10 d"
b101 A
b101 R
b101 f"
b101 :
b101 S
b101 g"
b101 K"
b0 2
b0 8
b10000101 1
b10000101 7
#700000
0+
#710000
b10010000 ?
b10010000 u"
1_"
b0 X"
b1 Y"
1Z"
1["
1W"
b10 U"
b11111111111111111111111111111111 ]"
b100000 +#
b1000 {"
b100000 n
b1 j
b1000 Y
b100100 3
1+
#711000
0X
1V
0Q"
1P"
0p"
1n"
b11 G
b11 Q
b11 M"
b11 d"
b11000101 1
b11000101 7
#720000
0+
#730000
b1 X"
1Z"
1["
b1 Y"
1T"
b10 R"
b11111111111111111111111111111111 ]"
1W"
b10 U"
b100001 n
b10 j
b1000 i
b100001 +#
b1000 '#
b100101 3
1+
#731000
0N"
b110010 O"
b1 L"
1W
0V
0P"
1o"
0n"
b0 G
b0 Q
b0 M"
b0 d"
b1100100 A
b1100100 R
b1100100 f"
b1100100 :
b1100100 S
b1100100 g"
b100100 K"
b1 2
b1 8
b100100 1
b100100 7
#740000
0+
#750000
b100 )
b100 (
b100 K
b100 J
b10 %
b100 >
b100 t"
b100 =
b100 s"
1Z"
b0 X"
1["
b0 Y"
b11111111111111111111111111111111 ]"
0T"
b1111111 R"
0W"
b0 U"
b10 #
b10 <
1'
b0 k"
b10000 ?
b10000 u"
0^"
b11001100 "
b11001100 ;
1E
b100010 +#
b101000111101 $#
b0 ##
b10 %#
b100010 n
b11 j
b1011 b
b1010 f
b1010 g
b1100100 a
b10 h
b0 ^
b1100100 ]
b100110 3
1+
#751000
0W
1U
0o"
1m"
b1 G
b1 Q
b1 M"
b1 d"
b1100100 1
b1100100 7
#760000
0+
#770000
b0 %
b0 #
b0 <
0'
b100011 n
b0 j
b1000 _
b1 l
b100011 +#
b1000 ~"
b1 )#
b11000100 "
b11000100 ;
0E
b100 /
b100 .
b100111 3
b100 4
1+
#771000
1N"
b10 O"
b0 L"
0U
1X
1Q"
0m"
1p"
b10 G
b10 Q
b10 M"
b10 d"
b101 A
b101 R
b101 f"
b101 :
b101 S
b101 g"
b101 K"
b0 2
b0 8
b10000101 1
b10000101 7
#780000
0+
#790000
b0 X"
b1 Y"
1Z"
1["
1W"
b10 U"
b11111111111111111111111111111111 ]"
b100100 +#
b1001 {"
b100100 n
b1 j
b1001 Y
b101000 3
1+
#791000
0X
1V
0Q"
1P"
0p"
1n"
b11 G
b11 Q
b11 M"
b11 d"
b11000101 1
b11000101 7
#800000
0+
#810000
b1 X"
1Z"
1["
b1 Y"
1T"
b10 R"
b11111111111111111111111111111111 ]"
1W"
b10 U"
b100101 n
b10 j
b1001 i
b100101 +#
b1001 '#
b101001 3
1+
#811000
0N"
b110010 O"
b1 L"
1W
0V
0P"
1o"
0n"
b0 G
b0 Q
b0 M"
b0 d"
b1100100 A
b1100100 R
b1100100 f"
b1100100 :
b1100100 S
b1100100 g"
b100100 K"
b1 2
b1 8
b100100 1
b100100 7
#820000
0+
#830000
b10 %
1Z"
b0 X"
1["
b0 Y"
b11111111111111111111111111111111 ]"
0T"
b1111111 R"
0W"
b0 U"
b10 #
b10 <
1'
b11001100 "
b11001100 ;
1E
b100110 +#
b100100000001 $#
b11 %#
b100110 n
b11 j
b1001 b
b1011 f
b1011 g
b11 h
b101010 3
1+
