nanotrade.vcd
$date
	Thu Feb 19 20:51:35 2026
$end
$version
	Icarus Verilog
$end
$timescale
	1ps
$end
$scope module tb_nanotrade $end
$var wire 8 ! uio_oe [7:0] $end
$var wire 8 " uo_out [7:0] $end
$var wire 8 # uio_out [7:0] $end
$var wire 1 $ ml_valid_out $end
$var wire 4 % ml_conf_nibble [3:0] $end
$var wire 3 & ml_class_out [2:0] $end
$var wire 1 ' match_valid $end
$var wire 3 ( alert_type [2:0] $end
$var wire 3 ) alert_priority [2:0] $end
$var wire 1 * alert_flag $end
$var reg 1 + clk $end
$var reg 1 , ena $end
$var reg 1 - prev_alert $end
$var reg 3 . prev_prio [2:0] $end
$var reg 3 / prev_type [2:0] $end
$var reg 1 0 rst_n $end
$var reg 8 1 ui_in [7:0] $end
$var reg 8 2 uio_in [7:0] $end
$var integer 32 3 cycle_count [31:0] $end
$var integer 32 4 flash_crashes [31:0] $end
$var integer 32 5 ml_inferences [31:0] $end
$var integer 32 6 total_alerts [31:0] $end
$var integer 32 7 total_matches [31:0] $end
$scope function alert_name_full $end
$var reg 3 8 t [2:0] $end
$upscope $end
$scope function conf_bar $end
$var reg 4 9 c [3:0] $end
$upscope $end
$scope function ml_class_name $end
$var reg 3 : c [2:0] $end
$upscope $end
$scope function prio_bar $end
$var reg 3 ; p [2:0] $end
$upscope $end
$scope module dut $end
$var wire 1 < cb_load_final $end
$var wire 1 + clk $end
$var wire 1 = comb_alert $end
$var wire 1 > config_strobe $end
$var wire 1 , ena $end
$var wire 1 0 rst_n $end
$var wire 1 ? uart_trigger $end
$var wire 8 @ ui_in [7:0] $end
$var wire 8 A uio_in [7:0] $end
$var wire 8 B uio_oe [7:0] $end
$var wire 12 C vol_data [11:0] $end
$var wire 8 D uio_out [7:0] $end
$var wire 8 E uart_payload [7:0] $end
$var wire 3 F rule_alert_type [2:0] $end
$var wire 3 G rule_alert_priority [2:0] $end
$var wire 8 H rule_alert_bitmap [7:0] $end
$var wire 1 I rule_alert_any $end
$var wire 12 J price_data [11:0] $end
$var wire 1 K ml_valid $end
$var wire 8 L ml_confidence [7:0] $end
$var wire 3 M ml_class [2:0] $end
$var wire 1 N match_valid $end
$var wire 8 O match_price [7:0] $end
$var wire 2 P input_type [1:0] $end
$var wire 128 Q features [127:0] $end
$var wire 1 R feature_valid $end
$var wire 3 S comb_type [2:0] $end
$var wire 3 T comb_priority [2:0] $end
$var wire 2 U cb_state [1:0] $end
$var wire 8 V cb_param_final [7:0] $end
$var wire 2 W cb_mode_final [1:0] $end
$var wire 1 X cb_active $end
$var wire 2 Y cascade_type [1:0] $end
$var wire 8 Z cascade_cb_param [7:0] $end
$var wire 1 [ cascade_cb_load $end
$var wire 1 \ cascade_alert $end
$var wire 1 ] _unused $end
$var wire 12 ^ SPIKE_THRESH [11:0] $end
$var wire 12 _ FLASH_THRESH [11:0] $end
$var parameter 32 ` BAUD_DIV $end
$var parameter 32 a CLK_HZ $end
$var parameter 32 b HB_DIV $end
$var reg 1 c cb_load_r $end
$var reg 2 d cb_mode_cmd [1:0] $end
$var reg 2 e cb_mode_next [1:0] $end
$var reg 8 f cb_param_cmd [7:0] $end
$var reg 8 g cb_param_next [7:0] $end
$var reg 25 h hb_cnt [24:0] $end
$var reg 1 i hb_led $end
$var reg 1 j ml_anomaly_held $end
$var reg 3 k ml_class_held [2:0] $end
$var reg 8 l ml_conf_held [7:0] $end
$var reg 3 m ml_prio_held [2:0] $end
$var reg 1 n ml_valid_d $end
$var reg 1 o prev_alert_r $end
$var reg 2 p thresh_sel [1:0] $end
$var reg 10 q uart_bit_cnt [9:0] $end
$var reg 4 r uart_bits [3:0] $end
$var reg 1 s uart_busy $end
$var reg 10 t uart_shift [9:0] $end
$var reg 1 u uart_tx $end
$var reg 8 v uo_out [7:0] $end
$scope module u_cascade $end
$var wire 1 w cascade_fire $end
$var wire 1 + clk $end
$var wire 1 x event_any $end
$var wire 1 y is_spike_crash $end
$var wire 1 z is_stuff_crash $end
$var wire 1 { is_triple $end
$var wire 1 | is_vol_crash $end
$var wire 1 } ml_evt $end
$var wire 1 ~ new_is_flash $end
$var wire 1 0 rst_n $end
$var wire 1 !" rule_evt $end
$var wire 1 "" test_flush $end
$var wire 3 #" rule_alert_type [2:0] $end
$var wire 1 I rule_alert_any $end
$var wire 1 K ml_valid $end
$var wire 8 $" ml_confidence [7:0] $end
$var wire 3 %" ml_class [2:0] $end
$var wire 3 &" h2_next [2:0] $end
$var wire 3 '" h1_next [2:0] $end
$var wire 3 (" h0_next [2:0] $end
$var wire 3 )" event_code [2:0] $end
$var wire 9 *" conf_x2_wide [8:0] $end
$var wire 8 +" conf_x2_sat [7:0] $end
$var wire 2 ," cascade_type_next [1:0] $end
$var parameter 32 -" CASCADE_HOLD $end
$var parameter 32 ." CASCADE_WINDOW $end
$var parameter 2 /" CT_SPIKE_CRASH $end
$var parameter 2 0" CT_STUFF_CRASH $end
$var parameter 2 1" CT_TRIPLE $end
$var parameter 2 2" CT_VOL_CRASH $end
$var reg 7 3" age_cnt [6:0] $end
$var reg 1 \ cascade_alert $end
$var reg 1 [ cascade_cb_load $end
$var reg 8 4" cascade_cb_param [7:0] $end
$var reg 2 5" cascade_type [1:0] $end
$var reg 6 6" hold_cnt [5:0] $end
$upscope $end
$scope module u_feat_extractor $end
$var wire 1 + clk $end
$var wire 2 7" input_type [1:0] $end
$var wire 12 8" price_data [11:0] $end
$var wire 1 0 rst_n $end
$var wire 12 9" volume_data [11:0] $end
$var wire 1 N match_valid $end
$var wire 8 :" match_price [7:0] $end
$var wire 1 ;" is_volume $end
$var wire 1 <" is_sell $end
$var wire 1 =" is_price $end
$var wire 1 >" is_buy $end
$var reg 8 ?" buy_count [7:0] $end
$var reg 12 @" cur_price [11:0] $end
$var reg 12 A" cur_vol [11:0] $end
$var reg 1 R feature_valid $end
$var reg 128 B" features [127:0] $end
$var reg 12 C" local_avg [11:0] $end
$var reg 12 D" local_delta [11:0] $end
$var reg 8 E" match_count [7:0] $end
$var reg 8 F" match_rate [7:0] $end
$var reg 12 G" price_avg [11:0] $end
$var reg 12 H" price_mad [11:0] $end
$var reg 12 I" price_prev1 [11:0] $end
$var reg 12 J" price_prev2 [11:0] $end
$var reg 15 K" price_sum8 [14:0] $end
$var reg 6 L" ptr_l [5:0] $end
$var reg 5 M" ptr_m [4:0] $end
$var reg 3 N" ptr_s [2:0] $end
$var reg 8 O" sell_count [7:0] $end
$var reg 16 P" trade_timer [15:0] $end
$var reg 12 Q" vol_avg [11:0] $end
$var reg 3 R" vol_ptr [2:0] $end
$var reg 15 S" vol_sum8 [14:0] $end
$var reg 8 T" window_cnt [7:0] $end
$var integer 32 U" i [31:0] $end
$scope function clip8 $end
$var reg 12 V" x [11:0] $end
$upscope $end
$scope function clip8_16 $end
$var reg 16 W" x [15:0] $end
$upscope $end
$scope function imbalance_byte $end
$var reg 8 X" buys [7:0] $end
$var reg 16 Y" num [15:0] $end
$var reg 8 Z" sells [7:0] $end
$var reg 16 [" total [15:0] $end
$upscope $end
$scope function momentum_byte $end
$var reg 13 \" d1 [12:0] $end
$var reg 13 ]" d2 [12:0] $end
$var reg 13 ^" mom [12:0] $end
$var reg 12 _" p0 [11:0] $end
$var reg 12 `" p1 [11:0] $end
$var reg 12 a" p2 [11:0] $end
$upscope $end
$scope function price_delta $end
$var reg 12 b" a [11:0] $end
$var reg 12 c" b [11:0] $end
$var reg 12 d" d [11:0] $end
$upscope $end
$scope function spread_byte $end
$var reg 8 e" asks [7:0] $end
$var reg 8 f" bids [7:0] $end
$upscope $end
$scope function vol_ratio_byte $end
$var reg 12 g" avg [11:0] $end
$var reg 12 h" cur [11:0] $end
$var reg 20 i" num [19:0] $end
$upscope $end
$upscope $end
$scope module u_ml_engine $end
$var wire 1 + clk $end
$var wire 1 R feature_valid $end
$var wire 128 j" features [127:0] $end
$var wire 1 0 rst_n $end
$var reg 32 k" acc2_tmp [31:0] $end
$var reg 3 l" best_class [2:0] $end
$var reg 32 m" gap [31:0] $end
$var reg 32 n" max_logit [31:0] $end
$var reg 32 o" min_logit [31:0] $end
$var reg 3 p" ml_class [2:0] $end
$var reg 8 q" ml_confidence [7:0] $end
$var reg 8 r" ml_margin [7:0] $end
$var reg 1 K ml_valid $end
$var reg 1 s" s0_valid $end
$var reg 1 t" s1_valid $end
$var reg 1 u" s2_valid $end
$var reg 32 v" second_max_logit [31:0] $end
$var integer 32 w" h1 [31:0] $end
$var integer 32 x" h2 [31:0] $end
$var integer 32 y" i1 [31:0] $end
$var integer 32 z" j3 [31:0] $end
$var integer 32 {" k [31:0] $end
$var integer 32 |" o2 [31:0] $end
$scope function rom_b1 $end
$var reg 2 }" addr [1:0] $end
$upscope $end
$scope function rom_b2 $end
$var reg 3 ~" addr [2:0] $end
$upscope $end
$scope function rom_w1 $end
$var reg 6 !# addr [5:0] $end
$upscope $end
$scope function rom_w2 $end
$var reg 5 "# addr [4:0] $end
$upscope $end
$scope begin unpack[0] $end
$var parameter 2 ## gi $end
$upscope $end
$scope begin unpack[1] $end
$var parameter 2 $# gi $end
$upscope $end
$scope begin unpack[2] $end
$var parameter 3 %# gi $end
$upscope $end
$scope begin unpack[3] $end
$var parameter 3 &# gi $end
$upscope $end
$scope begin unpack[4] $end
$var parameter 4 '# gi $end
$upscope $end
$scope begin unpack[5] $end
$var parameter 4 (# gi $end
$upscope $end
$scope begin unpack[6] $end
$var parameter 4 )# gi $end
$upscope $end
$scope begin unpack[7] $end
$var parameter 4 *# gi $end
$upscope $end
$scope begin unpack[8] $end
$var parameter 5 +# gi $end
$upscope $end
$scope begin unpack[9] $end
$var parameter 5 ,# gi $end
$upscope $end
$scope begin unpack[10] $end
$var parameter 5 -# gi $end
$upscope $end
$scope begin unpack[11] $end
$var parameter 5 .# gi $end
$upscope $end
$scope begin unpack[12] $end
$var parameter 5 /# gi $end
$upscope $end
$scope begin unpack[13] $end
$var parameter 5 0# gi $end
$upscope $end
$scope begin unpack[14] $end
$var parameter 5 1# gi $end
$upscope $end
$scope begin unpack[15] $end
$var parameter 5 2# gi $end
$upscope $end
$upscope $end
$scope module u_order_book $end
$var wire 1 < cb_load $end
$var wire 2 3# cb_mode [1:0] $end
$var wire 8 4# cb_param [7:0] $end
$var wire 2 5# cb_state [1:0] $end
$var wire 1 + clk $end
$var wire 1 6# crossing $end
$var wire 6 7# data_in [5:0] $end
$var wire 6 8# ext_data [5:0] $end
$var wire 2 9# input_type [1:0] $end
$var wire 1 0 rst_n $end
$var wire 4 :# throttle_div [3:0] $end
$var wire 1 ;# throttle_allow $end
$var wire 3 <# spread_guard [2:0] $end
$var wire 1 =# order_gate $end
$var wire 7 ># new_price [6:0] $end
$var wire 1 ?# match_gate $end
$var wire 1 @# is_sell $end
$var wire 1 A# is_buy $end
$var wire 7 B# cross_threshold [6:0] $end
$var wire 1 X cb_active $end
$var wire 3 C# active_guard [2:0] $end
$var reg 7 D# best_ask [6:0] $end
$var reg 2 E# best_ask_idx [1:0] $end
$var reg 1 F# best_ask_valid $end
$var reg 7 G# best_bid [6:0] $end
$var reg 2 H# best_bid_idx [1:0] $end
$var reg 1 I# best_bid_valid $end
$var reg 9 J# cb_countdown [8:0] $end
$var reg 2 K# cb_mode_r [1:0] $end
$var reg 8 L# cb_param_r [7:0] $end
$var reg 2 M# empty_ask_slot [1:0] $end
$var reg 2 N# empty_bid_slot [1:0] $end
$var reg 1 O# has_empty_ask $end
$var reg 1 P# has_empty_bid $end
$var reg 8 Q# match_price [7:0] $end
$var reg 1 N match_valid $end
$var reg 4 R# throttle_cnt [3:0] $end
$var integer 32 S# i [31:0] $end
$upscope $end
$scope module u_rule_detector $end
$var wire 1 + clk $end
$var wire 1 T# det_flash $end
$var wire 1 U# det_imbalance $end
$var wire 1 V# det_spread $end
$var wire 1 W# det_vol_dry $end
$var wire 1 X# det_vol_surge $end
$var wire 1 Y# det_volatility $end
$var wire 12 Z# flash_thresh [11:0] $end
$var wire 2 [# input_type [1:0] $end
$var wire 8 \# match_price [7:0] $end
$var wire 1 N match_valid $end
$var wire 12 ]# price_data [11:0] $end
$var wire 1 0 rst_n $end
$var wire 12 ^# spike_thresh [11:0] $end
$var wire 12 _# volume_data [11:0] $end
$var wire 13 `# vol_surge_thresh [12:0] $end
$var wire 12 a# vol_dry_thresh [11:0] $end
$var wire 12 b# vol_deviation [11:0] $end
$var wire 12 c# price_drop [11:0] $end
$var wire 12 d# price_delta [11:0] $end
$var wire 1 e# is_volume $end
$var wire 1 f# is_sell $end
$var wire 1 g# is_price $end
$var wire 1 h# is_buy $end
$var wire 1 i# det_velocity $end
$var wire 1 j# det_spike $end
$var wire 3 k# alert_type [2:0] $end
$var wire 3 l# alert_priority [2:0] $end
$var wire 8 m# alert_bitmap [7:0] $end
$var wire 1 I alert_any $end
$var parameter 6 n# VELOCITY_THRESH $end
$var parameter 32 o# VOL_DRY_DIV $end
$var parameter 32 p# VOL_SURGE_MULT $end
$var reg 4 q# buy_order_count [3:0] $end
$var reg 12 r# current_price [11:0] $end
$var reg 12 s# current_volume [11:0] $end
$var reg 6 t# match_counter [5:0] $end
$var reg 6 u# match_rate [5:0] $end
$var reg 12 v# prev_price [11:0] $end
$var reg 12 w# price_avg [11:0] $end
$var reg 12 x# price_mad [11:0] $end
$var reg 3 y# price_ptr [2:0] $end
$var reg 15 z# price_sum [14:0] $end
$var reg 4 {# sell_order_count [3:0] $end
$var reg 12 |# vol_avg [11:0] $end
$var reg 3 }# vol_ptr [2:0] $end
$var reg 15 ~# vol_sum [14:0] $end
$var reg 8 !$ window_timer [7:0] $end
$var integer 32 "$ i [31:0] $end
$upscope $end
$upscope $end
$scope task idle $end
$var integer 32 #$ n [31:0] $end
$upscope $end
$scope task scenario_banner $end
$var reg 352 $$ title [351:0] $end
$var integer 32 %$ num [31:0] $end
$upscope $end
$scope task send_buy $end
$var reg 6 &$ qty [5:0] $end
$upscope $end
$scope task send_price $end
$var reg 12 '$ price [11:0] $end
$upscope $end
$scope task send_sell $end
$var reg 6 ($ qty [5:0] $end
$upscope $end
$scope task send_volume $end
$var reg 12 )$ vol [11:0] $end
$upscope $end
$scope task set_threshold_preset $end
$var reg 2 *$ preset [1:0] $end
$upscope $end
$upscope $end
$enddefinitions $end
$comment Show the parameter values. $end
$dumpall
b10 p#
b100 o#
b11110 n#
b1111 2#
b1110 1#
b1101 0#
b1100 /#
b1011 .#
b1010 -#
b1001 ,#
b1000 +#
b111 *#
b110 )#
b101 (#
b100 '#
b11 &#
b10 %#
b1 $#
b0 ##
b0 2"
b11 1"
b10 0"
b1 /"
b1000000 ."
b100000 -"
b1011111010111100001000000 b
b10111110101111000010000000 a
b110110010 `
$end
#0
$dumpvars
bx *$
bx )$
bx ($
bx '$
bx &$
bx %$
bx $$
bx #$
b1000 "$
b0 !$
b0 ~#
b0 }#
b1100100 |#
b0 {#
b0 z#
b0 y#
b101 x#
b1100100 w#
b1100100 v#
b0 u#
b0 t#
b0 s#
b1100100 r#
b0 q#
b10 m#
b1 l#
b1 k#
0j#
0i#
0h#
1g#
0f#
0e#
b0 d#
b0 c#
b0 b#
b110 a#
b110010000 `#
b0 _#
b10100 ^#
b0 ]#
b0 \#
b0 [#
b101000 Z#
0Y#
0X#
1W#
0V#
0U#
0T#
b11111111111111111111111111111111 S#
b0 R#
b0 Q#
1P#
1O#
b0 N#
b0 M#
b0 L#
b0 K#
b0 J#
0I#
b0 H#
b0 G#
0F#
b0 E#
b1111111 D#
b0 C#
b1111111 B#
0A#
0@#
1?#
b0 >#
1=#
b0 <#
1;#
b0 :#
b0 9#
b0 8#
b0 7#
06#
b0 5#
b0 4#
b0 3#
bx "#
bx !#
bx ~"
bx }"
bx |"
b10000 {"
bx z"
bx y"
bx x"
bx w"
bx v"
0u"
0t"
0s"
b0 r"
b0 q"
b0 p"
bx o"
bx n"
bx m"
bx l"
bx k"
bx j"
bx i"
bx h"
bx g"
bx f"
bx e"
bx d"
bx c"
bx b"
bx a"
bx `"
bx _"
bx ^"
bx ]"
bx \"
bx ["
bx Z"
bx Y"
bx X"
bx W"
bx V"
b1000 U"
b0 T"
b1100100000 S"
b0 R"
b1100100 Q"
b0 P"
b0 O"
b0 N"
b0 M"
b0 L"
b1100100000 K"
b1100100 J"
b1100100 I"
b101 H"
b1100100 G"
b0 F"
b0 E"
bx D"
bx C"
bx B"
b1100100 A"
b1100100 @"
b0 ?"
0>"
1="
0<"
0;"
b0 :"
b0 9"
b0 8"
b0 7"
b0 6"
b0 5"
b0 4"
b0 3"
b0 ,"
b0 +"
b0 *"
b1 )"
b1 ("
b0 '"
b0 &"
b0 %"
b0 $"
b1 #"
0""
1!"
0~
0}
0|
0{
0z
0y
1x
0w
b10010001 v
1u
b1111111111 t
0s
b0 r
b0 q
b1 p
0o
0n
b0 m
b0 l
b0 k
0j
0i
b0 h
b0 g
b0 f
b0 e
b0 d
0c
b101000 _
b10100 ^
0]
0\
0[
b0 Z
b0 Y
0X
b0 W
b0 V
b0 U
b1 T
b1 S
0R
bx Q
b0 P
b0 O
0N
b0 M
b0 L
0K
b0 J
1I
b10 H
b1 G
b1 F
b100100 E
b0 D
b0 C
b11111111 B
b0 A
b0 @
1?
0>
1=
0<
bx ;
bx :
bx 9
bx 8
b0 7
b0 6
b0 5
b0 4
b0 3
b0 2
b0 1
00
b0 /
b0 .
0-
1,
0+
1*
b1 )
b1 (
0'
b0 &
b0 %
0$
b0 #
b10010001 "
b11111111 !
$end
#10000
b1 /
b1 .
1-
b110 {"
b1000 U"
b1000 "$
b100 S#
b1 3
b1 ;
b1 8
b1 6
1+
#20000
0+
#30000
b100 S#
b1000 "$
b1000 U"
b10000 {"
b10 3
1+
#40000
0+
#50000
b110 {"
b1000 U"
b1000 "$
b100 S#
b11 3
1+
#60000
0+
#70000
b100 S#
b1000 "$
b1000 U"
b10000 {"
b100 3
1+
#80000
0+
#90000
b110 (
b110 )
b110 ("
b11100110 "
b11100110 v
b110 T
b110 )"
b11011000 E
b110 S
b110 G
b110 l#
b110 F
b110 #"
b110 k#
0?
1Y#
b1010100 b#
b1 '"
b1000011 H
b1000011 m#
1j#
b1100100 d#
b1 h
0u
1s
b1001001000 t
1o
b1 T"
b1 P"
b10000 H"
b1 L"
b1 M"
b1 N"
b1010111100 K"
b0 @"
b1 !$
b10000 x#
b0 w#
b1 y#
b111111110011100 z#
b0 r#
b1100100 D"
b1100100 C"
b101 3
10
1+
#91000
b110010 >#
b1 8#
b1100100 J
b1100100 8"
b1100100 ]#
b1100100 C
b1100100 9"
b1100100 _#
b100100 7#
b1 2
b1 A
b100100 1
b100100 @
b1100100 '$
b1 %$
b1001110011011110111001001101101011000010110110000100000010011010110000101110010011010110110010101110100001000000101011101100001011100100110110100101101011101010111000000100000001000000010100001110000011100100110100101100011011001010011110100110001001100000011000000101001 $$
#100000
0+
#110000
b111 (
b111 )
b111 ("
b11110111 "
b11110111 v
b111 T
b111 )"
b11111100 E
b111 S
b111 G
b111 l#
b111 F
b111 #"
b111 k#
0Y#
b10000011 H
b10000011 m#
1T#
b1001010 b#
b111110001111 c#
b110 '"
b1 &"
b10 !$
b11010 x#
b111111110011 w#
b10 y#
b1100100 r#
b0 v#
b10 T"
b10 P"
b1111 H"
b10 L"
b10 M"
b1010111 G"
b10 N"
b1100100 @"
b0 I"
b1 q
b10 h
b110 /
b110 .
b1101 D"
b1010111 C"
b110 ;
b110 8
b10 6
b110 3
1+
#111000
0="
1;"
0g#
1e#
b1 P
b1 7"
b1 9#
b1 [#
b1100100 1
b1100100 @
b1100100 )$
#120000
0+
#130000
b111 '"
b110 &"
b0 `#
b0 a#
b10000001 H
b10000001 m#
0W#
b11 h
b10 q
b11 T"
b11 P"
b1 R"
b11 !$
b0 |#
b1 }#
b1100100 s#
b111 /
b111 .
b111 3
b111 ;
b111 8
b1 4
b11 6
1+
#131000
b10 >#
b0 8#
0;"
1>"
1A#
0e#
1h#
b10 P
b10 7"
b10 9#
b10 [#
b101 J
b101 8"
b101 ]#
b101 C
b101 9"
b101 _#
b101 7#
b0 2
b0 A
b10000101 1
b10000101 @
b101 &$
#140000
0+
#150000
b0 M#
b1 N#
1O#
1P#
1I#
b10 G#
b11111111111111111111111111111111 S#
b111 &"
b100 !$
b1 q#
b100 T"
b100 P"
b1 ?"
b11 q
b100 h
b1000 3
1+
#151000
0>"
1<"
0A#
1@#
0h#
1f#
b11 P
b11 7"
b11 9#
b11 [#
b11000101 1
b11000101 @
b101 ($
#160000
0+
#170000
16#
b1 M#
1O#
1P#
b1 N#
1F#
b10 B#
b10 D#
b11111111111111111111111111111111 S#
1I#
b10 G#
b101 h
b100 q
b101 T"
b101 P"
b1 O"
b101 !$
b1 {#
b1001 3
1+
#171000
b110010 >#
b1 8#
1="
0<"
0@#
1g#
0f#
b0 P
b0 7"
b0 9#
b0 [#
b1100100 J
b1100100 8"
b1100100 ]#
b1100100 C
b1100100 9"
b1100100 _#
b100100 7#
b1 2
b1 A
b100100 1
b100100 @
#180000
0+
#190000
06#
b10 %
1'
1O#
b0 M#
1P#
b0 N#
b11111111111111111111111111111111 S#
0F#
b1111111 B#
b1111111 D#
0I#
b0 G#
b10 #
b10 D
b11111111 "
b11111111 v
b0 b#
b10000000 H
b10000000 m#
0j#
b0 d#
b10 O
b10 :"
b10 Q#
b10 \#
1N
b110 !$
b1000001000 x#
b11 y#
b1100100 v#
b110 T"
b110 P"
b1110 H"
b11 L"
b11 M"
b11 N"
b1100100 I"
b0 J"
b101 q
b110 h
b1010 3
1+
#191000
0="
1;"
0g#
1e#
b1 P
b1 7"
b1 9#
b1 [#
b1100100 1
b1100100 @
#200000
0+
#210000
b0 %
0'
b0 #
b0 D
b11110111 "
b11110111 v
b111 h
b110 q
b111 T"
b0 P"
b1 E"
b10 R"
b111 !$
b1 t#
b10 }#
0N
b1011 3
b1 7
1+
#211000
b10 >#
b0 8#
0;"
1>"
1A#
0e#
1h#
b10 P
b10 7"
b10 9#
b10 [#
b101 J
b101 8"
b101 ]#
b101 C
b101 9"
b101 _#
b101 7#
b0 2
b0 A
b10000101 1
b10000101 @
#220000
0+
#230000
b0 M#
b1 N#
1O#
1P#
1I#
b10 G#
b11111111111111111111111111111111 S#
b1000 !$
b10 q#
b1000 T"
b1 P"
b10 ?"
b111 q
b1000 h
b1100 3
1+
#231000
0>"
1<"
0A#
1@#
0h#
1f#
b11 P
b11 7"
b11 9#
b11 [#
b11000101 1
b11000101 @
#240000
0+
#250000
16#
b1 M#
1O#
1P#
b1 N#
1F#
b10 B#
b10 D#
b11111111111111111111111111111111 S#
1I#
b10 G#
b1001 h
b1000 q
b1001 T"
b10 P"
b10 O"
b1001 !$
b10 {#
b1101 3
1+
#251000
b110010 >#
b1 8#
1="
0<"
0@#
1g#
0f#
b0 P
b0 7"
b0 9#
b0 [#
b1100100 J
b1100100 8"
b1100100 ]#
b1100100 C
b1100100 9"
b1100100 _#
b100100 7#
b1 2
b1 A
b100100 1
b100100 @
#260000
0+
#270000
06#
b10 %
1'
1O#
b0 M#
1P#
b0 N#
b11111111111111111111111111111111 S#
0F#
b1111111 B#
b1111111 D#
0I#
b0 G#
b10 #
b10 D
b11111111 "
b11111111 v
1N
b1010 !$
b1110111000 x#
b100 y#
b1010 T"
b11 P"
b1101 H"
b100 L"
b100 M"
b100 N"
b1100100 J"
b1001 q
b1010 h
b1110 3
1+
#271000
0="
1;"
0g#
1e#
b1 P
b1 7"
b1 9#
b1 [#
b1100100 1
b1100100 @
#280000
0+
#290000
b0 %
0'
b0 #
b0 D
b11110111 "
b11110111 v
b1011 h
b1010 q
b1011 T"
b0 P"
b10 E"
b11 R"
b1011 !$
b10 t#
b11 }#
0N
b1111 3
b10 7
1+
#291000
b10 >#
b0 8#
0;"
1>"
1A#
0e#
1h#
b10 P
b10 7"
b10 9#
b10 [#
b101 J
b101 8"
b101 ]#
b101 C
b101 9"
b101 _#
b101 7#
b0 2
b0 A
b10000101 1
b10000101 @
#300000
0+
#310000
b0 M#
b1 N#
1O#
1P#
1I#
b10 G#
b11111111111111111111111111111111 S#
b1100 !$
b11 q#
b1100 T"
b1 P"
b11 ?"
b1011 q
b1100 h
b10000 3
1+
#311000
0>"
1<"
0A#
1@#
0h#
1f#
b11 P
b11 7"
b11 9#
b11 [#
b11000101 1
b11000101 @
#320000
0+
#330000
16#
b1 M#
1O#
1P#
b1 N#
1F#
b10 B#
b10 D#
b11111111111111111111111111111111 S#
1I#
b10 G#
b1101 h
b1100 q
b1101 T"
b10 P"
b11 O"
b1101 !$
b11 {#
b10001 3
1+
#331000
b110010 >#
b1 8#
1="
0<"
0@#
1g#
0f#
b0 P
b0 7"
b0 9#
b0 [#
b1100100 J
b1100100 8"
b1100100 ]#
b1100100 C
b1100100 9"
b1100100 _#
b100100 7#
b1 2
b1 A
b100100 1
b100100 @
#340000
0+
#350000
06#
b10 %
1'
1O#
b0 M#
1P#
b0 N#
b11111111111111111111111111111111 S#
0F#
b1111111 B#
b1111111 D#
0I#
b0 G#
b10 #
b10 D
b11111111 "
b11111111 v
1N
b1110 !$
b10100110010 x#
b101 y#
b1110 T"
b11 P"
b101 L"
b101 M"
b101 N"
b1101 q
b1110 h
b10010 3
1+
#351000
0="
1;"
0g#
1e#
b1 P
b1 7"
b1 9#
b1 [#
b1100100 1
b1100100 @
#360000
0+
#370000
b0 %
0'
b0 #
b0 D
b11110111 "
b11110111 v
b1111 h
b1110 q
b1111 T"
b0 P"
b11 E"
b100 R"
b1111 !$
b11 t#
b100 }#
0N
b10011 3
b11 7
1+
#371000
b10 >#
b0 8#
0;"
1>"
1A#
0e#
1h#
b10 P
b10 7"
b10 9#
b10 [#
b101 J
b101 8"
b101 ]#
b101 C
b101 9"
b101 _#
b101 7#
b0 2
b0 A
b10000101 1
b10000101 @
#380000
0+
#390000
b10010000 H
b10010000 m#
1U#
b0 M#
b1 N#
1O#
1P#
1I#
b10 G#
b11111111111111111111111111111111 S#
b10000 !$
b100 q#
b10000 T"
b1 P"
b100 ?"
b1111 q
b10000 h
b10100 3
1+
#391000
0>"
1<"
0A#
1@#
0h#
1f#
b11 P
b11 7"
b11 9#
b11 [#
b11000101 1
b11000101 @
#400000
0+
#410000
16#
b1 M#
1O#
1P#
b1 N#
1F#
b10 B#
b10 D#
b11111111111111111111111111111111 S#
1I#
b10 G#
b10001 h
b10000 q
b10001 T"
b10 P"
b100 O"
b10001 !$
b100 {#
b10101 3
1+
#411000
b110010 >#
b1 8#
1="
0<"
0@#
1g#
0f#
b0 P
b0 7"
b0 9#
b0 [#
b1100100 J
b1100100 8"
b1100100 ]#
b1100100 C
b1100100 9"
b1100100 _#
b100100 7#
b1 2
b1 A
b100100 1
b100100 @
#420000
0+
#430000
06#
b10 %
1'
1O#
b0 M#
1P#
b0 N#
b11111111111111111111111111111111 S#
0F#
b1111111 B#
b1111111 D#
0I#
b0 G#
b10 #
b10 D
b11111111 "
b11111111 v
1N
b10010 !$
b11001111101 x#
b110 y#
b10010 T"
b11 P"
b110 L"
b110 M"
b110 N"
b10001 q
b10010 h
b10110 3
1+
#431000
0="
1;"
0g#
1e#
b1 P
b1 7"
b1 9#
b1 [#
b1100100 1
b1100100 @
#440000
0+
#450000
b0 %
0'
b0 #
b0 D
b11110111 "
b11110111 v
b10011 h
b10010 q
b10011 T"
b0 P"
b100 E"
b101 R"
b10011 !$
b100 t#
b101 }#
0N
b10111 3
b100 7
1+
#451000
b10 >#
b0 8#
0;"
1>"
1A#
0e#
1h#
b10 P
b10 7"
b10 9#
b10 [#
b101 J
b101 8"
b101 ]#
b101 C
b101 9"
b101 _#
b101 7#
b0 2
b0 A
b10000101 1
b10000101 @
#460000
0+
#470000
b0 M#
b1 N#
1O#
1P#
1I#
b10 G#
b11111111111111111111111111111111 S#
b10100 !$
b101 q#
b10100 T"
b1 P"
b101 ?"
b10011 q
b10100 h
b11000 3
1+
#471000
0>"
1<"
0A#
1@#
0h#
1f#
b11 P
b11 7"
b11 9#
b11 [#
b11000101 1
b11000101 @
#480000
0+
#490000
16#
b1 M#
1O#
1P#
b1 N#
1F#
b10 B#
b10 D#
b11111111111111111111111111111111 S#
1I#
b10 G#
b10101 h
b10100 q
b10101 T"
b10 P"
b101 O"
b10101 !$
b101 {#
b11001 3
1+
#491000
b110010 >#
b1 8#
1="
0<"
0@#
1g#
0f#
b0 P
b0 7"
b0 9#
b0 [#
b1100100 J
b1100100 8"
b1100100 ]#
b1100100 C
b1100100 9"
b1100100 _#
b100100 7#
b1 2
b1 A
b100100 1
b100100 @
#500000
0+
#510000
06#
b10 %
1'
1O#
b0 M#
1P#
b0 N#
b11111111111111111111111111111111 S#
0F#
b1111111 B#
b1111111 D#
0I#
b0 G#
b10 #
b10 D
b11111111 "
b11111111 v
1N
b10110 !$
b11110011111 x#
b111 y#
b10110 T"
b11 P"
b111 L"
b111 M"
b111 N"
b10101 q
b10110 h
b11010 3
1+
#511000
0="
1;"
0g#
1e#
b1 P
b1 7"
b1 9#
b1 [#
b1100100 1
b1100100 @
#520000
0+
#530000
b0 %
0'
b0 #
b0 D
b11110111 "
b11110111 v
b10111 h
b10110 q
b10111 T"
b0 P"
b101 E"
b110 R"
b10111 !$
b101 t#
b110 }#
0N
b11011 3
b101 7
1+
#531000
b10 >#
b0 8#
0;"
1>"
1A#
0e#
1h#
b10 P
b10 7"
b10 9#
b10 [#
b101 J
b101 8"
b101 ]#
b101 C
b101 9"
b101 _#
b101 7#
b0 2
b0 A
b10000101 1
b10000101 @
#540000
0+
