nanotrade.vcd
$date
	Thu Feb 19 17:13:33 2026
$end
$version
	Icarus Verilog
$end
$timescale
	1ps
$end
$scope module tb_nanotrade $end
$var wire 8 ! uio_oe [7:0] $end
$var wire 8 " uo_out [7:0] $end
$var wire 8 # uio_out [7:0] $end
$var wire 1 $ ml_valid_out $end
$var wire 4 % ml_conf_nibble [3:0] $end
$var wire 3 & ml_class_out [2:0] $end
$var wire 1 ' match_valid $end
$var wire 3 ( alert_type [2:0] $end
$var wire 3 ) alert_priority [2:0] $end
$var wire 1 * alert_flag $end
$var reg 1 + clk $end
$var reg 1 , ena $end
$var reg 1 - prev_alert $end
$var reg 3 . prev_prio [2:0] $end
$var reg 3 / prev_type [2:0] $end
$var reg 1 0 rst_n $end
$var reg 8 1 ui_in [7:0] $end
$var reg 8 2 uio_in [7:0] $end
$var integer 32 3 cycle_count [31:0] $end
$var integer 32 4 flash_crashes [31:0] $end
$var integer 32 5 ml_inferences [31:0] $end
$var integer 32 6 total_alerts [31:0] $end
$var integer 32 7 total_matches [31:0] $end
$scope function alert_name_full $end
$var reg 3 8 t [2:0] $end
$upscope $end
$scope function conf_bar $end
$var reg 4 9 c [3:0] $end
$upscope $end
$scope function ml_class_name $end
$var reg 3 : c [2:0] $end
$upscope $end
$scope function prio_bar $end
$var reg 3 ; p [2:0] $end
$upscope $end
$scope module dut $end
$var wire 1 + clk $end
$var wire 1 < comb_alert $end
$var wire 1 = config_strobe $end
$var wire 1 , ena $end
$var wire 1 0 rst_n $end
$var wire 1 > uart_trigger $end
$var wire 8 ? ui_in [7:0] $end
$var wire 8 @ uio_in [7:0] $end
$var wire 8 A uio_oe [7:0] $end
$var wire 12 B vol_data [11:0] $end
$var wire 8 C uio_out [7:0] $end
$var wire 8 D uart_payload [7:0] $end
$var wire 3 E rule_alert_type [2:0] $end
$var wire 3 F rule_alert_priority [2:0] $end
$var wire 8 G rule_alert_bitmap [7:0] $end
$var wire 1 H rule_alert_any $end
$var wire 12 I price_data [11:0] $end
$var wire 1 J ml_valid $end
$var wire 8 K ml_confidence [7:0] $end
$var wire 3 L ml_class [2:0] $end
$var wire 1 M match_valid $end
$var wire 8 N match_price [7:0] $end
$var wire 2 O input_type [1:0] $end
$var wire 128 P features [127:0] $end
$var wire 1 Q feature_valid $end
$var wire 3 R comb_type [2:0] $end
$var wire 3 S comb_priority [2:0] $end
$var wire 2 T cb_state [1:0] $end
$var wire 1 U cb_active $end
$var wire 1 V _unused $end
$var wire 12 W SPIKE_THRESH [11:0] $end
$var wire 12 X FLASH_THRESH [11:0] $end
$var parameter 32 Y BAUD_DIV $end
$var parameter 32 Z CLK_HZ $end
$var parameter 32 [ HB_DIV $end
$var reg 1 \ cb_load_r $end
$var reg 2 ] cb_mode_cmd [1:0] $end
$var reg 2 ^ cb_mode_next [1:0] $end
$var reg 8 _ cb_param_cmd [7:0] $end
$var reg 8 ` cb_param_next [7:0] $end
$var reg 25 a hb_cnt [24:0] $end
$var reg 1 b hb_led $end
$var reg 1 c ml_anomaly_held $end
$var reg 3 d ml_class_held [2:0] $end
$var reg 8 e ml_conf_held [7:0] $end
$var reg 3 f ml_prio_held [2:0] $end
$var reg 1 g prev_alert_r $end
$var reg 2 h thresh_sel [1:0] $end
$var reg 10 i uart_bit_cnt [9:0] $end
$var reg 4 j uart_bits [3:0] $end
$var reg 1 k uart_busy $end
$var reg 10 l uart_shift [9:0] $end
$var reg 1 m uart_tx $end
$var reg 8 n uo_out [7:0] $end
$scope module u_feat_extractor $end
$var wire 1 + clk $end
$var wire 2 o input_type [1:0] $end
$var wire 12 p price_data [11:0] $end
$var wire 1 0 rst_n $end
$var wire 12 q volume_data [11:0] $end
$var wire 1 M match_valid $end
$var wire 8 r match_price [7:0] $end
$var wire 1 s is_volume $end
$var wire 1 t is_sell $end
$var wire 1 u is_price $end
$var wire 1 v is_buy $end
$var reg 8 w buy_count [7:0] $end
$var reg 12 x cur_price [11:0] $end
$var reg 12 y cur_vol [11:0] $end
$var reg 1 Q feature_valid $end
$var reg 128 z features [127:0] $end
$var reg 12 { local_avg [11:0] $end
$var reg 12 | local_delta [11:0] $end
$var reg 8 } match_count [7:0] $end
$var reg 8 ~ match_rate [7:0] $end
$var reg 12 !" price_avg [11:0] $end
$var reg 12 "" price_mad [11:0] $end
$var reg 12 #" price_prev1 [11:0] $end
$var reg 12 $" price_prev2 [11:0] $end
$var reg 15 %" price_sum8 [14:0] $end
$var reg 6 &" ptr_l [5:0] $end
$var reg 5 '" ptr_m [4:0] $end
$var reg 3 (" ptr_s [2:0] $end
$var reg 8 )" sell_count [7:0] $end
$var reg 16 *" trade_timer [15:0] $end
$var reg 12 +" vol_avg [11:0] $end
$var reg 3 ," vol_ptr [2:0] $end
$var reg 15 -" vol_sum8 [14:0] $end
$var reg 8 ." window_cnt [7:0] $end
$var integer 32 /" i [31:0] $end
$scope function clip8 $end
$var reg 12 0" x [11:0] $end
$upscope $end
$scope function clip8_16 $end
$var reg 16 1" x [15:0] $end
$upscope $end
$scope function imbalance_byte $end
$var reg 8 2" buys [7:0] $end
$var reg 16 3" num [15:0] $end
$var reg 8 4" sells [7:0] $end
$var reg 16 5" total [15:0] $end
$upscope $end
$scope function momentum_byte $end
$var reg 13 6" d1 [12:0] $end
$var reg 13 7" d2 [12:0] $end
$var reg 13 8" mom [12:0] $end
$var reg 12 9" p0 [11:0] $end
$var reg 12 :" p1 [11:0] $end
$var reg 12 ;" p2 [11:0] $end
$upscope $end
$scope function price_delta $end
$var reg 12 <" a [11:0] $end
$var reg 12 =" b [11:0] $end
$var reg 12 >" d [11:0] $end
$upscope $end
$scope function spread_byte $end
$var reg 8 ?" asks [7:0] $end
$var reg 8 @" bids [7:0] $end
$upscope $end
$scope function vol_ratio_byte $end
$var reg 12 A" avg [11:0] $end
$var reg 12 B" cur [11:0] $end
$var reg 20 C" num [19:0] $end
$upscope $end
$upscope $end
$scope module u_ml_engine $end
$var wire 1 + clk $end
$var wire 1 Q feature_valid $end
$var wire 128 D" features [127:0] $end
$var wire 1 0 rst_n $end
$var reg 32 E" acc2_tmp [31:0] $end
$var reg 3 F" best_class [2:0] $end
$var reg 32 G" gap [31:0] $end
$var reg 32 H" max_logit [31:0] $end
$var reg 32 I" min_logit [31:0] $end
$var reg 3 J" ml_class [2:0] $end
$var reg 8 K" ml_confidence [7:0] $end
$var reg 1 J ml_valid $end
$var reg 1 L" s0_valid $end
$var reg 1 M" s1_valid $end
$var reg 1 N" s2_valid $end
$var integer 32 O" h1 [31:0] $end
$var integer 32 P" h2 [31:0] $end
$var integer 32 Q" i1 [31:0] $end
$var integer 32 R" j3 [31:0] $end
$var integer 32 S" k [31:0] $end
$var integer 32 T" o2 [31:0] $end
$scope function rom_b1 $end
$var reg 2 U" addr [1:0] $end
$upscope $end
$scope function rom_b2 $end
$var reg 3 V" addr [2:0] $end
$upscope $end
$scope function rom_w1 $end
$var reg 6 W" addr [5:0] $end
$upscope $end
$scope function rom_w2 $end
$var reg 5 X" addr [4:0] $end
$upscope $end
$scope begin unpack[0] $end
$var parameter 2 Y" gi $end
$upscope $end
$scope begin unpack[1] $end
$var parameter 2 Z" gi $end
$upscope $end
$scope begin unpack[2] $end
$var parameter 3 [" gi $end
$upscope $end
$scope begin unpack[3] $end
$var parameter 3 \" gi $end
$upscope $end
$scope begin unpack[4] $end
$var parameter 4 ]" gi $end
$upscope $end
$scope begin unpack[5] $end
$var parameter 4 ^" gi $end
$upscope $end
$scope begin unpack[6] $end
$var parameter 4 _" gi $end
$upscope $end
$scope begin unpack[7] $end
$var parameter 4 `" gi $end
$upscope $end
$scope begin unpack[8] $end
$var parameter 5 a" gi $end
$upscope $end
$scope begin unpack[9] $end
$var parameter 5 b" gi $end
$upscope $end
$scope begin unpack[10] $end
$var parameter 5 c" gi $end
$upscope $end
$scope begin unpack[11] $end
$var parameter 5 d" gi $end
$upscope $end
$scope begin unpack[12] $end
$var parameter 5 e" gi $end
$upscope $end
$scope begin unpack[13] $end
$var parameter 5 f" gi $end
$upscope $end
$scope begin unpack[14] $end
$var parameter 5 g" gi $end
$upscope $end
$scope begin unpack[15] $end
$var parameter 5 h" gi $end
$upscope $end
$upscope $end
$scope module u_order_book $end
$var wire 1 \ cb_load $end
$var wire 2 i" cb_mode [1:0] $end
$var wire 8 j" cb_param [7:0] $end
$var wire 2 k" cb_state [1:0] $end
$var wire 1 + clk $end
$var wire 1 l" crossing $end
$var wire 6 m" data_in [5:0] $end
$var wire 6 n" ext_data [5:0] $end
$var wire 2 o" input_type [1:0] $end
$var wire 1 0 rst_n $end
$var wire 4 p" throttle_div [3:0] $end
$var wire 1 q" throttle_allow $end
$var wire 3 r" spread_guard [2:0] $end
$var wire 1 s" order_gate $end
$var wire 7 t" new_price [6:0] $end
$var wire 1 u" match_gate $end
$var wire 1 v" is_sell $end
$var wire 1 w" is_buy $end
$var wire 7 x" cross_threshold [6:0] $end
$var wire 1 U cb_active $end
$var wire 3 y" active_guard [2:0] $end
$var reg 7 z" best_ask [6:0] $end
$var reg 2 {" best_ask_idx [1:0] $end
$var reg 1 |" best_ask_valid $end
$var reg 7 }" best_bid [6:0] $end
$var reg 2 ~" best_bid_idx [1:0] $end
$var reg 1 !# best_bid_valid $end
$var reg 9 "# cb_countdown [8:0] $end
$var reg 2 ## cb_mode_r [1:0] $end
$var reg 8 $# cb_param_r [7:0] $end
$var reg 2 %# empty_ask_slot [1:0] $end
$var reg 2 &# empty_bid_slot [1:0] $end
$var reg 1 '# has_empty_ask $end
$var reg 1 (# has_empty_bid $end
$var reg 8 )# match_price [7:0] $end
$var reg 1 M match_valid $end
$var reg 4 *# throttle_cnt [3:0] $end
$var integer 32 +# i [31:0] $end
$upscope $end
$scope module u_rule_detector $end
$var wire 1 + clk $end
$var wire 1 ,# det_flash $end
$var wire 1 -# det_imbalance $end
$var wire 1 .# det_spread $end
$var wire 1 /# det_vol_dry $end
$var wire 1 0# det_vol_surge $end
$var wire 1 1# det_volatility $end
$var wire 12 2# flash_thresh [11:0] $end
$var wire 2 3# input_type [1:0] $end
$var wire 8 4# match_price [7:0] $end
$var wire 1 M match_valid $end
$var wire 12 5# price_data [11:0] $end
$var wire 1 0 rst_n $end
$var wire 12 6# spike_thresh [11:0] $end
$var wire 12 7# volume_data [11:0] $end
$var wire 13 8# vol_surge_thresh [12:0] $end
$var wire 12 9# vol_dry_thresh [11:0] $end
$var wire 12 :# vol_deviation [11:0] $end
$var wire 12 ;# price_drop [11:0] $end
$var wire 12 <# price_delta [11:0] $end
$var wire 1 =# is_volume $end
$var wire 1 ># is_sell $end
$var wire 1 ?# is_price $end
$var wire 1 @# is_buy $end
$var wire 1 A# det_velocity $end
$var wire 1 B# det_spike $end
$var wire 3 C# alert_type [2:0] $end
$var wire 3 D# alert_priority [2:0] $end
$var wire 8 E# alert_bitmap [7:0] $end
$var wire 1 H alert_any $end
$var parameter 6 F# VELOCITY_THRESH $end
$var parameter 32 G# VOL_DRY_DIV $end
$var parameter 32 H# VOL_SURGE_MULT $end
$var reg 4 I# buy_order_count [3:0] $end
$var reg 12 J# current_price [11:0] $end
$var reg 12 K# current_volume [11:0] $end
$var reg 6 L# match_counter [5:0] $end
$var reg 6 M# match_rate [5:0] $end
$var reg 12 N# prev_price [11:0] $end
$var reg 12 O# price_avg [11:0] $end
$var reg 12 P# price_mad [11:0] $end
$var reg 3 Q# price_ptr [2:0] $end
$var reg 15 R# price_sum [14:0] $end
$var reg 4 S# sell_order_count [3:0] $end
$var reg 12 T# vol_avg [11:0] $end
$var reg 3 U# vol_ptr [2:0] $end
$var reg 15 V# vol_sum [14:0] $end
$var reg 8 W# window_timer [7:0] $end
$var integer 32 X# i [31:0] $end
$upscope $end
$upscope $end
$scope task idle $end
$var integer 32 Y# n [31:0] $end
$upscope $end
$scope task scenario_banner $end
$var reg 352 Z# title [351:0] $end
$var integer 32 [# num [31:0] $end
$upscope $end
$scope task send_buy $end
$var reg 6 \# qty [5:0] $end
$upscope $end
$scope task send_price $end
$var reg 12 ]# price [11:0] $end
$upscope $end
$scope task send_sell $end
$var reg 6 ^# qty [5:0] $end
$upscope $end
$scope task send_volume $end
$var reg 12 _# vol [11:0] $end
$upscope $end
$scope task set_threshold_preset $end
$var reg 2 `# preset [1:0] $end
$upscope $end
$upscope $end
$enddefinitions $end
$comment Show the parameter values. $end
$dumpall
b10 H#
b100 G#
b11110 F#
b1111 h"
b1110 g"
b1101 f"
b1100 e"
b1011 d"
b1010 c"
b1001 b"
b1000 a"
b111 `"
b110 _"
b101 ^"
b100 ]"
b11 \"
b10 ["
b1 Z"
b0 Y"
b1011111010111100001000000 [
b10111110101111000010000000 Z
b110110010 Y
$end
#0
$dumpvars
bx `#
bx _#
bx ^#
bx ]#
bx \#
bx [#
bx Z#
bx Y#
b1000 X#
b0 W#
b0 V#
b0 U#
b1100100 T#
b0 S#
b0 R#
b0 Q#
b101 P#
b1100100 O#
b1100100 N#
b0 M#
b0 L#
b0 K#
b1100100 J#
b0 I#
b10 E#
b1 D#
b1 C#
0B#
0A#
0@#
1?#
0>#
0=#
b0 <#
b0 ;#
b0 :#
b110 9#
b110010000 8#
b0 7#
b10100 6#
b0 5#
b0 4#
b0 3#
b101000 2#
01#
00#
1/#
0.#
0-#
0,#
b11111111111111111111111111111111 +#
b0 *#
b0 )#
1(#
1'#
b0 &#
b0 %#
b0 $#
b0 ##
b0 "#
0!#
b0 ~"
b0 }"
0|"
b0 {"
b1111111 z"
b0 y"
b1111111 x"
0w"
0v"
1u"
b0 t"
1s"
b0 r"
1q"
b0 p"
b0 o"
b0 n"
b0 m"
0l"
b0 k"
b0 j"
b0 i"
bx X"
bx W"
bx V"
bx U"
bx T"
b10000 S"
bx R"
bx Q"
bx P"
bx O"
0N"
0M"
0L"
b0 K"
b0 J"
bx I"
bx H"
bx G"
bx F"
bx E"
bx D"
bx C"
bx B"
bx A"
bx @"
bx ?"
bx >"
bx ="
bx <"
bx ;"
bx :"
bx 9"
bx 8"
bx 7"
bx 6"
bx 5"
bx 4"
bx 3"
bx 2"
bx 1"
bx 0"
b1000 /"
b0 ."
b1100100000 -"
b0 ,"
b1100100 +"
b0 *"
b0 )"
b0 ("
b0 '"
b0 &"
b1100100000 %"
b1100100 $"
b1100100 #"
b101 ""
b1100100 !"
b0 ~
b0 }
bx |
bx {
bx z
b1100100 y
b1100100 x
b0 w
0v
1u
0t
0s
b0 r
b0 q
b0 p
b0 o
b10010001 n
1m
b1111111111 l
0k
b0 j
b0 i
b1 h
0g
b0 f
b0 e
b0 d
0c
0b
b0 a
b0 `
b0 _
b0 ^
b0 ]
0\
b101000 X
b10100 W
0V
0U
b0 T
b1 S
b1 R
0Q
bx P
b0 O
b0 N
0M
b0 L
b0 K
0J
b0 I
1H
b10 G
b1 F
b1 E
b100100 D
b0 C
b0 B
b11111111 A
b0 @
b0 ?
1>
0=
1<
bx ;
bx :
bx 9
bx 8
b0 7
b0 6
b0 5
b0 4
b0 3
b0 2
b0 1
00
b0 /
b0 .
0-
1,
0+
1*
b1 )
b1 (
0'
b0 &
b0 %
0$
b0 #
b10010001 "
b11111111 !
$end
#10000
b1 /
b1 .
1-
b110 S"
b1000 /"
b1000 X#
b100 +#
b1 3
b1 ;
b1 8
b1 6
1+
#20000
0+
#30000
b100 +#
b1000 X#
b1000 /"
b10000 S"
b10 3
1+
#40000
0+
#50000
b110 S"
b1000 /"
b1000 X#
b100 +#
b11 3
1+
#60000
0+
#70000
b100 +#
b1000 X#
b1000 /"
b10000 S"
b100 3
1+
#80000
0+
#90000
b110 (
b110 )
b11100110 "
b11100110 n
b110 S
b11011000 D
b110 R
b110 F
b110 D#
b110 E
b110 C#
11#
0>
b1010100 :#
b1000011 G
b1000011 E#
1B#
b1100100 <#
b1 a
0m
1k
b1001001000 l
1g
b1 ."
b1 *"
b10000 ""
b1 &"
b1 '"
b1 ("
b1010111100 %"
b0 x
b1 W#
b10000 P#
b0 O#
b1 Q#
b111111110011100 R#
b0 J#
b1100100 |
b1100100 {
b101 3
10
1+
#91000
b110010 t"
b1 n"
b1100100 I
b1100100 p
b1100100 5#
b1100100 B
b1100100 q
b1100100 7#
b100100 m"
b1 2
b1 @
b100100 1
b100100 ?
b1100100 ]#
b1 [#
b1001110011011110111001001101101011000010110110000100000010011010110000101110010011010110110010101110100001000000101011101100001011100100110110100101101011101010111000000100000001000000010100001110000011100100110100101100011011001010011110100110001001100000011000000101001 Z#
#100000
0+
#110000
b111 (
b111 )
b11110111 "
b11110111 n
b111 S
b11111100 D
b111 R
b111 F
b111 D#
b111 E
b111 C#
01#
b10000011 G
b10000011 E#
1,#
b1001010 :#
b111110001111 ;#
b10 W#
b11010 P#
b111111110011 O#
b10 Q#
b1100100 J#
b0 N#
b10 ."
b10 *"
b1111 ""
b10 &"
b10 '"
b1010111 !"
b10 ("
b1100100 x
b0 #"
b1 i
b10 a
b110 /
b110 .
b1101 |
b1010111 {
b110 ;
b110 8
b10 6
b110 3
1+
#111000
0u
1s
0?#
1=#
b1 O
b1 o
b1 o"
b1 3#
b1100100 1
b1100100 ?
b1100100 _#
#120000
0+
#130000
b0 8#
b0 9#
b10000001 G
b10000001 E#
0/#
b11 a
b10 i
b11 ."
b11 *"
b1 ,"
b11 W#
b0 T#
b1 U#
b1100100 K#
b111 /
b111 .
b111 3
b111 ;
b111 8
b1 4
b11 6
1+
#131000
b10 t"
b0 n"
0s
1v
1w"
0=#
1@#
b10 O
b10 o
b10 o"
b10 3#
b101 I
b101 p
b101 5#
b101 B
b101 q
b101 7#
b101 m"
b0 2
b0 @
b10000101 1
b10000101 ?
b101 \#
#140000
0+
#150000
b0 %#
b1 &#
1'#
1(#
1!#
b10 }"
b11111111111111111111111111111111 +#
b100 W#
b1 I#
b100 ."
b100 *"
b1 w
b11 i
b100 a
b1000 3
1+
#151000
0v
1t
0w"
1v"
0@#
1>#
b11 O
b11 o
b11 o"
b11 3#
b11000101 1
b11000101 ?
b101 ^#
#160000
0+
#170000
1l"
b1 %#
1'#
1(#
b1 &#
1|"
b10 x"
b10 z"
b11111111111111111111111111111111 +#
1!#
b10 }"
b101 a
b100 i
b101 ."
b101 *"
b1 )"
b101 W#
b1 S#
b1001 3
1+
#171000
b110010 t"
b1 n"
1u
0t
0v"
1?#
0>#
b0 O
b0 o
b0 o"
b0 3#
b1100100 I
b1100100 p
b1100100 5#
b1100100 B
b1100100 q
b1100100 7#
b100100 m"
b1 2
b1 @
b100100 1
b100100 ?
#180000
0+
#190000
0l"
b10 %
1'
1'#
b0 %#
1(#
b0 &#
b11111111111111111111111111111111 +#
0|"
b1111111 x"
b1111111 z"
0!#
b0 }"
b10 #
b10 C
b11111111 "
b11111111 n
b0 :#
b10000000 G
b10000000 E#
0B#
b0 <#
b10 N
b10 r
b10 )#
b10 4#
1M
b110 W#
b1000001000 P#
b11 Q#
b1100100 N#
b110 ."
b110 *"
b1110 ""
b11 &"
b11 '"
b11 ("
b1100100 #"
b0 $"
b101 i
b110 a
b1010 3
1+
#191000
0u
1s
0?#
1=#
b1 O
b1 o
b1 o"
b1 3#
b1100100 1
b1100100 ?
#200000
0+
#210000
b0 %
0'
b0 #
b0 C
b11110111 "
b11110111 n
b111 a
b110 i
b111 ."
b0 *"
b1 }
b10 ,"
b111 W#
b1 L#
b10 U#
0M
b1011 3
b1 7
1+
#211000
b10 t"
b0 n"
0s
1v
1w"
0=#
1@#
b10 O
b10 o
b10 o"
b10 3#
b101 I
b101 p
b101 5#
b101 B
b101 q
b101 7#
b101 m"
b0 2
b0 @
b10000101 1
b10000101 ?
#220000
0+
#230000
b0 %#
b1 &#
1'#
1(#
1!#
b10 }"
b11111111111111111111111111111111 +#
b1000 W#
b10 I#
b1000 ."
b1 *"
b10 w
b111 i
b1000 a
b1100 3
1+
#231000
0v
1t
0w"
1v"
0@#
1>#
b11 O
b11 o
b11 o"
b11 3#
b11000101 1
b11000101 ?
#240000
0+
#250000
1l"
b1 %#
1'#
1(#
b1 &#
1|"
b10 x"
b10 z"
b11111111111111111111111111111111 +#
1!#
b10 }"
b1001 a
b1000 i
b1001 ."
b10 *"
b10 )"
b1001 W#
b10 S#
b1101 3
1+
#251000
b110010 t"
b1 n"
1u
0t
0v"
1?#
0>#
b0 O
b0 o
b0 o"
b0 3#
b1100100 I
b1100100 p
b1100100 5#
b1100100 B
b1100100 q
b1100100 7#
b100100 m"
b1 2
b1 @
b100100 1
b100100 ?
#260000
0+
#270000
0l"
b10 %
1'
1'#
b0 %#
1(#
b0 &#
b11111111111111111111111111111111 +#
0|"
b1111111 x"
b1111111 z"
0!#
b0 }"
b10 #
b10 C
b11111111 "
b11111111 n
1M
b1010 W#
b1110111000 P#
b100 Q#
b1010 ."
b11 *"
b1101 ""
b100 &"
b100 '"
b100 ("
b1100100 $"
b1001 i
b1010 a
b1110 3
1+
#271000
0u
1s
0?#
1=#
b1 O
b1 o
b1 o"
b1 3#
b1100100 1
b1100100 ?
#280000
0+
#290000
b0 %
0'
b0 #
b0 C
b11110111 "
b11110111 n
b1011 a
b1010 i
b1011 ."
b0 *"
b10 }
b11 ,"
b1011 W#
b10 L#
b11 U#
0M
b1111 3
b10 7
1+
#291000
b10 t"
b0 n"
0s
1v
1w"
0=#
1@#
b10 O
b10 o
b10 o"
b10 3#
b101 I
b101 p
b101 5#
b101 B
b101 q
b101 7#
b101 m"
b0 2
b0 @
b10000101 1
b10000101 ?
#300000
0+
#310000
b0 %#
b1 &#
1'#
1(#
1!#
b10 }"
b11111111111111111111111111111111 +#
b1100 W#
b11 I#
b1100 ."
b1 *"
b11 w
b1011 i
b1100 a
b10000 3
1+
#311000
0v
1t
0w"
1v"
0@#
1>#
b11 O
b11 o
b11 o"
b11 3#
b11000101 1
b11000101 ?
#320000
0+
#330000
1l"
b1 %#
1'#
1(#
b1 &#
1|"
b10 x"
b10 z"
b11111111111111111111111111111111 +#
1!#
b10 }"
b1101 a
b1100 i
b1101 ."
b10 *"
b11 )"
b1101 W#
b11 S#
b10001 3
1+
#331000
b110010 t"
b1 n"
1u
0t
0v"
1?#
0>#
b0 O
b0 o
b0 o"
b0 3#
b1100100 I
b1100100 p
b1100100 5#
b1100100 B
b1100100 q
b1100100 7#
b100100 m"
b1 2
b1 @
b100100 1
b100100 ?
#340000
0+
#350000
0l"
b10 %
1'
1'#
b0 %#
1(#
b0 &#
b11111111111111111111111111111111 +#
0|"
b1111111 x"
b1111111 z"
0!#
b0 }"
b10 #
b10 C
b11111111 "
b11111111 n
1M
b1110 W#
b10100110010 P#
b101 Q#
b1110 ."
b11 *"
b101 &"
b101 '"
b101 ("
b1101 i
b1110 a
b10010 3
1+
#351000
0u
1s
0?#
1=#
b1 O
b1 o
b1 o"
b1 3#
b1100100 1
b1100100 ?
#360000
0+
#370000
b0 %
0'
b0 #
b0 C
b11110111 "
b11110111 n
b1111 a
b1110 i
b1111 ."
b0 *"
b11 }
b100 ,"
b1111 W#
b11 L#
b100 U#
0M
b10011 3
b11 7
1+
#371000
b10 t"
b0 n"
0s
1v
1w"
0=#
1@#
b10 O
b10 o
b10 o"
b10 3#
b101 I
b101 p
b101 5#
b101 B
b101 q
b101 7#
b101 m"
b0 2
b0 @
b10000101 1
b10000101 ?
#380000
0+
#390000
b10010000 G
b10010000 E#
1-#
b0 %#
b1 &#
1'#
1(#
1!#
b10 }"
b11111111111111111111111111111111 +#
b10000 W#
b100 I#
b10000 ."
b1 *"
b100 w
b1111 i
b10000 a
b10100 3
1+
#391000
0v
1t
0w"
1v"
0@#
1>#
b11 O
b11 o
b11 o"
b11 3#
b11000101 1
b11000101 ?
#400000
0+
#410000
1l"
b1 %#
1'#
1(#
b1 &#
1|"
b10 x"
b10 z"
b11111111111111111111111111111111 +#
1!#
b10 }"
b10001 a
b10000 i
b10001 ."
b10 *"
b100 )"
b10001 W#
b100 S#
b10101 3
1+
#411000
b110010 t"
b1 n"
1u
0t
0v"
1?#
0>#
b0 O
b0 o
b0 o"
b0 3#
b1100100 I
b1100100 p
b1100100 5#
b1100100 B
b1100100 q
b1100100 7#
b100100 m"
b1 2
b1 @
b100100 1
b100100 ?
#420000
0+
#430000
0l"
b10 %
1'
1'#
b0 %#
1(#
b0 &#
b11111111111111111111111111111111 +#
0|"
b1111111 x"
b1111111 z"
0!#
b0 }"
b10 #
b10 C
b11111111 "
b11111111 n
1M
b10010 W#
b11001111101 P#
b110 Q#
b10010 ."
b11 *"
b110 &"
b110 '"
b110 ("
b10001 i
b10010 a
b10110 3
1+
#431000
0u
1s
0?#
1=#
b1 O
b1 o
b1 o"
b1 3#
b1100100 1
b1100100 ?
#440000
0+
#450000
b0 %
0'
b0 #
b0 C
b11110111 "
b11110111 n
b10011 a
b10010 i
b10011 ."
b0 *"
b100 }
b101 ,"
b10011 W#
b100 L#
b101 U#
0M
b10111 3
b100 7
1+
#451000
b10 t"
b0 n"
0s
1v
1w"
0=#
1@#
b10 O
b10 o
b10 o"
b10 3#
b101 I
b101 p
b101 5#
b101 B
b101 q
b101 7#
b101 m"
b0 2
b0 @
b10000101 1
b10000101 ?
#460000
0+
#470000
b0 %#
b1 &#
1'#
1(#
1!#
b10 }"
b11111111111111111111111111111111 +#
b10100 W#
b101 I#
b10100 ."
b1 *"
b101 w
b10011 i
b10100 a
b11000 3
1+
#471000
0v
1t
0w"
1v"
0@#
1>#
b11 O
b11 o
b11 o"
b11 3#
b11000101 1
b11000101 ?
#480000
0+
#490000
1l"
b1 %#
1'#
1(#
b1 &#
1|"
b10 x"
b10 z"
b11111111111111111111111111111111 +#
1!#
b10 }"
b10101 a
b10100 i
b10101 ."
b10 *"
b101 )"
b10101 W#
b101 S#
b11001 3
1+
#491000
b110010 t"
b1 n"
1u
0t
0v"
1?#
0>#
b0 O
b0 o
b0 o"
b0 3#
b1100100 I
b1100100 p
b1100100 5#
b1100100 B
b1100100 q
b1100100 7#
b100100 m"
b1 2
b1 @
b100100 1
b100100 ?
#500000
0+
#510000
0l"
b10 %
1'
1'#
b0 %#
1(#
b0 &#
b11111111111111111111111111111111 +#
0|"
b1111111 x"
b1111111 z"
0!#
b0 }"
b10 #
b10 C
b11111111 "
b11111111 n
1M
b10110 W#
b11110011111 P#
b111 Q#
b10110 ."
b11 *"
b111 &"
b111 '"
b111 ("
b10101 i
b10110 a
b11010 3
1+
#511000
0u
1s
0?#
1=#
b1 O
b1 o
b1 o"
b1 3#
b1100100 1
b1100100 ?
#520000
0+
#530000
b0 %
0'
b0 #
b0 C
b11110111 "
b11110111 n
b10111 a
b10110 i
b10111 ."
b0 *"
b101 }
b110 ,"
b10111 W#
b101 L#
b110 U#
0M
b11011 3
b101 7
1+
#531000
b10 t"
b0 n"
0s
1v
1w"
0=#
1@#
b10 O
b10 o
b10 o"
b10 3#
b101 I
b101 p
b101 5#
b101 B
b101 q
b101 7#
b101 m"
b0 2
b0 @
b10000101 1
b10000101 ?
#540000
0+
#550000
b0 %#
b1 &#
1'#
1(#
1!#
b10 }"
b11111111111111111111111111111111 +#
b11000 W#
b110 I#
b11000 ."
b1 *"
b110 w
b10111 i
b11000 a
b11100 3
1+
#551000
0v
1t
0w"
1v"
0@#
1>#
b11 O
b11 o
b11 o"
b11 3#
b11000101 1
b11000101 ?
#560000
0+
#570000
b10000000 G
b10000000 E#
0-#
1l"
b1 %#
1'#
1(#
b1 &#
1|"
b10 x"
b10 z"
b11111111111111111111111111111111 +#
1!#
b10 }"
b11001 a
b11000 i
b11001 ."
b10 *"
b110 )"
b11001 W#
b110 S#
b11101 3
1+
#571000
b110010 t"
b1 n"
1u
0t
0v"
1?#
0>#
b0 O
b0 o
b0 o"
b0 3#
b1100100 I
b1100100 p
b1100100 5#
b1100100 B
b1100100 q
b1100100 7#
b100100 m"
b1 2
b1 @
b100100 1
b100100 ?
#580000
0+
#590000
0l"
b10 %
1'
1'#
b0 %#
1(#
b0 &#
b11111111111111111111111111111111 +#
0|"
b1111111 x"
b1111111 z"
0!#
b0 }"
b10 #
b10 C
b11111111 "
b11111111 n
1M
b11010 W#
b100010011101 P#
b0 Q#
b11010 ."
b11 *"
b1000 &"
b1000 '"
b0 ("
b11001 i
b11010 a
b11110 3
1+
#591000
0u
1s
0?#
1=#
b1 O
b1 o
b1 o"
b1 3#
b1100100 1
b1100100 ?
#600000
0+
#610000
b0 %
0'
b0 #
b0 C
b11110111 "
b11110111 n
b11011 a
b11010 i
b11011 ."
b0 *"
b110 }
b111 ,"
b11011 W#
b110 L#
b111 U#
0M
b11111 3
b110 7
1+
#611000
b10 t"
b0 n"
0s
1v
1w"
0=#
1@#
b10 O
b10 o
b10 o"
b10 3#
b101 I
b101 p
b101 5#
b101 B
b101 q
b101 7#
b101 m"
b0 2
b0 @
b10000101 1
b10000101 ?
#620000
0+
#630000
b0 %#
b1 &#
1'#
1(#
1!#
b10 }"
b11111111111111111111111111111111 +#
b11100 W#
b111 I#
b11100 ."
b1 *"
b111 w
b11011 i
b11100 a
b100000 3
1+
#631000
0v
1t
0w"
1v"
0@#
1>#
b11 O
b11 o
b11 o"
b11 3#
b11000101 1
b11000101 ?
#640000
0+
#650000
1l"
b1 %#
1'#
1(#
b1 &#
1|"
b10 x"
b10 z"
b11111111111111111111111111111111 +#
1!#
b10 }"
b11101 a
b11100 i
b11101 ."
b10 *"
b111 )"
b11101 W#
b111 S#
b100001 3
1+
#651000
b110010 t"
b1 n"
1u
0t
0v"
1?#
0>#
b0 O
b0 o
b0 o"
b0 3#
b1100100 I
b1100100 p
b1100100 5#
b1100100 B
b1100100 q
b1100100 7#
b100100 m"
b1 2
b1 @
b100100 1
b100100 ?
#660000
0+
