quiet_2019.vcd
$date
	Thu Feb 19 22:00:27 2026
$end
$version
	Icarus Verilog
$end
$timescale
	1ps
$end
$scope module tb_quiet_2019 $end
$var wire 8 ! uio_oe [7:0] $end
$var wire 8 " uo_out [7:0] $end
$var wire 8 # uio_out [7:0] $end
$var wire 1 $ ml_valid_out $end
$var wire 4 % ml_conf_nibble [3:0] $end
$var wire 3 & ml_class_out [2:0] $end
$var wire 1 ' match_valid $end
$var wire 3 ( alert_type [2:0] $end
$var wire 3 ) alert_priority [2:0] $end
$var wire 1 * alert_flag $end
$var reg 1 + clk $end
$var reg 1 , ena $end
$var reg 2 - market_phase [1:0] $end
$var reg 1 . prev_alert $end
$var reg 3 / prev_type [2:0] $end
$var reg 1 0 rst_n $end
$var reg 8 1 ui_in [7:0] $end
$var reg 8 2 uio_in [7:0] $end
$var integer 32 3 alerts_fired [31:0] $end
$var integer 32 4 cycle_count [31:0] $end
$var integer 32 5 false_positives [31:0] $end
$var integer 32 6 matches_made [31:0] $end
$var integer 32 7 ml_results [31:0] $end
$scope module dut $end
$var wire 1 8 cb_load_final $end
$var wire 1 + clk $end
$var wire 1 9 comb_alert $end
$var wire 1 : config_strobe $end
$var wire 1 , ena $end
$var wire 1 0 rst_n $end
$var wire 1 ; uart_trigger $end
$var wire 8 < ui_in [7:0] $end
$var wire 8 = uio_in [7:0] $end
$var wire 8 > uio_oe [7:0] $end
$var wire 12 ? vol_data [11:0] $end
$var wire 8 @ uio_out [7:0] $end
$var wire 8 A uart_payload [7:0] $end
$var wire 3 B rule_alert_type [2:0] $end
$var wire 3 C rule_alert_priority [2:0] $end
$var wire 8 D rule_alert_bitmap [7:0] $end
$var wire 1 E rule_alert_any $end
$var wire 12 F price_data [11:0] $end
$var wire 1 G ml_valid $end
$var wire 8 H ml_confidence [7:0] $end
$var wire 3 I ml_class [2:0] $end
$var wire 1 J match_valid $end
$var wire 8 K match_price [7:0] $end
$var wire 2 L input_type [1:0] $end
$var wire 128 M features [127:0] $end
$var wire 1 N feature_valid $end
$var wire 3 O comb_type [2:0] $end
$var wire 3 P comb_priority [2:0] $end
$var wire 2 Q cb_state [1:0] $end
$var wire 8 R cb_param_final [7:0] $end
$var wire 2 S cb_mode_final [1:0] $end
$var wire 1 T cb_active $end
$var wire 2 U cascade_type [1:0] $end
$var wire 8 V cascade_cb_param [7:0] $end
$var wire 1 W cascade_cb_load $end
$var wire 1 X cascade_alert $end
$var wire 1 Y _unused $end
$var wire 12 Z SPIKE_THRESH [11:0] $end
$var wire 12 [ FLASH_THRESH [11:0] $end
$var parameter 32 \ BAUD_DIV $end
$var parameter 32 ] CLK_HZ $end
$var parameter 32 ^ HB_DIV $end
$var reg 1 _ cb_load_r $end
$var reg 2 ` cb_mode_cmd [1:0] $end
$var reg 2 a cb_mode_next [1:0] $end
$var reg 8 b cb_param_cmd [7:0] $end
$var reg 8 c cb_param_next [7:0] $end
$var reg 25 d hb_cnt [24:0] $end
$var reg 1 e hb_led $end
$var reg 1 f ml_anomaly_held $end
$var reg 3 g ml_class_held [2:0] $end
$var reg 8 h ml_conf_held [7:0] $end
$var reg 3 i ml_prio_held [2:0] $end
$var reg 1 j ml_valid_d $end
$var reg 1 k prev_alert_r $end
$var reg 2 l thresh_sel [1:0] $end
$var reg 10 m uart_bit_cnt [9:0] $end
$var reg 4 n uart_bits [3:0] $end
$var reg 1 o uart_busy $end
$var reg 10 p uart_shift [9:0] $end
$var reg 1 q uart_tx $end
$var reg 8 r uo_out [7:0] $end
$scope module u_cascade $end
$var wire 1 s cascade_fire $end
$var wire 1 + clk $end
$var wire 1 t event_any $end
$var wire 1 u is_spike_crash $end
$var wire 1 v is_stuff_crash $end
$var wire 1 w is_triple $end
$var wire 1 x is_vol_crash $end
$var wire 1 y ml_evt $end
$var wire 1 z new_is_flash $end
$var wire 1 0 rst_n $end
$var wire 1 { rule_evt $end
$var wire 1 | test_flush $end
$var wire 3 } rule_alert_type [2:0] $end
$var wire 1 E rule_alert_any $end
$var wire 1 G ml_valid $end
$var wire 8 ~ ml_confidence [7:0] $end
$var wire 3 !" ml_class [2:0] $end
$var wire 3 "" h2_next [2:0] $end
$var wire 3 #" h1_next [2:0] $end
$var wire 3 $" h0_next [2:0] $end
$var wire 3 %" event_code [2:0] $end
$var wire 9 &" conf_x2_wide [8:0] $end
$var wire 8 '" conf_x2_sat [7:0] $end
$var wire 2 (" cascade_type_next [1:0] $end
$var parameter 32 )" CASCADE_HOLD $end
$var parameter 32 *" CASCADE_WINDOW $end
$var parameter 2 +" CT_SPIKE_CRASH $end
$var parameter 2 ," CT_STUFF_CRASH $end
$var parameter 2 -" CT_TRIPLE $end
$var parameter 2 ." CT_VOL_CRASH $end
$var reg 7 /" age_cnt [6:0] $end
$var reg 1 X cascade_alert $end
$var reg 1 W cascade_cb_load $end
$var reg 8 0" cascade_cb_param [7:0] $end
$var reg 2 1" cascade_type [1:0] $end
$var reg 6 2" hold_cnt [5:0] $end
$upscope $end
$scope module u_feat_extractor $end
$var wire 1 + clk $end
$var wire 2 3" input_type [1:0] $end
$var wire 12 4" price_data [11:0] $end
$var wire 1 0 rst_n $end
$var wire 12 5" volume_data [11:0] $end
$var wire 1 J match_valid $end
$var wire 8 6" match_price [7:0] $end
$var wire 1 7" is_volume $end
$var wire 1 8" is_sell $end
$var wire 1 9" is_price $end
$var wire 1 :" is_buy $end
$var reg 8 ;" buy_count [7:0] $end
$var reg 12 <" cur_price [11:0] $end
$var reg 12 =" cur_vol [11:0] $end
$var reg 1 N feature_valid $end
$var reg 128 >" features [127:0] $end
$var reg 12 ?" local_avg [11:0] $end
$var reg 12 @" local_delta [11:0] $end
$var reg 8 A" match_count [7:0] $end
$var reg 8 B" match_rate [7:0] $end
$var reg 12 C" price_avg [11:0] $end
$var reg 12 D" price_mad [11:0] $end
$var reg 12 E" price_prev1 [11:0] $end
$var reg 12 F" price_prev2 [11:0] $end
$var reg 15 G" price_sum8 [14:0] $end
$var reg 6 H" ptr_l [5:0] $end
$var reg 5 I" ptr_m [4:0] $end
$var reg 3 J" ptr_s [2:0] $end
$var reg 8 K" sell_count [7:0] $end
$var reg 16 L" trade_timer [15:0] $end
$var reg 12 M" vol_avg [11:0] $end
$var reg 3 N" vol_ptr [2:0] $end
$var reg 15 O" vol_sum8 [14:0] $end
$var reg 8 P" window_cnt [7:0] $end
$var integer 32 Q" i [31:0] $end
$scope function clip8 $end
$var reg 12 R" x [11:0] $end
$upscope $end
$scope function clip8_16 $end
$var reg 16 S" x [15:0] $end
$upscope $end
$scope function imbalance_byte $end
$var reg 8 T" buys [7:0] $end
$var reg 16 U" num [15:0] $end
$var reg 8 V" sells [7:0] $end
$var reg 16 W" total [15:0] $end
$upscope $end
$scope function momentum_byte $end
$var reg 13 X" d1 [12:0] $end
$var reg 13 Y" d2 [12:0] $end
$var reg 13 Z" mom [12:0] $end
$var reg 12 [" p0 [11:0] $end
$var reg 12 \" p1 [11:0] $end
$var reg 12 ]" p2 [11:0] $end
$upscope $end
$scope function price_delta $end
$var reg 12 ^" a [11:0] $end
$var reg 12 _" b [11:0] $end
$var reg 12 `" d [11:0] $end
$upscope $end
$scope function spread_byte $end
$var reg 8 a" asks [7:0] $end
$var reg 8 b" bids [7:0] $end
$upscope $end
$scope function vol_ratio_byte $end
$var reg 12 c" avg [11:0] $end
$var reg 12 d" cur [11:0] $end
$var reg 20 e" num [19:0] $end
$upscope $end
$upscope $end
$scope module u_ml_engine $end
$var wire 1 + clk $end
$var wire 1 N feature_valid $end
$var wire 128 f" features [127:0] $end
$var wire 1 0 rst_n $end
$var reg 32 g" acc2_tmp [31:0] $end
$var reg 3 h" best_class [2:0] $end
$var reg 32 i" gap [31:0] $end
$var reg 32 j" max_logit [31:0] $end
$var reg 32 k" min_logit [31:0] $end
$var reg 3 l" ml_class [2:0] $end
$var reg 8 m" ml_confidence [7:0] $end
$var reg 8 n" ml_margin [7:0] $end
$var reg 1 G ml_valid $end
$var reg 1 o" s0_valid $end
$var reg 1 p" s1_valid $end
$var reg 1 q" s2_valid $end
$var reg 32 r" second_max_logit [31:0] $end
$var integer 32 s" h1 [31:0] $end
$var integer 32 t" h2 [31:0] $end
$var integer 32 u" i1 [31:0] $end
$var integer 32 v" j3 [31:0] $end
$var integer 32 w" k [31:0] $end
$var integer 32 x" o2 [31:0] $end
$scope function rom_b1 $end
$var reg 2 y" addr [1:0] $end
$upscope $end
$scope function rom_b2 $end
$var reg 3 z" addr [2:0] $end
$upscope $end
$scope function rom_w1 $end
$var reg 6 {" addr [5:0] $end
$upscope $end
$scope function rom_w2 $end
$var reg 5 |" addr [4:0] $end
$upscope $end
$scope begin unpack[0] $end
$var parameter 2 }" gi $end
$upscope $end
$scope begin unpack[1] $end
$var parameter 2 ~" gi $end
$upscope $end
$scope begin unpack[2] $end
$var parameter 3 !# gi $end
$upscope $end
$scope begin unpack[3] $end
$var parameter 3 "# gi $end
$upscope $end
$scope begin unpack[4] $end
$var parameter 4 ## gi $end
$upscope $end
$scope begin unpack[5] $end
$var parameter 4 $# gi $end
$upscope $end
$scope begin unpack[6] $end
$var parameter 4 %# gi $end
$upscope $end
$scope begin unpack[7] $end
$var parameter 4 &# gi $end
$upscope $end
$scope begin unpack[8] $end
$var parameter 5 '# gi $end
$upscope $end
$scope begin unpack[9] $end
$var parameter 5 (# gi $end
$upscope $end
$scope begin unpack[10] $end
$var parameter 5 )# gi $end
$upscope $end
$scope begin unpack[11] $end
$var parameter 5 *# gi $end
$upscope $end
$scope begin unpack[12] $end
$var parameter 5 +# gi $end
$upscope $end
$scope begin unpack[13] $end
$var parameter 5 ,# gi $end
$upscope $end
$scope begin unpack[14] $end
$var parameter 5 -# gi $end
$upscope $end
$scope begin unpack[15] $end
$var parameter 5 .# gi $end
$upscope $end
$upscope $end
$scope module u_order_book $end
$var wire 1 8 cb_load $end
$var wire 2 /# cb_mode [1:0] $end
$var wire 8 0# cb_param [7:0] $end
$var wire 2 1# cb_state [1:0] $end
$var wire 1 + clk $end
$var wire 1 2# crossing $end
$var wire 6 3# data_in [5:0] $end
$var wire 6 4# ext_data [5:0] $end
$var wire 2 5# input_type [1:0] $end
$var wire 1 0 rst_n $end
$var wire 4 6# throttle_div [3:0] $end
$var wire 1 7# throttle_allow $end
$var wire 3 8# spread_guard [2:0] $end
$var wire 1 9# order_gate $end
$var wire 7 :# new_price [6:0] $end
$var wire 1 ;# match_gate $end
$var wire 1 <# is_sell $end
$var wire 1 =# is_buy $end
$var wire 7 ># cross_threshold [6:0] $end
$var wire 1 T cb_active $end
$var wire 3 ?# active_guard [2:0] $end
$var reg 7 @# best_ask [6:0] $end
$var reg 2 A# best_ask_idx [1:0] $end
$var reg 1 B# best_ask_valid $end
$var reg 7 C# best_bid [6:0] $end
$var reg 2 D# best_bid_idx [1:0] $end
$var reg 1 E# best_bid_valid $end
$var reg 9 F# cb_countdown [8:0] $end
$var reg 2 G# cb_mode_r [1:0] $end
$var reg 8 H# cb_param_r [7:0] $end
$var reg 2 I# empty_ask_slot [1:0] $end
$var reg 2 J# empty_bid_slot [1:0] $end
$var reg 1 K# has_empty_ask $end
$var reg 1 L# has_empty_bid $end
$var reg 8 M# match_price [7:0] $end
$var reg 1 J match_valid $end
$var reg 4 N# throttle_cnt [3:0] $end
$var integer 32 O# i [31:0] $end
$upscope $end
$scope module u_rule_detector $end
$var wire 1 + clk $end
$var wire 1 P# det_flash $end
$var wire 1 Q# det_imbalance $end
$var wire 1 R# det_spread $end
$var wire 1 S# det_vol_dry $end
$var wire 1 T# det_vol_surge $end
$var wire 1 U# det_volatility $end
$var wire 12 V# flash_thresh [11:0] $end
$var wire 2 W# input_type [1:0] $end
$var wire 8 X# match_price [7:0] $end
$var wire 1 J match_valid $end
$var wire 12 Y# price_data [11:0] $end
$var wire 1 0 rst_n $end
$var wire 12 Z# spike_thresh [11:0] $end
$var wire 12 [# volume_data [11:0] $end
$var wire 13 \# vol_surge_thresh [12:0] $end
$var wire 12 ]# vol_dry_thresh [11:0] $end
$var wire 12 ^# vol_deviation [11:0] $end
$var wire 12 _# price_drop [11:0] $end
$var wire 12 `# price_delta [11:0] $end
$var wire 1 a# is_volume $end
$var wire 1 b# is_sell $end
$var wire 1 c# is_price $end
$var wire 1 d# is_buy $end
$var wire 1 e# det_velocity $end
$var wire 1 f# det_spike $end
$var wire 3 g# alert_type [2:0] $end
$var wire 3 h# alert_priority [2:0] $end
$var wire 8 i# alert_bitmap [7:0] $end
$var wire 1 E alert_any $end
$var parameter 6 j# VELOCITY_THRESH $end
$var parameter 32 k# VOL_DRY_DIV $end
$var parameter 32 l# VOL_SURGE_MULT $end
$var reg 4 m# buy_order_count [3:0] $end
$var reg 12 n# current_price [11:0] $end
$var reg 12 o# current_volume [11:0] $end
$var reg 6 p# match_counter [5:0] $end
$var reg 6 q# match_rate [5:0] $end
$var reg 12 r# prev_price [11:0] $end
$var reg 12 s# price_avg [11:0] $end
$var reg 12 t# price_mad [11:0] $end
$var reg 3 u# price_ptr [2:0] $end
$var reg 15 v# price_sum [14:0] $end
$var reg 4 w# sell_order_count [3:0] $end
$var reg 12 x# vol_avg [11:0] $end
$var reg 3 y# vol_ptr [2:0] $end
$var reg 15 z# vol_sum [14:0] $end
$var reg 8 {# window_timer [7:0] $end
$var integer 32 |# i [31:0] $end
$upscope $end
$upscope $end
$scope task balanced_tick $end
$var reg 12 }# p [11:0] $end
$var reg 12 ~# v [11:0] $end
$upscope $end
$scope task idle $end
$var integer 32 !$ k [31:0] $end
$var integer 32 "$ n [31:0] $end
$upscope $end
$scope task ramp_price $end
$var reg 12 #$ dst [11:0] $end
$var reg 12 $$ p [11:0] $end
$var reg 12 %$ src [11:0] $end
$var integer 32 &$ i [31:0] $end
$var integer 32 '$ steps [31:0] $end
$upscope $end
$scope task send_buy $end
$var reg 6 ($ qty [5:0] $end
$upscope $end
$scope task send_price $end
$var reg 12 )$ p [11:0] $end
$upscope $end
$scope task send_sell $end
$var reg 6 *$ qty [5:0] $end
$upscope $end
$scope task send_volume $end
$var reg 12 +$ v [11:0] $end
$upscope $end
$scope task time_banner $end
$var reg 384 ,$ msg [383:0] $end
$var reg 96 -$ ts [95:0] $end
$upscope $end
$upscope $end
$enddefinitions $end
$comment Show the parameter values. $end
$dumpall
b10 l#
b100 k#
b11110 j#
b1111 .#
b1110 -#
b1101 ,#
b1100 +#
b1011 *#
b1010 )#
b1001 (#
b1000 '#
b111 &#
b110 %#
b101 $#
b100 ##
b11 "#
b10 !#
b1 ~"
b0 }"
b0 ."
b11 -"
b10 ,"
b1 +"
b1000000 *"
b100000 )"
b1011111010111100001000000 ^
b10111110101111000010000000 ]
b110110010 \
$end
#0
$dumpvars
bx -$
bx ,$
bx +$
bx *$
bx )$
bx ($
bx '$
bx &$
bx %$
bx $$
bx #$
bx "$
bx !$
bx ~#
bx }#
b1000 |#
b0 {#
b0 z#
b0 y#
b1100100 x#
b0 w#
b0 v#
b0 u#
b101 t#
b1100100 s#
b1100100 r#
b0 q#
b0 p#
b0 o#
b1100100 n#
b0 m#
b10 i#
b1 h#
b1 g#
0f#
0e#
0d#
1c#
0b#
0a#
b0 `#
b0 _#
b0 ^#
b110 ]#
b110010000 \#
b0 [#
b10100 Z#
b0 Y#
b0 X#
b0 W#
b101000 V#
0U#
0T#
1S#
0R#
0Q#
0P#
b11111111111111111111111111111111 O#
b0 N#
b0 M#
1L#
1K#
b0 J#
b0 I#
b0 H#
b0 G#
b0 F#
0E#
b0 D#
b0 C#
0B#
b0 A#
b1111111 @#
b0 ?#
b1111111 >#
0=#
0<#
1;#
b0 :#
19#
b0 8#
17#
b0 6#
b0 5#
b0 4#
b0 3#
02#
b0 1#
b0 0#
b0 /#
bx |"
bx {"
bx z"
bx y"
bx x"
b10000 w"
bx v"
bx u"
bx t"
bx s"
bx r"
0q"
0p"
0o"
b0 n"
b0 m"
b0 l"
bx k"
bx j"
bx i"
bx h"
bx g"
bx f"
bx e"
bx d"
bx c"
bx b"
bx a"
bx `"
bx _"
bx ^"
bx ]"
bx \"
bx ["
bx Z"
bx Y"
bx X"
bx W"
bx V"
bx U"
bx T"
bx S"
bx R"
b1000 Q"
b0 P"
b1100100000 O"
b0 N"
b1100100 M"
b0 L"
b0 K"
b0 J"
b0 I"
b0 H"
b1100100000 G"
b1100100 F"
b1100100 E"
b101 D"
b1100100 C"
b0 B"
b0 A"
bx @"
bx ?"
bx >"
b1100100 ="
b1100100 <"
b0 ;"
0:"
19"
08"
07"
b0 6"
b0 5"
b0 4"
b0 3"
b0 2"
b0 1"
b0 0"
b0 /"
b0 ("
b0 '"
b0 &"
b1 %"
b1 $"
b0 #"
b0 ""
b0 !"
b0 ~
b1 }
0|
1{
0z
0y
0x
0w
0v
0u
1t
0s
b10010001 r
1q
b1111111111 p
0o
b0 n
b0 m
b1 l
0k
0j
b0 i
b0 h
b0 g
0f
0e
b0 d
b0 c
b0 b
b0 a
b0 `
0_
b101000 [
b10100 Z
0Y
0X
0W
b0 V
b0 U
0T
b0 S
b0 R
b0 Q
b1 P
b1 O
0N
bx M
b0 L
b0 K
0J
b0 I
b0 H
0G
b0 F
1E
b10 D
b1 C
b1 B
b100100 A
b0 @
b0 ?
b11111111 >
b0 =
b0 <
1;
0:
19
08
b0 7
b0 6
b0 5
b0 4
b0 3
b0 2
b0 1
00
b0 /
0.
b10 -
1,
0+
1*
b1 )
b1 (
0'
b0 &
b0 %
0$
b0 #
b10010001 "
b11111111 !
$end
#10000
b110 w"
b1000 Q"
b1000 |#
b100 O#
b1 4
b1 /
1.
b1 3
1+
#20000
0+
#30000
b100 O#
b1000 |#
b1000 Q"
b10000 w"
b10 4
1+
#40000
0+
#50000
b110 w"
b1000 Q"
b1000 |#
b100 O#
b11 4
1+
#60000
0+
#70000
b100 O#
b1000 |#
b1000 Q"
b10000 w"
b100 4
1+
#80000
0+
#90000
b110 (
b110 )
b110 $"
b11100110 "
b11100110 r
b110 P
b110 %"
b11011000 A
b110 O
b110 C
b110 h#
b110 B
b110 }
b110 g#
0;
1U#
b1010100 ^#
b1 #"
b1000011 D
b1000011 i#
1f#
b1100100 `#
b1 d
0q
1o
b1001001000 p
1k
b1 P"
b1 L"
b10000 D"
b1 H"
b1 I"
b1 J"
b1010111100 G"
b0 <"
b1 {#
b10000 t#
b0 s#
b1 u#
b111111110011100 v#
b0 n#
b1100100 @"
b1100100 ?"
b101 4
10
1+
#91000
b1000100010 )$
b11001000 ~#
b1000100010 }#
#100000
0+
#110000
b111 (
b111 )
b111 $"
b11110111 "
b11110111 r
b111 P
b111 %"
b11111100 A
b111 O
b111 C
b111 h#
b111 B
b111 }
b111 g#
0U#
1P#
b0 ^#
b111111110011 _#
b10000010 D
b10000010 i#
0f#
b0 `#
b110 #"
b1 ""
b10 {#
b1110 t#
b111111110011 s#
b10 u#
b111111100111000 v#
b0 r#
b10 P"
b10 L"
b11000 D"
b10 H"
b10 I"
b1010111 C"
b10 J"
b1001011000 G"
b0 E"
b1 m
b10 d
b1010111 @"
b1010111 ?"
b110 /
b10 3
b110 4
1+
#111000
b10001 :#
b1000 4#
b1000100010 F
b1000100010 4"
b1000100010 Y#
b1000100010 ?
b1000100010 5"
b1000100010 [#
b100010 3#
b11001000 +$
b1000 2
b1000 =
b100010 1
b100010 <
#120000
0+
#130000
b1011100 ^#
b111 #"
b110 ""
b10000011 D
b10000011 i#
1f#
b1000100010 `#
b110111000101 _#
b11 d
b10 m
b11 P"
b11 L"
b1001111 D"
b11 H"
b11 I"
b1001011 C"
b11 J"
b10000010110 G"
b1000100010 <"
b0 F"
b11 {#
b111000110 t#
b111111100111 s#
b11 u#
b11110110 v#
b1000100010 n#
b111010111 @"
b1001011 ?"
b111 4
b111 /
b11 3
1+
#131000
b100100 :#
b11 4#
09"
17"
0c#
1a#
b1 L
b1 3"
b1 5#
b1 W#
b11001000 F
b11001000 4"
b11001000 Y#
b11001000 ?
b11001000 5"
b11001000 [#
b1000 3#
b1000 ($
b11 2
b11 =
b1001000 1
b1001000 <
#140000
0+
#150000
b0 \#
b0 ]#
b10000001 D
b10000001 i#
0S#
b111 ""
b100 {#
b0 x#
b1 y#
b1100100 z#
b11001000 o#
b100 P"
b100 L"
b1 N"
b1110000100 O"
b11001000 ="
b11 m
b100 d
b1000 4
1+
#151000
b100 :#
b1000 F
b1000 4"
b1000 Y#
b1000 ?
b1000 5"
b1000 [#
b0 4#
07"
1:"
1=#
0a#
1d#
b10 L
b10 3"
b10 5#
b10 W#
b1000 *$
b0 2
b0 =
b10001000 1
b10001000 <
#160000
0+
#170000
b0 I#
b1 J#
1K#
1L#
1E#
b100 C#
b11111111111111111111111111111111 O#
b101 d
b100 m
b101 P"
b101 L"
b1 ;"
b101 {#
b1 m#
b1001 4
1+
#171000
0:"
18"
0=#
1<#
0d#
1b#
b11 L
b11 3"
b11 5#
b11 W#
b11001000 1
b11001000 <
#180000
0+
#190000
12#
b1 I#
1K#
1L#
b1 J#
1B#
b100 >#
b100 @#
b11111111111111111111111111111111 O#
1E#
b100 C#
b110 {#
b1 w#
b110 P"
b110 L"
b1 K"
b101 m
b110 d
b1010 4
1+
#191000
b10001 :#
b1000 4#
19"
08"
0<#
1c#
0b#
b0 L
b0 3"
b0 5#
b0 W#
b1000100010 F
b1000100010 4"
b1000100010 Y#
b1000100010 ?
b1000100010 5"
b1000100010 [#
b100010 3#
b1000 2
b1000 =
b100010 1
b100010 <
#200000
0+
#210000
b0 (
b0 )
0*
b0 P
b0 A
b0 O
b0 %"
09
0t
b0 C
b0 h#
b0 B
b0 }
b0 g#
0{
0E
0P#
02#
b100 %
1'
b0 ^#
b0 _#
b0 D
b0 i#
0f#
b0 `#
1K#
b0 I#
1L#
b0 J#
b11111111111111111111111111111111 O#
0B#
b1111111 >#
b1111111 @#
0E#
b0 C#
b100 #
b100 @
b1000 "
b1000 r
b111 d
b110 m
b111 P"
b111 L"
b1111001 D"
b100 H"
b100 I"
b10000010 C"
b100 J"
b10111010100 G"
b1000100010 E"
b111 {#
b1101000101 t#
b11110 s#
b100 u#
b1010110100 v#
b1000100010 r#
b100 K
b100 6"
b100 M#
b100 X#
1J
b110100000 @"
b10000010 ?"
b1011 4
1+
#211000
b100100 :#
b11 4#
09"
17"
0c#
1a#
b1 L
b1 3"
b1 5#
b1 W#
b11001000 F
b11001000 4"
b11001000 Y#
b11001000 ?
b11001000 5"
b11001000 [#
b1000 3#
b11 2
b11 =
b1001000 1
b1001000 <
#220000
0+
#230000
b10 (
b10 )
b10 P
b10 %"
b1001000 A
b10 O
b10 C
b10 h#
b10 B
b10 }
b10 g#
1;
1*
b10 $"
19
b0 %
0'
1t
b0 #
b0 @
b10100010 "
b10100010 r
b110000 \#
1{
1E
b100 D
b100 i#
1T#
0J
b1000 {#
b1 p#
b1100 x#
b10 y#
b11001000 z#
b1000 P"
b0 L"
b1 A"
b1110000 M"
b10 N"
b1111101000 O"
b1 /"
0k
b111 m
b1000 d
b1 6
b0 /
0.
b1100 4
1+
#231000
b100 :#
b1000 F
b1000 4"
b1000 Y#
b1000 ?
b1000 5"
b1000 [#
b0 4#
07"
1:"
1=#
0a#
1d#
b10 L
b10 3"
b10 5#
b10 W#
b0 2
b0 =
b10001000 1
b10001000 <
#240000
0+
#250000
0;
b10 #"
b0 I#
b1 J#
1K#
1L#
1E#
b100 C#
b11111111111111111111111111111111 O#
b1001 d
b1000 m
1k
b0 /"
b1001 P"
b1 L"
b10 ;"
b1001 {#
b10 m#
b1101 4
b10 /
1.
b100 3
1+
#251000
0:"
18"
0=#
1<#
0d#
1b#
b11 L
b11 3"
b11 5#
b11 W#
b11001000 1
b11001000 <
#260000
0+
#270000
12#
b1 I#
1K#
1L#
b1 J#
1B#
b100 >#
b100 @#
b11111111111111111111111111111111 O#
1E#
b100 C#
b10 ""
b1010 {#
b10 w#
b1010 P"
b10 L"
b10 K"
b1001 m
b1010 d
b1110 4
1+
#271000
b10001 :#
b1000 4#
19"
08"
0<#
1c#
0b#
b0 L
b0 3"
b0 5#
b0 W#
b1000100010 F
b1000100010 4"
b1000100010 Y#
b1000100010 ?
b1000100010 5"
b1000100010 [#
b100010 3#
b1000 2
b1000 =
b100010 1
b100010 <
#280000
0+
#290000
02#
b100 %
1'
1K#
b0 I#
1L#
b0 J#
b11111111111111111111111111111111 O#
0B#
b1111111 >#
b1111111 @#
0E#
b0 C#
b100 #
b100 @
b10101010 "
b10101010 r
b1011 d
b1010 m
b1011 P"
b11 L"
b10010110 D"
b101 H"
b101 I"
b10111010 C"
b101 J"
b11110010010 G"
b1000100010 F"
b1011 {#
b1100011100 t#
b1010110 s#
b101 u#
b10001110010 v#
1J
b101101000 @"
b10111010 ?"
b1111 4
1+
#291000
b100100 :#
b11 4#
09"
17"
0c#
1a#
b1 L
b1 3"
b1 5#
b1 W#
b11001000 F
b11001000 4"
b11001000 Y#
b11001000 ?
b11001000 5"
b11001000 [#
b1000 3#
b11 2
b11 =
b1001000 1
b1001000 <
#300000
0+
#310000
b0 %
0'
b0 #
b0 @
b10100010 "
b10100010 r
b1100100 \#
b1 ]#
0J
b1100 {#
b10 p#
b11001 x#
b11 y#
b100101100 z#
b1100 P"
b0 L"
b10 A"
b1111101 M"
b11 N"
b10001001100 O"
b1011 m
b1100 d
b10 6
b10000 4
1+
#311000
b100 :#
b1000 F
b1000 4"
b1000 Y#
b1000 ?
b1000 5"
b1000 [#
b0 4#
07"
1:"
1=#
0a#
1d#
b10 L
b10 3"
b10 5#
b10 W#
b0 2
b0 =
b10001000 1
b10001000 <
#320000
0+
#330000
b0 I#
b1 J#
1K#
1L#
1E#
b100 C#
b11111111111111111111111111111111 O#
b1101 d
b1100 m
b1101 P"
b1 L"
b11 ;"
b1101 {#
b11 m#
b10001 4
1+
#331000
0:"
18"
0=#
1<#
0d#
1b#
b11 L
b11 3"
b11 5#
b11 W#
b11001000 1
b11001000 <
#340000
0+
#350000
12#
b1 I#
1K#
1L#
b1 J#
1B#
b100 >#
b100 @#
b11111111111111111111111111111111 O#
1E#
b100 C#
b1110 {#
b11 w#
b1110 P"
b10 L"
b11 K"
b1101 m
b1110 d
b10010 4
1+
#351000
b10001 :#
b1000 4#
19"
08"
0<#
1c#
0b#
b0 L
b0 3"
b0 5#
b0 W#
b1000100010 F
b1000100010 4"
b1000100010 Y#
b1000100010 ?
b1000100010 5"
b1000100010 [#
b100010 3#
b1000 2
b1000 =
b100010 1
b100010 <
#360000
0+
#370000
02#
b100 %
1'
1K#
b0 I#
1L#
b0 J#
b11111111111111111111111111111111 O#
0B#
b1111111 >#
b1111111 @#
0E#
b0 C#
b100 #
b100 @
b10101010 "
b10101010 r
b1111 d
b1110 m
b1111 P"
b11 L"
b10101001 D"
b110 H"
b110 I"
b11110010 C"
b110 J"
b100101010000 G"
b1111 {#
b1011110010 t#
b10001110 s#
b110 u#
b11000110000 v#
1J
b100110000 @"
b11110010 ?"
b10011 4
1+
#371000
b100100 :#
b11 4#
09"
17"
0c#
1a#
b1 L
b1 3"
b1 5#
b1 W#
b11001000 F
b11001000 4"
b11001000 Y#
b11001000 ?
b11001000 5"
b11001000 [#
b1000 3#
b11 2
b11 =
b1001000 1
b1001000 <
#380000
0+
#390000
b0 %
0'
b0 #
b0 @
b10100010 "
b10100010 r
b10010100 \#
b10 ]#
0J
b10000 {#
b11 p#
b100101 x#
b100 y#
b110010000 z#
b10000 P"
b0 L"
b11 A"
b10001001 M"
b100 N"
b10010110000 O"
b1111 m
b10000 d
b11 6
b10100 4
1+
#391000
b100 :#
b1000 F
b1000 4"
b1000 Y#
b1000 ?
b1000 5"
b1000 [#
b0 4#
07"
1:"
1=#
0a#
1d#
b10 L
b10 3"
b10 5#
b10 W#
b0 2
b0 =
b10001000 1
b10001000 <
#400000
0+
#410000
b100 (
b100 )
b100 $"
b11000100 "
b11000100 r
b100 P
b100 %"
b10010000 A
b100 O
b100 C
b100 h#
b100 B
b100 }
b100 g#
b10100 D
b10100 i#
1Q#
b0 I#
b1 J#
1K#
1L#
1E#
b100 C#
b11111111111111111111111111111111 O#
b10001 d
b10000 m
b10001 P"
b1 L"
b100 ;"
b10001 {#
b100 m#
b10101 4
1+
#411000
0:"
18"
0=#
1<#
0d#
1b#
b11 L
b11 3"
b11 5#
b11 W#
b11001000 1
b11001000 <
#420000
0+
#430000
12#
b1 I#
1K#
1L#
b1 J#
1B#
b100 >#
b100 @#
b11111111111111111111111111111111 O#
1E#
b100 C#
b100 #"
b10010 {#
b100 w#
b10010 P"
b10 L"
b100 K"
b10001 m
b10010 d
b100 /
b101 3
b10110 4
1+
#431000
b10001 :#
b1000 4#
19"
08"
0<#
1c#
0b#
b0 L
b0 3"
b0 5#
b0 W#
b1000100010 F
b1000100010 4"
b1000100010 Y#
b1000100010 ?
b1000100010 5"
b1000100010 [#
b100010 3#
b1000 2
b1000 =
b100010 1
b100010 <
#440000
0+
#450000
02#
b100 %
1'
b100 ""
1K#
b0 I#
1L#
b0 J#
b11111111111111111111111111111111 O#
0B#
b1111111 >#
b1111111 @#
0E#
b0 C#
b100 #
b100 @
b11001100 "
b11001100 r
b10011 d
b10010 m
b10011 P"
b11 L"
b10110010 D"
b111 H"
b111 I"
b100101010 C"
b111 J"
b101100001110 G"
b10011 {#
b1011000110 t#
b11000110 s#
b111 u#
b11111101110 v#
1J
b11111000 @"
b100101010 ?"
b10111 4
1+
#451000
b100100 :#
b11 4#
09"
17"
0c#
1a#
b1 L
b1 3"
b1 5#
b1 W#
b11001000 F
b11001000 4"
b11001000 Y#
b11001000 ?
b11001000 5"
b11001000 [#
b1000 3#
b11 2
b11 =
b1001000 1
b1001000 <
#460000
0+
